Suite/Test/Step Name,Browser,Description,Start time,End time,Duration,Status
Parent Execution,,,2019-04-16 15:05:35,2019-04-16 15:07:49,2m - 14.457s,PASSED
,,,,,,
Test Cases/Parent Login/Login/Verify if able to launch the application successfully,,,2019-04-16 15:05:35,2019-04-16 15:06:43,1m - 8.022s,PASSED
"startApplication(""D:\NLP_Prod.apk"", true)",,Browse the applciation in computer,2019-04-16 15:05:35,2019-04-16 15:06:38,1m - 2.580s,PASSED
delay(5),,,2019-04-16 15:06:38,2019-04-16 15:06:43,5.027s,PASSED
,,,,,,
Test Cases/Parent Login/Login/Verify if able to enter school code,,,2019-04-16 15:06:43,2019-04-16 15:06:56,13.379s,PASSED
"setText(findTestObject(""Parent Login/Login/School CodeDomain""), ""DS"", 2)",,,2019-04-16 15:06:43,2019-04-16 15:06:56,13.176s,PASSED
,,,,,,
Test Cases/Parent Login/Login/Verify if able see G Login screen after clicking on proceed with valid school code,,,2019-04-16 15:06:56,2019-04-16 15:06:58,1.182s,PASSED
"tap(findTestObject(""Parent Login/Login/Proceed""), 2)",,,2019-04-16 15:06:57,2019-04-16 15:06:58,0.988s,PASSED
,,,,,,
Test Cases/Parent Login/Google Login selection/Verify if able to sucessfully click on Login with Google button,,,2019-04-16 15:06:58,2019-04-16 15:07:03,4.943s,PASSED
"tap(findTestObject(""Parent Login/Login Details/Login with Google""), 2)",,,2019-04-16 15:06:58,2019-04-16 15:07:03,4.751s,PASSED
,,,,,,
Test Cases/Parent Login/Google Login selection/Verify if able to choose parent email id from the list,,,2019-04-16 15:07:03,2019-04-16 15:07:10,7.090s,PASSED
"tap(findTestObject(""Parent Login/Gmail Account Selection/2268klkreddygmail.com""), 2)",,,2019-04-16 15:07:03,2019-04-16 15:07:10,6.890s,PASSED
,,,,,,
Test Cases/Parent Login/Login/Push Notifications/Verify if able to click on Yes in the Push Notifications popup screen,,,2019-04-16 15:07:10,2019-04-16 15:07:14,4.141s,PASSED
"tap(findTestObject(""Parent Login/Push Notification/Push Notification-Yes""), 0)",,,2019-04-16 15:07:10,2019-04-16 15:07:14,3.927s,PASSED
,,,,,,
Test Cases/Parent Login/Main Menu after Login/Attendance/Verify if Attendance Menu is clickable or not,,,2019-04-16 15:07:14,2019-04-16 15:07:16,1.792s,PASSED
"tap(findTestObject(""Parent Login/Main Menu after Login/Attendance/Attendance""), 0)",,,2019-04-16 15:07:14,2019-04-16 15:07:16,1.603s,PASSED
,,,,,,
Test Cases/Parent Login/Main Menu after Login/Attendance/Verify if able to view all leave types of attendance,,,2019-04-16 15:07:16,2019-04-16 15:07:16,0.194s,PASSED
return null,,,2019-04-16 15:07:16,2019-04-16 15:07:16,0.000s,PASSED
,,,,,,
Test Cases/Parent Login/Main Menu after Login/Attendance/Verify if able to click on back button to view other months details or not,,,2019-04-16 15:07:16,2019-04-16 15:07:23,7.163s,PASSED
"tap(findTestObject(""Parent Login/Main Menu after Login/Attendance/Back button Month View""), 0)",,,2019-04-16 15:07:16,2019-04-16 15:07:23,6.982s,PASSED
,,,,,,
Test Cases/Parent Login/Main Menu after Login/Attendance/Verify if able to view attendance status for the selected date,,,2019-04-16 15:07:23,2019-04-16 15:07:35,11.869s,PASSED
"tap(findTestObject(""Parent Login/Main Menu after Login/Attendance/Status of Attendance""), 0)",,,2019-04-16 15:07:23,2019-04-16 15:07:35,11.672s,PASSED
,,,,,,
Test Cases/Parent Login/Main Menu after Login/Attendance/Verify if able to click on attendance status for other day status,,,2019-04-16 15:07:35,2019-04-16 15:07:42,7.260s,PASSED
"tap(findTestObject(""Parent Login/Main Menu after Login/Attendance/Status of Attendance for other day""), 0)",,,2019-04-16 15:07:35,2019-04-16 15:07:42,7.065s,PASSED
,,,,,,
Test Cases/Parent Login/Main Menu after Login/Attendance/Verify if able to click on Next button to view other months,,,2019-04-16 15:07:42,2019-04-16 15:07:43,0.686s,PASSED
"tap(findTestObject(""Parent Login/Main Menu after Login/Attendance/Next Button for Month View""), 0)",,,2019-04-16 15:07:42,2019-04-16 15:07:43,0.490s,PASSED
