Suite/Test/Step Name,Browser,Description,Start time,End time,Duration,Status
Login,,,2018-09-06 14:02:29,2018-09-06 14:06:06,3m - 37.249s,FAILED
,,,,,,
Test Cases/GLogin,,,2018-09-06 14:02:30,2018-09-06 14:04:36,2m - 5.625s,PASSED
startApplication,,,2018-09-06 14:02:31,2018-09-06 14:03:51,1m - 20.379s,PASSED
delay,,,2018-09-06 14:03:51,2018-09-06 14:03:56,5.064s,PASSED
verifyElementVisible,,,2018-09-06 14:03:56,2018-09-06 14:03:57,1.137s,PASSED
tap,,,2018-09-06 14:03:57,2018-09-06 14:03:59,1.820s,PASSED
waitForElementPresent,,,2018-09-06 14:03:59,2018-09-06 14:04:00,0.558s,PASSED
setText,,Enter SchoolCode,2018-09-06 14:04:00,2018-09-06 14:04:17,17.304s,PASSED
waitForElementPresent,,,2018-09-06 14:04:17,2018-09-06 14:04:18,0.638s,PASSED
tap,,"Click on ""Proceed"" button
",2018-09-06 14:04:18,2018-09-06 14:04:18,0.607s,PASSED
tap,,"Click on ""Login with Google"" Button",2018-09-06 14:04:18,2018-09-06 14:04:22,3.952s,PASSED
setText,,Enter Gmail ,2018-09-06 14:04:22,2018-09-06 14:04:22,0.003s,NOT_RUN
tap,,Click on Next,2018-09-06 14:04:22,2018-09-06 14:04:22,0.002s,NOT_RUN
setText,,Enter Password for gmail account,2018-09-06 14:04:22,2018-09-06 14:04:22,0.002s,NOT_RUN
tap,,Click on Next,2018-09-06 14:04:22,2018-09-06 14:04:22,0.024s,NOT_RUN
tap,,Accept Terms and Services,2018-09-06 14:04:22,2018-09-06 14:04:22,0.000s,NOT_RUN
tap,,Scroll to text for Accept button to be enabled,2018-09-06 14:04:22,2018-09-06 14:04:22,0.020s,NOT_RUN
tap,,Click on Accept,2018-09-06 14:04:22,2018-09-06 14:04:22,0.000s,NOT_RUN
tap,,Choose the desired Gmail login which is registered with NLP,2018-09-06 14:04:22,2018-09-06 14:04:28,5.238s,PASSED
tap,,"Choose ""Yes"" from the Push Notifications Popup",2018-09-06 14:04:28,2018-09-06 14:04:31,3.210s,PASSED
delay,,,2018-09-06 14:04:31,2018-09-06 14:04:36,5.014s,PASSED
"Statement - com.kms.katalon.core.configuration.RunConfiguration.getProjectDir() + 0 == ""Users\lakshmikanthk\Downloads\app-nlp-debug.apk""",,,2018-09-06 14:04:36,2018-09-06 14:04:36,0.003s,NOT_RUN
startApplication,,,2018-09-06 14:04:36,2018-09-06 14:04:36,0.002s,NOT_RUN
waitForElementPresent,,,2018-09-06 14:04:36,2018-09-06 14:04:36,0.002s,NOT_RUN
,,,,,,
Test Cases/Leave,,,2018-09-06 14:04:36,2018-09-06 14:05:59,1m - 23.229s,FAILED
tap,,,2018-09-06 14:04:37,2018-09-06 14:04:38,1.191s,PASSED
scrollToText,,,2018-09-06 14:04:38,2018-09-06 14:04:43,5.448s,PASSED
delay,,,2018-09-06 14:04:43,2018-09-06 14:05:13,30.003s,PASSED
waitForElementPresent,,,2018-09-06 14:05:13,2018-09-06 14:05:15,1.782s,PASSED
tap,,,2018-09-06 14:05:15,2018-09-06 14:05:16,1.440s,PASSED
tap,,,2018-09-06 14:05:16,2018-09-06 14:05:21,4.578s,PASSED
tap,,,2018-09-06 14:05:21,2018-09-06 14:05:59,38.027s,FAILED
