Suite/Test/Step Name,Browser,Description,Start time,End time,Duration,Status
Login,,,2018-08-29 12:44:57,2018-08-29 12:47:40,2m - 42.992s,FAILED
,,,,,,
Test Cases/GLogin,,,2018-08-29 12:44:58,2018-08-29 12:46:44,1m - 45.644s,PASSED
startApplication,,Launch Application,2018-08-29 12:44:59,2018-08-29 12:46:04,1m - 5.567s,PASSED
setText,,Enter SchoolCode,2018-08-29 12:46:04,2018-08-29 12:46:23,19.027s,PASSED
tap,,"Click on ""Proceed"" button
",2018-08-29 12:46:23,2018-08-29 12:46:25,1.453s,PASSED
tap,,"Click on ""Login with Google"" Button",2018-08-29 12:46:25,2018-08-29 12:46:29,4.256s,PASSED
tap,,Choose the desired Gmail login which is registered with NLP,2018-08-29 12:46:29,2018-08-29 12:46:34,5.150s,PASSED
tap,,"Choose ""Yes"" from the Push Notifications Popup",2018-08-29 12:46:34,2018-08-29 12:46:39,4.600s,PASSED
delay,,,2018-08-29 12:46:39,2018-08-29 12:46:44,5.078s,PASSED
"Statement - com.kms.katalon.core.configuration.RunConfiguration.getProjectDir() + 0 == ""Users\lakshmikanthk\Downloads\app-nlp-debug.apk""",,,2018-08-29 12:46:44,2018-08-29 12:46:44,0.009s,NOT_RUN
startApplication,,,2018-08-29 12:46:44,2018-08-29 12:46:44,0.004s,NOT_RUN
waitForElementPresent,,,2018-08-29 12:46:44,2018-08-29 12:46:44,0.002s,NOT_RUN
,,,,,,
Test Cases/Calendar,,,2018-08-29 12:46:44,2018-08-29 12:47:33,49.415s,FAILED
tap,,,2018-08-29 12:46:44,2018-08-29 12:46:45,1.002s,PASSED
tap,,,2018-08-29 12:46:45,2018-08-29 12:46:46,1.253s,PASSED
tap,,,2018-08-29 12:46:46,2018-08-29 12:46:48,1.238s,PASSED
tap,,,2018-08-29 12:46:48,2018-08-29 12:46:49,1.290s,PASSED
tap,,,2018-08-29 12:46:49,2018-08-29 12:46:50,1.318s,PASSED
tap,,,2018-08-29 12:46:50,2018-08-29 12:46:53,2.614s,PASSED
tap,,,2018-08-29 12:46:53,2018-08-29 12:46:55,1.680s,PASSED
tap,,,2018-08-29 12:46:55,2018-08-29 12:46:55,0.894s,PASSED
tap,,,2018-08-29 12:46:55,2018-08-29 12:47:33,37.616s,FAILED
