Suite/Test/Step Name,Browser,Description,Start time,End time,Duration,Status
Login,,,2018-09-05 15:08:05,2018-09-05 15:10:23,2m - 17.955s,FAILED
,,,,,,
Test Cases/GLogin,,,2018-09-05 15:08:06,2018-09-05 15:09:50,1m - 44.042s,PASSED
startApplication,,,2018-09-05 15:08:06,2018-09-05 15:09:04,57.958s,PASSED
delay,,,2018-09-05 15:09:04,2018-09-05 15:09:09,5.076s,PASSED
verifyElementVisible,,,2018-09-05 15:09:09,2018-09-05 15:09:10,0.887s,PASSED
tap,,,2018-09-05 15:09:10,2018-09-05 15:09:12,1.808s,PASSED
waitForElementPresent,,,2018-09-05 15:09:12,2018-09-05 15:09:13,0.770s,PASSED
setText,,Enter SchoolCode,2018-09-05 15:09:13,2018-09-05 15:09:31,18.086s,PASSED
waitForElementPresent,,,2018-09-05 15:09:31,2018-09-05 15:09:32,0.765s,PASSED
tap,,"Click on ""Proceed"" button
",2018-09-05 15:09:32,2018-09-05 15:09:32,0.710s,PASSED
tap,,"Click on ""Login with Google"" Button",2018-09-05 15:09:32,2018-09-05 15:09:36,3.971s,PASSED
setText,,Enter Gmail ,2018-09-05 15:09:36,2018-09-05 15:09:36,0.004s,NOT_RUN
tap,,Click on Next,2018-09-05 15:09:36,2018-09-05 15:09:36,0.002s,NOT_RUN
setText,,Enter Password for gmail account,2018-09-05 15:09:36,2018-09-05 15:09:36,0.003s,NOT_RUN
tap,,Click on Next,2018-09-05 15:09:36,2018-09-05 15:09:36,0.003s,NOT_RUN
tap,,Accept Terms and Services,2018-09-05 15:09:36,2018-09-05 15:09:36,0.002s,NOT_RUN
tap,,Scroll to text for Accept button to be enabled,2018-09-05 15:09:36,2018-09-05 15:09:36,0.003s,NOT_RUN
tap,,Click on Accept,2018-09-05 15:09:36,2018-09-05 15:09:36,0.003s,NOT_RUN
tap,,Choose the desired Gmail login which is registered with NLP,2018-09-05 15:09:36,2018-09-05 15:09:42,5.302s,PASSED
tap,,"Choose ""Yes"" from the Push Notifications Popup",2018-09-05 15:09:42,2018-09-05 15:09:45,3.031s,PASSED
delay,,,2018-09-05 15:09:45,2018-09-05 15:09:50,5.003s,PASSED
"Statement - com.kms.katalon.core.configuration.RunConfiguration.getProjectDir() + 0 == ""Users\lakshmikanthk\Downloads\app-nlp-debug.apk""",,,2018-09-05 15:09:50,2018-09-05 15:09:50,0.003s,NOT_RUN
startApplication,,,2018-09-05 15:09:50,2018-09-05 15:09:50,0.002s,NOT_RUN
waitForElementPresent,,,2018-09-05 15:09:50,2018-09-05 15:09:50,0.004s,NOT_RUN
,,,,,,
Test Cases/Attendance,,,2018-09-05 15:09:50,2018-09-05 15:10:16,26.193s,FAILED
tap,,Click on Attendance Tab,2018-09-05 15:09:50,2018-09-05 15:09:51,0.722s,PASSED
tap,,"Click on ""My Attendance"" Tab to view staff attendance",2018-09-05 15:09:51,2018-09-05 15:09:53,1.700s,PASSED
com.my.keywords.android.swiping.scrollListToElementWithText,,,2018-09-05 15:09:53,2018-09-05 15:09:53,0.000s,NOT_RUN
"Statement - com.detroitlabs.katalonmobileutil.touch.Scroll.scrollListToElementWithText(""August"")",,,2018-09-05 15:09:53,2018-09-05 15:09:53,0.020s,NOT_RUN
tap,,,2018-09-05 15:09:53,2018-09-05 15:09:53,0.000s,NOT_RUN
"Comment - ""Scroll to verify August - 18 Text""",,,2018-09-05 15:09:53,2018-09-05 15:09:53,0.000s,PASSED
scrollToText,,Get item's label,2018-09-05 15:09:53,2018-09-05 15:10:04,11.216s,PASSED
verifyElementText,,Verify April - 18 Text is visible,2018-09-05 15:10:04,2018-09-05 15:10:04,0.003s,NOT_RUN
tap,,Click on Attendance Back button to view other menus,2018-09-05 15:10:04,2018-09-05 15:10:05,0.793s,PASSED
tap,,Click on Student Attendance Roll Call menu,2018-09-05 15:10:05,2018-09-05 15:10:07,2.055s,PASSED
tap,,In Roll Call select First Class,2018-09-05 15:10:07,2018-09-05 15:10:11,4.134s,PASSED
tap,,Select Present for the selected student,2018-09-05 15:10:11,2018-09-05 15:10:11,0.020s,NOT_RUN
swipe,,,2018-09-05 15:10:11,2018-09-05 15:10:16,4.684s,FAILED
