Suite/Test/Step Name,Browser,Description,Start time,End time,Duration,Status
Execution with Checkpoints,,,2018-09-03 16:30:05,2018-09-03 16:31:13,1m - 7.894s,FAILED
,,,,,,
Test Cases/GLogin,,,2018-09-03 16:30:06,2018-09-03 16:31:13,1m - 7.390s,FAILED
startApplication,,Launch Application,2018-09-03 16:30:06,2018-09-03 16:31:13,1m - 6.830s,FAILED
