Suite/Test/Step Name,Browser,Description,Start time,End time,Duration,Status
Login,,,2018-09-14 15:31:13,2018-09-14 15:33:55,2m - 42.017s,FAILED
,,,,,,
Test Cases/GLogin,,,2018-09-14 15:31:13,2018-09-14 15:32:59,1m - 46.087s,PASSED
startApplication,,,2018-09-14 15:31:14,2018-09-14 15:32:15,1m - 0.958s,PASSED
delay,,,2018-09-14 15:32:15,2018-09-14 15:32:15,0.083s,PASSED
verifyElementVisible,,,2018-09-14 15:32:15,2018-09-14 15:32:18,3.171s,PASSED
tap,,,2018-09-14 15:32:18,2018-09-14 15:32:20,1.672s,PASSED
waitForElementPresent,,,2018-09-14 15:32:20,2018-09-14 15:32:21,0.720s,PASSED
setText,,Enter SchoolCode,2018-09-14 15:32:21,2018-09-14 15:32:38,17.661s,PASSED
waitForElementPresent,,,2018-09-14 15:32:38,2018-09-14 15:32:39,0.683s,PASSED
tap,,"Click on ""Proceed"" button
",2018-09-14 15:32:39,2018-09-14 15:32:40,0.710s,PASSED
tap,,"Click on ""Login with Google"" Button",2018-09-14 15:32:40,2018-09-14 15:32:45,4.769s,PASSED
setText,,Enter Gmail ,2018-09-14 15:32:45,2018-09-14 15:32:45,0.006s,NOT_RUN
tap,,Click on Next,2018-09-14 15:32:45,2018-09-14 15:32:45,0.003s,NOT_RUN
setText,,Enter Password for gmail account,2018-09-14 15:32:45,2018-09-14 15:32:45,0.003s,NOT_RUN
tap,,Click on Next,2018-09-14 15:32:45,2018-09-14 15:32:45,0.002s,NOT_RUN
tap,,Accept Terms and Services,2018-09-14 15:32:45,2018-09-14 15:32:45,0.002s,NOT_RUN
tap,,Scroll to text for Accept button to be enabled,2018-09-14 15:32:45,2018-09-14 15:32:45,0.008s,NOT_RUN
tap,,Click on Accept,2018-09-14 15:32:45,2018-09-14 15:32:45,0.002s,NOT_RUN
tap,,Choose the desired Gmail login which is registered with NLP,2018-09-14 15:32:45,2018-09-14 15:32:52,7.105s,PASSED
tap,,"Choose ""Yes"" from the Push Notifications Popup",2018-09-14 15:32:52,2018-09-14 15:32:54,2.747s,PASSED
delay,,,2018-09-14 15:32:54,2018-09-14 15:32:59,5.003s,PASSED
"Statement - com.kms.katalon.core.configuration.RunConfiguration.getProjectDir() + 0 == ""Users\lakshmikanthk\Downloads\app-nlp-debug.apk""",,,2018-09-14 15:32:59,2018-09-14 15:32:59,0.014s,NOT_RUN
startApplication,,,2018-09-14 15:32:59,2018-09-14 15:32:59,0.002s,NOT_RUN
waitForElementPresent,,,2018-09-14 15:32:59,2018-09-14 15:32:59,0.002s,NOT_RUN
,,,,,,
Test Cases/After Sucessfull Login,,,2018-09-14 15:32:59,2018-09-14 15:33:48,48.476s,FAILED
waitForElementVisible,,,2018-09-14 15:33:00,2018-09-14 15:33:00,0.002s,NOT_RUN
tap,,,2018-09-14 15:33:00,2018-09-14 15:33:01,0.628s,PASSED
tap,,,2018-09-14 15:33:01,2018-09-14 15:33:05,4.409s,PASSED
tap,,,2018-09-14 15:33:05,2018-09-14 15:33:09,3.628s,PASSED
tap,,,2018-09-14 15:33:09,2018-09-14 15:33:10,1.130s,PASSED
tap,,,2018-09-14 15:33:10,2018-09-14 15:33:48,38.146s,FAILED
