Suite/Test/Step Name,Browser,Description,Start time,End time,Duration,Status
Login,,,2018-09-05 10:42:53,2018-09-05 10:45:24,2m - 30.937s,FAILED
,,,,,,
Test Cases/GLogin,,,2018-09-05 10:42:54,2018-09-05 10:45:22,2m - 28.529s,FAILED
startApplication,,,2018-09-05 10:42:54,2018-09-05 10:43:39,44.645s,PASSED
delay,,,2018-09-05 10:43:39,2018-09-05 10:44:39,1m - 0.146s,PASSED
verifyElementVisible,,,2018-09-05 10:44:39,2018-09-05 10:44:41,1.567s,PASSED
tap,,,2018-09-05 10:44:41,2018-09-05 10:44:42,1.069s,PASSED
setText,,Enter SchoolCode,2018-09-05 10:44:42,2018-09-05 10:45:22,40.380s,FAILED
