Suite/Test/Step Name,Browser,Description,Start time,End time,Duration,Status
Login,,,2018-08-28 18:05:20,2018-08-28 18:08:14,2m - 54.031s,FAILED
,,,,,,
Test Cases/GLogin,,,2018-08-28 18:05:21,2018-08-28 18:07:01,1m - 39.661s,PASSED
startApplication,,Launch Application,2018-08-28 18:05:22,2018-08-28 18:06:23,1m - 1.273s,PASSED
setText,,Enter SchoolCode,2018-08-28 18:06:23,2018-08-28 18:06:43,19.671s,PASSED
tap,,"Click on ""Proceed"" button
",2018-08-28 18:06:43,2018-08-28 18:06:44,1.122s,PASSED
tap,,"Click on ""Login with Google"" Button",2018-08-28 18:06:44,2018-08-28 18:06:48,4.076s,PASSED
tap,,Choose the desired Gmail login which is registered with NLP,2018-08-28 18:06:48,2018-08-28 18:06:53,4.833s,PASSED
tap,,"Choose ""Yes"" from the Push Notifications Popup",2018-08-28 18:06:53,2018-08-28 18:06:56,2.666s,PASSED
delay,,,2018-08-28 18:06:56,2018-08-28 18:07:01,5.212s,PASSED
"Statement - com.kms.katalon.core.configuration.RunConfiguration.getProjectDir() + 0 == ""Users\lakshmikanthk\Downloads\app-nlp-debug.apk""",,,2018-08-28 18:07:01,2018-08-28 18:07:01,0.000s,NOT_RUN
startApplication,,,2018-08-28 18:07:01,2018-08-28 18:07:01,0.011s,NOT_RUN
waitForElementPresent,,,2018-08-28 18:07:01,2018-08-28 18:07:01,0.000s,NOT_RUN
,,,,,,
Test Cases/Personal Info,,,2018-08-28 18:07:01,2018-08-28 18:08:08,1m - 6.728s,FAILED
tap,,"Click on ""Personal Info"" tab to view logged in Staff details",2018-08-28 18:07:02,2018-08-28 18:07:03,1.002s,PASSED
delay,,,2018-08-28 18:07:03,2018-08-28 18:07:08,5.004s,PASSED
tap,,"Click on ""Personal Details"" tab to view details",2018-08-28 18:07:08,2018-08-28 18:07:08,0.688s,PASSED
verifyElementText,,,2018-08-28 18:07:08,2018-08-28 18:07:10,1.559s,PASSED
tap,,"Minimize ""Personal details"" tab",2018-08-28 18:07:10,2018-08-28 18:07:11,0.703s,PASSED
tap,,"Maximise ""Contact Details"" tab",2018-08-28 18:07:11,2018-08-28 18:07:12,1.127s,PASSED
verifyElementText,,,2018-08-28 18:07:12,2018-08-28 18:07:13,0.982s,PASSED
tap,,"Minimise ""Contact Details"" tab",2018-08-28 18:07:13,2018-08-28 18:07:14,0.747s,PASSED
tap,,"Maximise ""Present Address"" details tab",2018-08-28 18:07:14,2018-08-28 18:07:15,1.001s,PASSED
verifyElementText,,,2018-08-28 18:07:15,2018-08-28 18:07:16,1.613s,PASSED
tap,,"Minimise ""Present Address"" details tab",2018-08-28 18:07:16,2018-08-28 18:07:17,0.741s,PASSED
tap,,"Maximise ""Permanent Address"" details tab",2018-08-28 18:07:17,2018-08-28 18:07:18,1.202s,PASSED
verifyElementText,,,2018-08-28 18:07:18,2018-08-28 18:07:19,0.995s,PASSED
tap,,"Click on ""back button"" in Personal details",2018-08-28 18:07:19,2018-08-28 18:07:20,0.557s,PASSED
tap,,"Click on ""Employemnt Details"" tab",2018-08-28 18:07:20,2018-08-28 18:07:22,2.143s,PASSED
verifyElementText,,,2018-08-28 18:07:22,2018-08-28 18:07:25,2.847s,PASSED
scrollToText,,,2018-08-28 18:07:25,2018-08-28 18:07:29,4.690s,PASSED
verifyElementText,,,2018-08-28 18:07:29,2018-08-28 18:07:30,0.386s,PASSED
tap,,"Click on ""back button"" in Employment details",2018-08-28 18:07:30,2018-08-28 18:07:30,0.546s,PASSED
verifyElementText,,,2018-08-28 18:07:30,2018-08-28 18:08:08,37.297s,FAILED
