Suite/Test/Step Name,Browser,Description,Start time,End time,Duration,Status
Staff Login Flow Execution,,,2019-04-03 14:55:24,2019-04-03 14:57:59,2m - 34.585s,PASSED
,,,,,,
Test Cases/Staff Login/Login/Verify if able to successfully launch aplication,,,2019-04-03 14:55:25,2019-04-03 14:56:45,1m - 20.482s,PASSED
"startApplication(""C:\Users\lakshmikanthk\Downloads\NLP_Prod.apk"", true)",,Browse the applciation in computer,2019-04-03 14:55:26,2019-04-03 14:56:35,1m - 9.516s,PASSED
"delay(10, STOP_ON_FAILURE)",,,2019-04-03 14:56:35,2019-04-03 14:56:45,10.098s,PASSED
,,,,,,
Test Cases/Staff Login/Login/Verify if able to enter school code,,,2019-04-03 14:56:45,2019-04-03 14:57:04,18.403s,PASSED
"setText(findTestObject(""Staff Gmail Login/android.widget.EditText0""), ""DS"", 10)",,Enter School Code,2019-04-03 14:56:46,2019-04-03 14:57:04,17.801s,PASSED
,,,,,,
Test Cases/Staff Login/Login/Verify if able to click on proceed after entering school code,,,2019-04-03 14:57:04,2019-04-03 14:57:06,2.643s,PASSED
"tap(findTestObject(""Google Sign in/android.widget.Button0 - proceed""), 0)",,Click on Proceed,2019-04-03 14:57:05,2019-04-03 14:57:06,0.708s,PASSED
formatter = new java.text.SimpleDateFormat(yyyyMMdd hh mm ss a),,,2019-04-03 14:57:06,2019-04-03 14:57:06,0.011s,PASSED
now = Calendar.getInstance(),,,2019-04-03 14:57:06,2019-04-03 14:57:06,0.030s,PASSED
robot = new java.awt.Robot(),,,2019-04-03 14:57:06,2019-04-03 14:57:06,0.100s,PASSED
screenShot = robot.createScreenCapture(new java.awt.Rectangle(java.awt.Toolkit.getDefaultToolkit().getScreenSize())),,,2019-04-03 14:57:06,2019-04-03 14:57:06,0.197s,PASSED
"ImageIO.write(screenShot, ""JPG"", new java.io.File(((C:\Users\lakshmikanthk\Katalon Studio\Mobile App Google Login + formatter.format(now.getTime())) + .jpg)))",,,2019-04-03 14:57:06,2019-04-03 14:57:06,0.229s,PASSED
out.println(formatter.format(now.getTime())),,,2019-04-03 14:57:06,2019-04-03 14:57:06,0.030s,PASSED
,,,,,,
Test Cases/Staff Login/Login/Verify if able to click on Login with Google button,,,2019-04-03 14:57:06,2019-04-03 14:57:11,4.262s,PASSED
"tap(findTestObject(""Staff Gmail Login/android.widget.FrameLayout7""), 0)",,Click on Login with Google,2019-04-03 14:57:07,2019-04-03 14:57:11,3.884s,PASSED
,,,,,,
Test Cases/Staff Login/Login/Verify if able to select the available login,,,2019-04-03 14:57:11,2019-04-03 14:57:25,14.019s,PASSED
"delay(10, CONTINUE_ON_FAILURE)",,,2019-04-03 14:57:11,2019-04-03 14:57:21,10.006s,PASSED
"tap(findTestObject(""Staff Gmail Login/Select Staff Emailid - klkreddy2268gmail.com""), 0)",,Select the account to login,2019-04-03 14:57:21,2019-04-03 14:57:25,3.474s,PASSED
,,,,,,
Test Cases/Staff Login/Login/Verify if able to select Yes in Push Notifcations popup,,,2019-04-03 14:57:25,2019-04-03 14:57:28,3.742s,PASSED
"tap(findTestObject(""Google Sign in/android.widget.Button1 - Yes""), 0)",,Click on Yes in push notification,2019-04-03 14:57:25,2019-04-03 14:57:28,3.255s,PASSED
,,,,,,
Test Cases/Staff Login/Leave/Leave-Apply/Verify successful access of Leave links,,,2019-04-03 14:57:28,2019-04-03 14:57:31,2.474s,PASSED
"tap(findTestObject(""Leave Menu""), 0)",,"Verify ""Leave"" Menu is clickable or not",2019-04-03 14:57:29,2019-04-03 14:57:31,1.693s,PASSED
"tap(findTestObject(""Leave/Leave Types/Leave Without Pay Tab""), 5)",,Check if able to click on back button Leave without pay or not,2019-04-03 14:57:31,2019-04-03 14:57:31,0.000s,NOT_RUN
"tap(findTestObject(""Leave/Leave Types/android.widget.ImageButton0""), 5, CONTINUE_ON_FAILURE)",,Check if able to click on back button or not,2019-04-03 14:57:31,2019-04-03 14:57:31,0.000s,NOT_RUN
"tap(findTestObject(""Leave/Leave Types/android.widget.ImageButton0""), 5, CONTINUE_ON_FAILURE)",,Check if able to click on back button or not,2019-04-03 14:57:31,2019-04-03 14:57:31,0.000s,NOT_RUN
delay(10),,,2019-04-03 14:57:31,2019-04-03 14:57:31,0.010s,NOT_RUN
"scrollToText(""Maternity Leave"")",,,2019-04-03 14:57:31,2019-04-03 14:57:31,0.000s,NOT_RUN
"itemText = getText(findTestObject(""Leave/Leave Types/Maternity Leave Tab""), 5)",,,2019-04-03 14:57:31,2019-04-03 14:57:31,0.000s,NOT_RUN
"verifyEqual(itemText, ""Maternity Leave"")",,,2019-04-03 14:57:31,2019-04-03 14:57:31,0.000s,NOT_RUN
"tap(findTestObject(""Leave/Leave Types/Maternity Leave Tab""), 5)",,Check if able to click on Maternity leave or not,2019-04-03 14:57:31,2019-04-03 14:57:31,0.010s,NOT_RUN
"tap(findTestObject(""Leave/Leave Types/android.widget.ImageButton0""), 5, CONTINUE_ON_FAILURE)",,Check if able to click on back button or not,2019-04-03 14:57:31,2019-04-03 14:57:31,0.000s,NOT_RUN
"scrollToText(""On Duty"", STOP_ON_FAILURE)",,,2019-04-03 14:57:31,2019-04-03 14:57:31,0.000s,NOT_RUN
"tap(findTestObject(""Leave/Leave Types/On Duty Tab""), 5)",,Check if able to click on Onduty Leave or not,2019-04-03 14:57:31,2019-04-03 14:57:31,0.000s,NOT_RUN
"tap(findTestObject(""Leave/Leave Types/android.widget.ImageButton0""), 5, CONTINUE_ON_FAILURE)",,Check if able to click on back button or not,2019-04-03 14:57:31,2019-04-03 14:57:31,0.037s,NOT_RUN
"scrollToText(""Sabbatical Leave"", STOP_ON_FAILURE)",,,2019-04-03 14:57:31,2019-04-03 14:57:31,0.002s,NOT_RUN
"tap(findTestObject(""Leave/Leave Types/Sabbatical Leave""), 5)",,Check if able to click on Sabbatical leave or not,2019-04-03 14:57:31,2019-04-03 14:57:31,0.016s,NOT_RUN
"tap(findTestObject(""Leave/Leave Types/android.widget.ImageButton0""), 5, CONTINUE_ON_FAILURE)",,Check if able to click on back button or not,2019-04-03 14:57:31,2019-04-03 14:57:31,0.002s,NOT_RUN
"tap(findTestObject(""Leave/Leave Types/android.widget.LinearLayout19 (1)""), 5)",,,2019-04-03 14:57:31,2019-04-03 14:57:31,0.002s,NOT_RUN
"tap(findTestObject(""Leave/Leave-Upload File - Click on Images""), 5)",,,2019-04-03 14:57:31,2019-04-03 14:57:31,0.002s,NOT_RUN
"tap(findTestObject(""Leave/Leave-File Upload-Image-Screenshot folder-image selection""), 0)",,,2019-04-03 14:57:31,2019-04-03 14:57:31,0.002s,NOT_RUN
"verifyElementText(findTestObject(""Leave/Leave-Upload File- Name for verification""), ""File size"")",,,2019-04-03 14:57:31,2019-04-03 14:57:31,0.002s,NOT_RUN
"scrollToText(""4/4/2018 (SecondHalf)"", CONTINUE_ON_FAILURE)",,"Check if able to scroll to ""Sick Leave"" Text or not",2019-04-03 14:57:31,2019-04-03 14:57:31,0.002s,NOT_RUN
"verifyElementText(findTestObject(""Leave/History/History-All-Scroll to last leave type and Withdraw the pending leave""), ""Withdraw"")",,,2019-04-03 14:57:31,2019-04-03 14:57:31,0.003s,NOT_RUN
,,,,,,
Test Cases/Staff Login/Leave/Leave-History/Verify back button is click in leave,,,2019-04-03 14:57:31,2019-04-03 14:57:33,1.671s,PASSED
"tap(findTestObject(""Leave Details page back button""), 0)",,Click on leave details back page ,2019-04-03 14:57:31,2019-04-03 14:57:33,1.278s,PASSED
,,,,,,
Test Cases/Staff Login/Transport/Verify successful access of Transport links,,,2019-04-03 14:57:33,2019-04-03 14:57:34,1.504s,PASSED
"tap(findTestObject(""Transport Menu""), 0)",,,2019-04-03 14:57:33,2019-04-03 14:57:34,1.124s,PASSED
,,,,,,
Test Cases/Staff Login/Transport/Verify expand button is clickable to view details,,,2019-04-03 14:57:34,2019-04-03 14:57:37,2.919s,PASSED
"tap(findTestObject(""Transport Route Details Expand""), 0)",,,2019-04-03 14:57:34,2019-04-03 14:57:37,2.562s,PASSED
,,,,,,
Test Cases/Staff Login/Transport/Verify able to click on Minimise button,,,2019-04-03 14:57:37,2019-04-03 14:57:39,1.780s,PASSED
"tap(findTestObject(""Transport details Minimise""), 0)",,,2019-04-03 14:57:37,2019-04-03 14:57:39,1.336s,PASSED
,,,,,,
Test Cases/Staff Login/Transport/Verify able to click on Transport Call button to view details,,,2019-04-03 14:57:39,2019-04-03 14:57:40,1.234s,PASSED
"tap(findTestObject(""Transport Call button""), 0)",,,2019-04-03 14:57:39,2019-04-03 14:57:40,0.765s,PASSED
,,,,,,
Test Cases/Staff Login/Transport/Verify able to click on outside dialog to close the telephone details,,,2019-04-03 14:57:40,2019-04-03 14:57:45,4.762s,PASSED
"tap(findTestObject(""Transport Menu outside click for closing contact details""), 0)",,,2019-04-03 14:57:40,2019-04-03 14:57:45,4.291s,PASSED
,,,,,,
Test Cases/Staff Login/Transport/Verify back button is clickable in transport,,,2019-04-03 14:57:45,2019-04-03 14:57:46,0.882s,PASSED
"tap(findTestObject(""Transport details back button""), 0)",,,2019-04-03 14:57:45,2019-04-03 14:57:46,0.497s,PASSED
,,,,,,
Test Cases/Staff Login/Messages/Verify successful access of Messages links,,,2019-04-03 14:57:46,2019-04-03 14:57:48,2.280s,PASSED
"tap(findTestObject(""Messages Menu""), 0)",,,2019-04-03 14:57:46,2019-04-03 14:57:48,1.797s,PASSED
"tap(findTestObject(""Messages Filter""), 2)",,,2019-04-03 14:57:48,2019-04-03 14:57:48,0.012s,NOT_RUN
,,,,,,
Test Cases/Staff Login/Messages/SMS/Verify able to click on SMS Tab,,,2019-04-03 14:57:48,2019-04-03 14:57:49,1.339s,PASSED
"tap(findTestObject(""Click on SMS Tab""), 0)",,,2019-04-03 14:57:48,2019-04-03 14:57:49,0.966s,PASSED
,,,,,,
Test Cases/Staff Login/Messages/EMAIL/Verify able to click on Email tab,,,2019-04-03 14:57:49,2019-04-03 14:57:50,1.055s,PASSED
"tap(findTestObject(""Click on Email Tab""), 2)",,,2019-04-03 14:57:50,2019-04-03 14:57:50,0.596s,PASSED
,,,,,,
Test Cases/Staff Login/Messages/NOTIFICATIONS/Verify able to click on Notifications tab,,,2019-04-03 14:57:50,2019-04-03 14:57:52,1.252s,PASSED
"tap(findTestObject(""Click on Notification Tab""), 2)",,,2019-04-03 14:57:51,2019-04-03 14:57:52,0.844s,PASSED
