Suite/Test/Step Name,Browser,Description,Start time,End time,Duration,Status
Login,,,2018-09-05 16:41:20,2018-09-05 16:44:10,2m - 49.671s,ERROR
,,,,,,
Test Cases/GLogin,,,2018-09-05 16:41:21,2018-09-05 16:43:12,1m - 50.966s,PASSED
startApplication,,,2018-09-05 16:41:22,2018-09-05 16:42:25,1m - 3.106s,PASSED
delay,,,2018-09-05 16:42:25,2018-09-05 16:42:30,5.042s,PASSED
verifyElementVisible,,,2018-09-05 16:42:30,2018-09-05 16:42:31,1.122s,PASSED
tap,,,2018-09-05 16:42:31,2018-09-05 16:42:33,1.691s,PASSED
waitForElementPresent,,,2018-09-05 16:42:33,2018-09-05 16:42:34,1.449s,PASSED
setText,,Enter SchoolCode,2018-09-05 16:42:34,2018-09-05 16:42:52,17.880s,PASSED
waitForElementPresent,,,2018-09-05 16:42:52,2018-09-05 16:42:53,0.670s,PASSED
tap,,"Click on ""Proceed"" button
",2018-09-05 16:42:53,2018-09-05 16:42:53,0.836s,PASSED
tap,,"Click on ""Login with Google"" Button",2018-09-05 16:42:53,2018-09-05 16:42:59,5.454s,PASSED
setText,,Enter Gmail ,2018-09-05 16:42:59,2018-09-05 16:42:59,0.000s,NOT_RUN
tap,,Click on Next,2018-09-05 16:42:59,2018-09-05 16:42:59,0.020s,NOT_RUN
setText,,Enter Password for gmail account,2018-09-05 16:42:59,2018-09-05 16:42:59,0.000s,NOT_RUN
tap,,Click on Next,2018-09-05 16:42:59,2018-09-05 16:42:59,0.010s,NOT_RUN
tap,,Accept Terms and Services,2018-09-05 16:42:59,2018-09-05 16:42:59,0.000s,NOT_RUN
tap,,Scroll to text for Accept button to be enabled,2018-09-05 16:42:59,2018-09-05 16:42:59,0.000s,NOT_RUN
tap,,Click on Accept,2018-09-05 16:42:59,2018-09-05 16:42:59,0.010s,NOT_RUN
tap,,Choose the desired Gmail login which is registered with NLP,2018-09-05 16:42:59,2018-09-05 16:43:04,4.794s,PASSED
tap,,"Choose ""Yes"" from the Push Notifications Popup",2018-09-05 16:43:04,2018-09-05 16:43:07,3.117s,PASSED
delay,,,2018-09-05 16:43:07,2018-09-05 16:43:12,5.002s,PASSED
"Statement - com.kms.katalon.core.configuration.RunConfiguration.getProjectDir() + 0 == ""Users\lakshmikanthk\Downloads\app-nlp-debug.apk""",,,2018-09-05 16:43:12,2018-09-05 16:43:12,0.003s,NOT_RUN
startApplication,,,2018-09-05 16:43:12,2018-09-05 16:43:12,0.020s,NOT_RUN
waitForElementPresent,,,2018-09-05 16:43:12,2018-09-05 16:43:12,0.000s,NOT_RUN
,,,,,,
Test Cases/Attendance,,,2018-09-05 16:43:12,2018-09-05 16:44:03,51.295s,ERROR
tap,,Click on Attendance Tab,2018-09-05 16:43:13,2018-09-05 16:43:14,0.920s,PASSED
tap,,"Click on ""My Attendance"" Tab to view staff attendance",2018-09-05 16:43:14,2018-09-05 16:43:15,1.585s,PASSED
com.my.keywords.android.swiping.scrollListToElementWithText,,,2018-09-05 16:43:15,2018-09-05 16:43:15,0.003s,NOT_RUN
"Statement - com.detroitlabs.katalonmobileutil.touch.Scroll.scrollListToElementWithText(""August"")",,,2018-09-05 16:43:15,2018-09-05 16:43:15,0.004s,NOT_RUN
tap,,,2018-09-05 16:43:15,2018-09-05 16:43:15,0.006s,NOT_RUN
"Comment - ""Scroll to verify August - 18 Text""",,,2018-09-05 16:43:15,2018-09-05 16:43:15,0.001s,PASSED
scrollToText,,Get item's label,2018-09-05 16:43:15,2018-09-05 16:43:26,11.084s,PASSED
verifyElementText,,Verify April - 18 Text is visible,2018-09-05 16:43:26,2018-09-05 16:43:26,0.000s,NOT_RUN
tap,,Click on Attendance Back button to view other menus,2018-09-05 16:43:26,2018-09-05 16:43:27,0.668s,PASSED
tap,,Click on Student Attendance Roll Call menu,2018-09-05 16:43:27,2018-09-05 16:43:29,2.047s,PASSED
tap,,In Roll Call select First Class,2018-09-05 16:43:29,2018-09-05 16:43:33,4.186s,PASSED
tap,,Select Present for the selected student,2018-09-05 16:43:33,2018-09-05 16:43:33,0.004s,NOT_RUN
delay,,,2018-09-05 16:43:33,2018-09-05 16:44:03,30.001s,PASSED
keyword.swipe.swipeDirection,,,2018-09-05 16:44:03,2018-09-05 16:44:03,0.031s,ERROR
