Suite/Test/Step Name,Browser,Description,Start time,End time,Duration,Status
Login,,,2018-08-29 14:57:18,2018-08-29 14:59:20,2m - 1.128s,ERROR
,,,,,,
Test Cases/GLogin,,,2018-08-29 14:57:19,2018-08-29 14:59:00,1m - 40.881s,PASSED
startApplication,,Launch Application,2018-08-29 14:57:20,2018-08-29 14:58:19,58.971s,PASSED
setText,,Enter SchoolCode,2018-08-29 14:58:19,2018-08-29 14:58:40,21.457s,PASSED
tap,,"Click on ""Proceed"" button
",2018-08-29 14:58:40,2018-08-29 14:58:41,1.048s,PASSED
tap,,"Click on ""Login with Google"" Button",2018-08-29 14:58:41,2018-08-29 14:58:45,4.331s,PASSED
tap,,Choose the desired Gmail login which is registered with NLP,2018-08-29 14:58:45,2018-08-29 14:58:49,3.860s,PASSED
tap,,"Choose ""Yes"" from the Push Notifications Popup",2018-08-29 14:58:49,2018-08-29 14:58:55,5.360s,PASSED
delay,,,2018-08-29 14:58:55,2018-08-29 14:59:00,5.220s,PASSED
"Statement - com.kms.katalon.core.configuration.RunConfiguration.getProjectDir() + 0 == ""Users\lakshmikanthk\Downloads\app-nlp-debug.apk""",,,2018-08-29 14:59:00,2018-08-29 14:59:00,0.007s,NOT_RUN
startApplication,,,2018-08-29 14:59:00,2018-08-29 14:59:00,0.002s,NOT_RUN
waitForElementPresent,,,2018-08-29 14:59:00,2018-08-29 14:59:00,0.002s,NOT_RUN
,,,,,,
Test Cases/Calendar,,,2018-08-29 14:59:00,2018-08-29 14:59:13,12.535s,ERROR
tap,,,2018-08-29 14:59:01,2018-08-29 14:59:02,0.957s,PASSED
tap,,,2018-08-29 14:59:02,2018-08-29 14:59:03,1.809s,PASSED
tap,,,2018-08-29 14:59:03,2018-08-29 14:59:05,1.149s,PASSED
tap,,,2018-08-29 14:59:05,2018-08-29 14:59:06,1.275s,PASSED
tap,,,2018-08-29 14:59:06,2018-08-29 14:59:07,1.259s,PASSED
tap,,,2018-08-29 14:59:07,2018-08-29 14:59:10,2.406s,PASSED
tap,,,2018-08-29 14:59:10,2018-08-29 14:59:11,1.494s,PASSED
tap,,,2018-08-29 14:59:11,2018-08-29 14:59:12,1.041s,PASSED
closeNotification,,,2018-08-29 14:59:12,2018-08-29 14:59:12,0.030s,PASSED
