<?xml version="1.0" encoding="UTF-8" standalone="no"?>
<!DOCTYPE log SYSTEM "logger.dtd">
<log>
<record>
  <date>2019-04-19T16:55:30</date>
  <millis>1555673130747</millis>
  <sequence>0</sequence>
  <level>START</level>
  <class>com.kms.katalon.core.logging.XmlKeywordLogger</class>
  <method>startSuite</method>
  <thread>1</thread>
  <message>Start Test Suite : Test Suites/Parent Login Flow/Parent Execution</message>
  <nestedLevel>0</nestedLevel>
  <property name="name">Parent Execution</property>
  <property name="description"></property>
  <property name="id">Test Suites/Parent Login Flow/Parent Execution</property>
</record>
<record>
  <date>2019-04-19T16:55:30</date>
  <millis>1555673130765</millis>
  <sequence>1</sequence>
  <level>RUN_DATA</level>
  <class>com.kms.katalon.core.logging.XmlKeywordLogger</class>
  <method>logMessage</method>
  <thread>1</thread>
  <message>hostName = lakshmikanthk - Next-hyd-321.nexteducation.com</message>
  <nestedLevel>0</nestedLevel>
  <property name="hostName">lakshmikanthk - Next-hyd-321.nexteducation.com</property>
</record>
<record>
  <date>2019-04-19T16:55:30</date>
  <millis>1555673130765</millis>
  <sequence>2</sequence>
  <level>RUN_DATA</level>
  <class>com.kms.katalon.core.logging.XmlKeywordLogger</class>
  <method>logMessage</method>
  <thread>1</thread>
  <message>os = Windows 7 64bit</message>
  <nestedLevel>0</nestedLevel>
  <property name="os">Windows 7 64bit</property>
</record>
<record>
  <date>2019-04-19T16:55:30</date>
  <millis>1555673130766</millis>
  <sequence>3</sequence>
  <level>RUN_DATA</level>
  <class>com.kms.katalon.core.logging.XmlKeywordLogger</class>
  <method>logMessage</method>
  <thread>1</thread>
  <message>hostAddress = 192.168.32.165</message>
  <nestedLevel>0</nestedLevel>
  <property name="hostAddress">192.168.32.165</property>
</record>
<record>
  <date>2019-04-19T16:55:30</date>
  <millis>1555673130767</millis>
  <sequence>4</sequence>
  <level>RUN_DATA</level>
  <class>com.kms.katalon.core.logging.XmlKeywordLogger</class>
  <method>logMessage</method>
  <thread>1</thread>
  <message>katalonVersion = 6.1.0.1</message>
  <nestedLevel>0</nestedLevel>
  <property name="katalonVersion">6.1.0.1</property>
</record>
<record>
  <date>2019-04-19T16:55:31</date>
  <millis>1555673131020</millis>
  <sequence>5</sequence>
  <level>START</level>
  <class>com.kms.katalon.core.logging.XmlKeywordLogger</class>
  <method>startTest</method>
  <thread>1</thread>
  <message>Start Test Case : Test Cases/Parent Login/Login/Verify if able to launch the application successfully</message>
  <nestedLevel>1</nestedLevel>
  <property name="name">Test Cases/Parent Login/Login/Verify if able to launch the application successfully</property>
  <property name="description"></property>
  <property name="id">Test Cases/Parent Login/Login/Verify if able to launch the application successfully</property>
  <property name="source">C:\\Users\\lakshmikanthk\\Katalon Studio\\Mobile App G Login\\Test Cases\\Parent Login\\Login\\Verify if able to launch the application successfully.tc</property>
  <property name="isOptional">false</property>
</record>
<record>
  <date>2019-04-19T16:55:31</date>
  <millis>1555673131390</millis>
  <sequence>7</sequence>
  <level>START</level>
  <class>com.kms.katalon.core.logging.XmlKeywordLogger</class>
  <method>startKeyword</method>
  <thread>1</thread>
  <message>Start action : startApplication(\&amp;quot;D:\\NLP_Prod.apk\&amp;quot;, true)</message>
  <nestedLevel>1</nestedLevel>
  <property name="startLine">17</property>
  <property name="stepIndex">1</property>
  <property name="description">Browse the applciation in computer</property>
</record>
<record>
  <date>2019-04-19T16:55:31</date>
  <millis>1555673131643</millis>
  <sequence>9</sequence>
  <level>INFO</level>
  <class>com.kms.katalon.core.logging.XmlKeywordLogger</class>
  <method>logMessage</method>
  <thread>1</thread>
  <message>User set preference: [&amp;apos;appWaitActivity&amp;apos;, &amp;apos;*&amp;apos;]</message>
  <nestedLevel>1</nestedLevel>
</record>
<record>
  <date>2019-04-19T16:55:31</date>
  <millis>1555673131644</millis>
  <sequence>10</sequence>
  <level>INFO</level>
  <class>com.kms.katalon.core.logging.XmlKeywordLogger</class>
  <method>logMessage</method>
  <thread>1</thread>
  <message>User set preference: [&amp;apos;uniCodeKeyboard&amp;apos;, &amp;apos;true&amp;apos;]</message>
  <nestedLevel>1</nestedLevel>
</record>
<record>
  <date>2019-04-19T16:55:31</date>
  <millis>1555673131644</millis>
  <sequence>11</sequence>
  <level>INFO</level>
  <class>com.kms.katalon.core.logging.XmlKeywordLogger</class>
  <method>logMessage</method>
  <thread>1</thread>
  <message>User set preference: [&amp;apos;deviceId&amp;apos;, &amp;apos;4d002db30eec21d9&amp;apos;]</message>
  <nestedLevel>1</nestedLevel>
</record>
<record>
  <date>2019-04-19T16:55:36</date>
  <millis>1555673136622</millis>
  <sequence>12</sequence>
  <level>INFO</level>
  <class>com.kms.katalon.core.logging.XmlKeywordLogger</class>
  <method>logMessage</method>
  <thread>1</thread>
  <message>Appium server started on port 59,436</message>
  <nestedLevel>1</nestedLevel>
</record>
