Suite/Test/Step Name,Browser,Description,Start time,End time,Duration,Status
Login,,,2018-09-13 15:13:07,2018-09-13 15:15:37,2m - 29.494s,FAILED
,,,,,,
Test Cases/GLogin,,,2018-09-13 15:13:08,2018-09-13 15:15:31,2m - 23.050s,FAILED
startApplication,,,2018-09-13 15:13:09,2018-09-13 15:14:30,1m - 21.051s,PASSED
delay,,,2018-09-13 15:14:30,2018-09-13 15:14:30,0.119s,PASSED
verifyElementVisible,,,2018-09-13 15:14:30,2018-09-13 15:14:32,1.558s,PASSED
tap,,,2018-09-13 15:14:32,2018-09-13 15:14:32,0.393s,PASSED
waitForElementPresent,,,2018-09-13 15:14:32,2018-09-13 15:14:34,1.698s,PASSED
setText,,Enter SchoolCode,2018-09-13 15:14:34,2018-09-13 15:14:43,8.989s,PASSED
waitForElementPresent,,,2018-09-13 15:14:43,2018-09-13 15:14:43,0.653s,PASSED
tap,,"Click on ""Proceed"" button
",2018-09-13 15:14:43,2018-09-13 15:14:44,0.339s,PASSED
tap,,"Click on ""Login with Google"" Button",2018-09-13 15:14:44,2018-09-13 15:14:48,4.471s,PASSED
setText,,Enter Gmail ,2018-09-13 15:14:48,2018-09-13 15:14:48,0.006s,NOT_RUN
tap,,Click on Next,2018-09-13 15:14:48,2018-09-13 15:14:48,0.004s,NOT_RUN
setText,,Enter Password for gmail account,2018-09-13 15:14:48,2018-09-13 15:14:48,0.018s,NOT_RUN
tap,,Click on Next,2018-09-13 15:14:48,2018-09-13 15:14:48,0.007s,NOT_RUN
tap,,Accept Terms and Services,2018-09-13 15:14:48,2018-09-13 15:14:48,0.006s,NOT_RUN
tap,,Scroll to text for Accept button to be enabled,2018-09-13 15:14:48,2018-09-13 15:14:48,0.007s,NOT_RUN
tap,,Click on Accept,2018-09-13 15:14:48,2018-09-13 15:14:48,0.003s,NOT_RUN
tap,,Choose the desired Gmail login which is registered with NLP,2018-09-13 15:14:48,2018-09-13 15:14:51,2.459s,PASSED
tap,,"Choose ""Yes"" from the Push Notifications Popup",2018-09-13 15:14:51,2018-09-13 15:15:31,40.290s,FAILED
