Suite/Test/Step Name,Browser,Description,Start time,End time,Duration,Status
Parent Execution,,,2019-04-15 14:11:20,2019-04-15 14:12:20,59.943s,FAILED
,,,,,,
Test Cases/Parent Login/Login/Verify if able to launch the application successfully,,,2019-04-15 14:11:20,2019-04-15 14:12:06,46.414s,FAILED
"startApplication(""D:\NLP_Prod.apk"", true)",,Browse the applciation in computer,2019-04-15 14:11:20,2019-04-15 14:12:01,40.903s,FAILED
delay(5),,,2019-04-15 14:12:01,2019-04-15 14:12:06,5.044s,FAILED
,,,,,,
Test Cases/Parent Login/Login/Verify if able to enter school code,,,2019-04-15 14:12:06,2019-04-15 14:12:07,0.276s,FAILED
"setText(findTestObject(""Parent Login/Login/School CodeDomain""), ""DS"", 2)",,,2019-04-15 14:12:07,2019-04-15 14:12:07,0.066s,FAILED
,,,,,,
Test Cases/Parent Login/Login/Verify if able see G Login screen after clicking on proceed with valid school code,,,2019-04-15 14:12:07,2019-04-15 14:12:07,0.277s,FAILED
"tap(findTestObject(""Parent Login/Login/Proceed""), 2)",,,2019-04-15 14:12:07,2019-04-15 14:12:07,0.026s,FAILED
,,,,,,
Test Cases/Parent Login/Google Login selection/Verify if able to sucessfully click on Login with Google button,,,2019-04-15 14:12:07,2019-04-15 14:12:08,0.473s,FAILED
"tap(findTestObject(""Parent Login/Login Details/Login with Google""), 2)",,,2019-04-15 14:12:07,2019-04-15 14:12:08,0.270s,FAILED
,,,,,,
Test Cases/Parent Login/Google Login selection/Verify if able to choose parent email id from the list,,,2019-04-15 14:12:08,2019-04-15 14:12:08,0.200s,FAILED
"tap(findTestObject(""Parent Login/Gmail Account Selection/2268klkreddygmail.com""), 2)",,,2019-04-15 14:12:08,2019-04-15 14:12:08,0.010s,FAILED
,,,,,,
Test Cases/Parent Login/Login/Push Notifications/Verify if able to click on Yes in the Push Notifications popup screen,,,2019-04-15 14:12:08,2019-04-15 14:12:09,0.459s,FAILED
"tap(findTestObject(""Parent Login/Push Notification/Push Notification-Yes""), 0)",,,2019-04-15 14:12:08,2019-04-15 14:12:09,0.263s,FAILED
,,,,,,
Test Cases/Parent Login/Menu/Home/Verify if able to click on Menu after logged in,,,2019-04-15 14:12:09,2019-04-15 14:12:09,0.198s,FAILED
"tap(findTestObject(""Parent Login/Menu/Menu Icon""), 2)",,,2019-04-15 14:12:09,2019-04-15 14:12:09,0.009s,FAILED
,,,,,,
"Test Cases/Parent Login/Menu/Magazine/Verify when clicked on Magazine, Magazines page is getting launched or not",,,2019-04-15 14:12:09,2019-04-15 14:12:10,0.390s,FAILED
"tap(findTestObject(""Parent Login/Menu/Maganizes/Magazine Button""), 3)",,,2019-04-15 14:12:09,2019-04-15 14:12:10,0.097s,FAILED
,,,,,,
Test Cases/Parent Login/Menu/Magazine/Verify if first magazine is clickable or not,,,2019-04-15 14:12:10,2019-04-15 14:12:10,0.493s,FAILED
"tap(findTestObject(""Parent Login/Menu/Maganizes/Magazine 1""), 2)",,,2019-04-15 14:12:10,2019-04-15 14:12:10,0.304s,FAILED
,,,,,,
Test Cases/Parent Login/Menu/Magazine/Verify if able to successfully click on Download PDF button for downloading magazine,,,2019-04-15 14:12:10,2019-04-15 14:12:10,0.201s,FAILED
"tap(findTestObject(""Parent Login/Menu/Maganizes/DOWNLOAD PDF Button""), 2)",,,2019-04-15 14:12:10,2019-04-15 14:12:10,0.015s,FAILED
,,,,,,
Test Cases/Parent Login/Menu/Magazine/Verify if downloading of magazine is started or not from notification panel,,,2019-04-15 14:12:11,2019-04-15 14:12:12,0.237s,FAILED
openNotifications(),,,2019-04-15 14:12:12,2019-04-15 14:12:12,0.038s,FAILED
,,,,,,
Test Cases/Parent Login/Menu/Magazine/Verify if able to click on close button to close the magazine preview,,,2019-04-15 14:12:12,2019-04-15 14:12:12,0.409s,FAILED
"tap(findTestObject(""Parent Login/Menu/Maganizes/Magazine Close Button""), 0)",,,2019-04-15 14:12:12,2019-04-15 14:12:12,0.196s,FAILED
,,,,,,
Test Cases/Parent Login/Menu/Magazine/Verify if second magazine is clickable or not,,,2019-04-15 14:12:12,2019-04-15 14:12:13,0.641s,FAILED
"tap(findTestObject(""Parent Login/Menu/Maganizes/Magazine 2""), 2)",,,2019-04-15 14:12:12,2019-04-15 14:12:12,0.009s,FAILED
,,,,,,
Test Cases/Parent Login/Menu/Magazine/Verify if able to click on View button to view the downloaded magazine or not,,,2019-04-15 14:12:13,2019-04-15 14:12:13,0.191s,FAILED
"tap(findTestObject(""Parent Login/Menu/Maganizes/PDF VIEW after download""), 0)",,,2019-04-15 14:12:13,2019-04-15 14:12:13,0.009s,FAILED
,,,,,,
Test Cases/Parent Login/Menu/Magazine/Verify if able to click on close button to close the magazine preview,,,2019-04-15 14:12:13,2019-04-15 14:12:14,0.834s,FAILED
"tap(findTestObject(""Parent Login/Menu/Maganizes/Magazine Close Button""), 0)",,,2019-04-15 14:12:13,2019-04-15 14:12:14,0.820s,FAILED
,,,,,,
Test Cases/Parent Login/Menu/Home/Verify if able to click on Menu after logged in,,,2019-04-15 14:12:14,2019-04-15 14:12:15,0.630s,FAILED
"tap(findTestObject(""Parent Login/Menu/Menu Icon""), 2)",,,2019-04-15 14:12:14,2019-04-15 14:12:15,0.595s,FAILED
,,,,,,
Test Cases/Parent Login/Menu/Home/Logout/Verify when clicked on Logout application is getting logout out or not,,,2019-04-15 14:12:15,2019-04-15 14:12:15,0.672s,FAILED
"tap(findTestObject(""Parent Login/Menu/Logout/Logout Button""), 2)",,,2019-04-15 14:12:15,2019-04-15 14:12:15,0.368s,FAILED
,,,,,,
Test Cases/Parent Login/Login/Verify if able to enter school code,,,2019-04-15 14:12:15,2019-04-15 14:12:16,0.182s,FAILED
"setText(findTestObject(""Parent Login/Login/School CodeDomain""), ""DS"", 2)",,,2019-04-15 14:12:15,2019-04-15 14:12:15,0.020s,FAILED
,,,,,,
Test Cases/Parent Login/Login/Verify if able see G Login screen after clicking on proceed with valid school code,,,2019-04-15 14:12:17,2019-04-15 14:12:17,0.123s,FAILED
"tap(findTestObject(""Parent Login/Login/Proceed""), 2)",,,2019-04-15 14:12:17,2019-04-15 14:12:17,0.115s,FAILED
,,,,,,
Test Cases/Parent Login/Google Login selection/Verify if able to sucessfully click on Login with Google button,,,2019-04-15 14:12:17,2019-04-15 14:12:17,0.608s,FAILED
"tap(findTestObject(""Parent Login/Login Details/Login with Google""), 2)",,,2019-04-15 14:12:17,2019-04-15 14:12:17,0.602s,FAILED
,,,,,,
Test Cases/Parent Login/Google Login selection/Verify if able to choose parent email id from the list,,,2019-04-15 14:12:17,2019-04-15 14:12:18,0.689s,FAILED
"tap(findTestObject(""Parent Login/Gmail Account Selection/2268klkreddygmail.com""), 2)",,,2019-04-15 14:12:17,2019-04-15 14:12:17,0.007s,FAILED
,,,,,,
Test Cases/Parent Login/Menu/Bell Notification/Verify if able to click on Bell icon to view notifications,,,2019-04-15 14:12:18,2019-04-15 14:12:18,0.188s,FAILED
"tap(findTestObject(""Parent Login/Menu/Home/Bell Icon""), 0)",,,2019-04-15 14:12:18,2019-04-15 14:12:18,0.009s,FAILED
,,,,,,
Test Cases/Parent Login/Menu/Bell Notification/Verify if able to click on back button in Notifications page,,,2019-04-15 14:12:19,2019-04-15 14:12:20,0.676s,FAILED
"tap(findTestObject(""Parent Login/Menu/Home/Back Button in Notifications""), 0)",,,2019-04-15 14:12:19,2019-04-15 14:12:20,0.497s,FAILED
