Suite/Test/Step Name,Browser,Description,Start time,End time,Duration,Status
Login,,,2018-08-29 15:57:47,2018-08-29 16:00:13,2m - 25.765s,PASSED
,,,,,,
Test Cases/GLogin,,,2018-08-29 15:57:48,2018-08-29 15:59:52,2m - 4.357s,PASSED
startApplication,,Launch Application,2018-08-29 15:57:49,2018-08-29 15:59:14,1m - 24.905s,PASSED
setText,,Enter SchoolCode,2018-08-29 15:59:14,2018-08-29 15:59:33,19.656s,PASSED
tap,,"Click on ""Proceed"" button
",2018-08-29 15:59:33,2018-08-29 15:59:35,1.438s,PASSED
tap,,"Click on ""Login with Google"" Button",2018-08-29 15:59:35,2018-08-29 15:59:40,4.737s,PASSED
tap,,Choose the desired Gmail login which is registered with NLP,2018-08-29 15:59:40,2018-08-29 15:59:45,5.227s,PASSED
tap,,"Choose ""Yes"" from the Push Notifications Popup",2018-08-29 15:59:45,2018-08-29 15:59:47,2.523s,PASSED
delay,,,2018-08-29 15:59:47,2018-08-29 15:59:52,5.132s,PASSED
"Statement - com.kms.katalon.core.configuration.RunConfiguration.getProjectDir() + 0 == ""Users\lakshmikanthk\Downloads\app-nlp-debug.apk""",,,2018-08-29 15:59:52,2018-08-29 15:59:52,0.007s,NOT_RUN
startApplication,,,2018-08-29 15:59:52,2018-08-29 15:59:52,0.002s,NOT_RUN
waitForElementPresent,,,2018-08-29 15:59:52,2018-08-29 15:59:52,0.002s,NOT_RUN
,,,,,,
Test Cases/Transport,,,2018-08-29 15:59:52,2018-08-29 16:00:06,13.411s,PASSED
tap,,,2018-08-29 15:59:53,2018-08-29 15:59:54,0.882s,PASSED
tap,,,2018-08-29 15:59:54,2018-08-29 15:59:57,3.488s,PASSED
tap,,,2018-08-29 15:59:57,2018-08-29 15:59:59,1.890s,PASSED
tap,,,2018-08-29 15:59:59,2018-08-29 16:00:00,1.175s,PASSED
tap,,,2018-08-29 16:00:00,2018-08-29 16:00:05,4.952s,PASSED
tap,,,2018-08-29 16:00:05,2018-08-29 16:00:06,0.630s,PASSED
