Suite/Test/Step Name,Browser,Description,Start time,End time,Duration,Status
Login,,,2018-08-29 15:33:04,2018-08-29 15:35:49,2m - 45.346s,FAILED
,,,,,,
Test Cases/GLogin,,,2018-08-29 15:33:05,2018-08-29 15:34:56,1m - 51.102s,PASSED
startApplication,,Launch Application,2018-08-29 15:33:06,2018-08-29 15:34:19,1m - 13.421s,PASSED
setText,,Enter SchoolCode,2018-08-29 15:34:19,2018-08-29 15:34:38,18.415s,PASSED
tap,,"Click on ""Proceed"" button
",2018-08-29 15:34:38,2018-08-29 15:34:39,1.115s,PASSED
tap,,"Click on ""Login with Google"" Button",2018-08-29 15:34:39,2018-08-29 15:34:43,3.865s,PASSED
tap,,Choose the desired Gmail login which is registered with NLP,2018-08-29 15:34:43,2018-08-29 15:34:46,3.059s,PASSED
tap,,"Choose ""Yes"" from the Push Notifications Popup",2018-08-29 15:34:46,2018-08-29 15:34:51,5.264s,PASSED
delay,,,2018-08-29 15:34:51,2018-08-29 15:34:56,5.071s,PASSED
"Statement - com.kms.katalon.core.configuration.RunConfiguration.getProjectDir() + 0 == ""Users\lakshmikanthk\Downloads\app-nlp-debug.apk""",,,2018-08-29 15:34:56,2018-08-29 15:34:56,0.007s,NOT_RUN
startApplication,,,2018-08-29 15:34:56,2018-08-29 15:34:56,0.002s,NOT_RUN
waitForElementPresent,,,2018-08-29 15:34:56,2018-08-29 15:34:56,0.012s,NOT_RUN
,,,,,,
Test Cases/Leave,,,2018-08-29 15:34:56,2018-08-29 15:35:42,45.477s,FAILED
tap,,,2018-08-29 15:34:57,2018-08-29 15:34:58,1.229s,PASSED
scrollToText,,,2018-08-29 15:34:58,2018-08-29 15:35:04,5.910s,PASSED
tap,,,2018-08-29 15:35:04,2018-08-29 15:35:42,37.802s,FAILED
