<?xml version="1.0" encoding="UTF-8" standalone="no"?>
<!DOCTYPE log SYSTEM "logger.dtd">
<log>
<record>
  <date>2018-09-21T10:24:28</date>
  <millis>1537505668983</millis>
  <sequence>19781</sequence>
  <level>INFO</level>
  <class>com.kms.katalon.core.logging.KeywordLogger</class>
  <method>logMessage</method>
  <thread>2896</thread>
  <message>Appium server started on port 64,173</message>
  <nestedLevel>0</nestedLevel>
</record>
<record>
  <date>2018-09-21T10:24:29</date>
  <millis>1537505669344</millis>
  <sequence>19782</sequence>
  <level>INFO</level>
  <class>com.kms.katalon.core.logging.KeywordLogger</class>
  <method>logMessage</method>
  <thread>2896</thread>
  <message>User set preference: [&amp;apos;unicodeKeyboard&amp;apos;, &amp;apos;true&amp;apos;]</message>
  <nestedLevel>0</nestedLevel>
</record>
<record>
  <date>2018-09-21T10:24:29</date>
  <millis>1537505669355</millis>
  <sequence>19783</sequence>
  <level>INFO</level>
  <class>com.kms.katalon.core.logging.KeywordLogger</class>
  <method>logMessage</method>
  <thread>2896</thread>
  <message>User set preference: [&amp;apos;appWaitActivity&amp;apos;, &amp;apos;*&amp;apos;]</message>
  <nestedLevel>0</nestedLevel>
</record>
<record>
  <date>2018-09-21T10:24:29</date>
  <millis>1537505669356</millis>
  <sequence>19784</sequence>
  <level>INFO</level>
  <class>com.kms.katalon.core.logging.KeywordLogger</class>
  <method>logMessage</method>
  <thread>2896</thread>
  <message>User set preference: [&amp;apos;deviceId&amp;apos;, &amp;apos;192.168.205.101:5555&amp;apos;]</message>
  <nestedLevel>0</nestedLevel>
</record>
<record>
  <date>2018-09-21T10:24:54</date>
  <millis>1537505694409</millis>
  <sequence>19786</sequence>
  <level>RUN_DATA</level>
  <class>com.kms.katalon.core.logging.KeywordLogger</class>
  <method>logMessage</method>
  <thread>2896</thread>
  <message>Logging run data &amp;apos;appiumVersion&amp;apos; with value &amp;apos;1.7.2&amp;apos;</message>
  <nestedLevel>0</nestedLevel>
  <property name="appiumVersion">1.7.2</property>
</record>
<record>
  <date>2018-09-21T10:24:54</date>
  <millis>1537505694452</millis>
  <sequence>19787</sequence>
  <level>RUN_DATA</level>
  <class>com.kms.katalon.core.logging.KeywordLogger</class>
  <method>logMessage</method>
  <thread>2896</thread>
  <message>Logging run data &amp;apos;deviceId&amp;apos; with value &amp;apos;192.168.205.101:5555&amp;apos;</message>
  <nestedLevel>0</nestedLevel>
  <property name="deviceId">192.168.205.101:5555</property>
</record>
<record>
  <date>2018-09-21T10:24:54</date>
  <millis>1537505694478</millis>
  <sequence>19788</sequence>
  <level>RUN_DATA</level>
  <class>com.kms.katalon.core.logging.KeywordLogger</class>
  <method>logMessage</method>
  <thread>2896</thread>
  <message>Logging run data &amp;apos;deviceName&amp;apos; with value &amp;apos;Genymotion Motorola Moto X - 4.4.4 - API 19 - 720x1280 (Android 4.4.4)&amp;apos;</message>
  <nestedLevel>0</nestedLevel>
  <property name="deviceName">Genymotion Motorola Moto X - 4.4.4 - API 19 - 720x1280 (Android 4.4.4)</property>
</record>
<record>
  <date>2018-09-21T10:24:54</date>
  <millis>1537505694507</millis>
  <sequence>19789</sequence>
  <level>RUN_DATA</level>
  <class>com.kms.katalon.core.logging.KeywordLogger</class>
  <method>logMessage</method>
  <thread>2896</thread>
  <message>Logging run data &amp;apos;deviceModel&amp;apos; with value &amp;apos;Motorola Moto X - 4.4.4 - API 19 - 720x1280&amp;apos;</message>
  <nestedLevel>0</nestedLevel>
  <property name="deviceModel">Motorola Moto X - 4.4.4 - API 19 - 720x1280</property>
</record>
<record>
  <date>2018-09-21T10:24:54</date>
  <millis>1537505694532</millis>
  <sequence>19790</sequence>
  <level>RUN_DATA</level>
  <class>com.kms.katalon.core.logging.KeywordLogger</class>
  <method>logMessage</method>
  <thread>2896</thread>
  <message>Logging run data &amp;apos;deviceManufacturer&amp;apos; with value &amp;apos;Genymotion&amp;apos;</message>
  <nestedLevel>0</nestedLevel>
  <property name="deviceManufacturer">Genymotion</property>
</record>
<record>
  <date>2018-09-21T10:24:54</date>
  <millis>1537505694576</millis>
  <sequence>19791</sequence>
  <level>RUN_DATA</level>
  <class>com.kms.katalon.core.logging.KeywordLogger</class>
  <method>logMessage</method>
  <thread>2896</thread>
  <message>Logging run data &amp;apos;deviceOS&amp;apos; with value &amp;apos;Android&amp;apos;</message>
  <nestedLevel>0</nestedLevel>
  <property name="deviceOS">Android</property>
</record>
<record>
  <date>2018-09-21T10:24:54</date>
  <millis>1537505694601</millis>
  <sequence>19792</sequence>
  <level>RUN_DATA</level>
  <class>com.kms.katalon.core.logging.KeywordLogger</class>
  <method>logMessage</method>
  <thread>2896</thread>
  <message>Logging run data &amp;apos;deviceOSVersion&amp;apos; with value &amp;apos;4.4.4&amp;apos;</message>
  <nestedLevel>0</nestedLevel>
  <property name="deviceOSVersion">4.4.4</property>
</record>
<record>
  <date>2018-09-21T10:26:22</date>
  <millis>1537505782249</millis>
  <sequence>19793</sequence>
  <level>INFO</level>
  <class>com.kms.katalon.core.logging.KeywordLogger</class>
  <method>logMessage</method>
  <thread>2915</thread>
  <message>Checking object</message>
  <nestedLevel>0</nestedLevel>
</record>
<record>
  <date>2018-09-21T10:26:43</date>
  <millis>1537505803085</millis>
  <sequence>19794</sequence>
  <level>INFO</level>
  <class>com.kms.katalon.core.logging.KeywordLogger</class>
  <method>logMessage</method>
  <thread>2921</thread>
  <message>Checking object</message>
  <nestedLevel>0</nestedLevel>
</record>
<record>
  <date>2018-09-21T10:27:03</date>
  <millis>1537505823606</millis>
  <sequence>19795</sequence>
  <level>INFO</level>
  <class>com.kms.katalon.core.logging.KeywordLogger</class>
  <method>logMessage</method>
  <thread>2930</thread>
  <message>Checking object</message>
  <nestedLevel>0</nestedLevel>
</record>
<record>
  <date>2018-09-21T10:27:34</date>
  <millis>1537505854683</millis>
  <sequence>19796</sequence>
  <level>INFO</level>
  <class>com.kms.katalon.core.logging.KeywordLogger</class>
  <method>logMessage</method>
  <thread>2939</thread>
  <message>Checking object</message>
  <nestedLevel>0</nestedLevel>
</record>
<record>
  <date>2018-09-21T10:28:06</date>
  <millis>1537505886925</millis>
  <sequence>19797</sequence>
  <level>INFO</level>
  <class>com.kms.katalon.core.logging.KeywordLogger</class>
  <method>logMessage</method>
  <thread>2947</thread>
  <message>Checking object</message>
  <nestedLevel>0</nestedLevel>
</record>
<record>
  <date>2018-09-21T10:30:14</date>
  <millis>1537506014708</millis>
  <sequence>19798</sequence>
  <level>INFO</level>
  <class>com.kms.katalon.core.logging.KeywordLogger</class>
  <method>logMessage</method>
  <thread>2964</thread>
  <message>Appium server started on port 64,967</message>
  <nestedLevel>0</nestedLevel>
</record>
<record>
  <date>2018-09-21T10:30:14</date>
  <millis>1537506014709</millis>
  <sequence>19799</sequence>
  <level>INFO</level>
  <class>com.kms.katalon.core.logging.KeywordLogger</class>
  <method>logMessage</method>
  <thread>2964</thread>
  <message>User set preference: [&amp;apos;unicodeKeyboard&amp;apos;, &amp;apos;true&amp;apos;]</message>
  <nestedLevel>0</nestedLevel>
</record>
<record>
  <date>2018-09-21T10:30:14</date>
  <millis>1537506014710</millis>
  <sequence>19800</sequence>
  <level>INFO</level>
  <class>com.kms.katalon.core.logging.KeywordLogger</class>
  <method>logMessage</method>
  <thread>2964</thread>
  <message>User set preference: [&amp;apos;appWaitActivity&amp;apos;, &amp;apos;*&amp;apos;]</message>
  <nestedLevel>0</nestedLevel>
</record>
<record>
  <date>2018-09-21T10:30:14</date>
  <millis>1537506014711</millis>
  <sequence>19801</sequence>
  <level>INFO</level>
  <class>com.kms.katalon.core.logging.KeywordLogger</class>
  <method>logMessage</method>
  <thread>2964</thread>
  <message>User set preference: [&amp;apos;deviceId&amp;apos;, &amp;apos;192.168.205.101:5555&amp;apos;]</message>
  <nestedLevel>0</nestedLevel>
</record>
<record>
  <date>2018-09-21T10:30:28</date>
  <millis>1537506028685</millis>
  <sequence>19803</sequence>
  <level>RUN_DATA</level>
  <class>com.kms.katalon.core.logging.KeywordLogger</class>
  <method>logMessage</method>
  <thread>2964</thread>
  <message>Logging run data &amp;apos;appiumVersion&amp;apos; with value &amp;apos;1.7.2&amp;apos;</message>
  <nestedLevel>0</nestedLevel>
  <property name="appiumVersion">1.7.2</property>
</record>
<record>
  <date>2018-09-21T10:30:28</date>
  <millis>1537506028733</millis>
  <sequence>19804</sequence>
  <level>RUN_DATA</level>
  <class>com.kms.katalon.core.logging.KeywordLogger</class>
  <method>logMessage</method>
  <thread>2964</thread>
  <message>Logging run data &amp;apos;deviceId&amp;apos; with value &amp;apos;192.168.205.101:5555&amp;apos;</message>
  <nestedLevel>0</nestedLevel>
  <property name="deviceId">192.168.205.101:5555</property>
</record>
<record>
  <date>2018-09-21T10:30:28</date>
  <millis>1537506028753</millis>
  <sequence>19805</sequence>
  <level>RUN_DATA</level>
  <class>com.kms.katalon.core.logging.KeywordLogger</class>
  <method>logMessage</method>
  <thread>2964</thread>
  <message>Logging run data &amp;apos;deviceName&amp;apos; with value &amp;apos;Genymotion Motorola Moto X - 4.4.4 - API 19 - 720x1280 (Android 4.4.4)&amp;apos;</message>
  <nestedLevel>0</nestedLevel>
  <property name="deviceName">Genymotion Motorola Moto X - 4.4.4 - API 19 - 720x1280 (Android 4.4.4)</property>
</record>
<record>
  <date>2018-09-21T10:30:28</date>
  <millis>1537506028778</millis>
  <sequence>19806</sequence>
  <level>RUN_DATA</level>
  <class>com.kms.katalon.core.logging.KeywordLogger</class>
  <method>logMessage</method>
  <thread>2964</thread>
  <message>Logging run data &amp;apos;deviceModel&amp;apos; with value &amp;apos;Motorola Moto X - 4.4.4 - API 19 - 720x1280&amp;apos;</message>
  <nestedLevel>0</nestedLevel>
  <property name="deviceModel">Motorola Moto X - 4.4.4 - API 19 - 720x1280</property>
</record>
<record>
  <date>2018-09-21T10:30:28</date>
  <millis>1537506028971</millis>
  <sequence>19807</sequence>
  <level>RUN_DATA</level>
  <class>com.kms.katalon.core.logging.KeywordLogger</class>
  <method>logMessage</method>
  <thread>2964</thread>
  <message>Logging run data &amp;apos;deviceManufacturer&amp;apos; with value &amp;apos;Genymotion&amp;apos;</message>
  <nestedLevel>0</nestedLevel>
  <property name="deviceManufacturer">Genymotion</property>
</record>
<record>
  <date>2018-09-21T10:30:29</date>
  <millis>1537506029047</millis>
  <sequence>19808</sequence>
  <level>RUN_DATA</level>
  <class>com.kms.katalon.core.logging.KeywordLogger</class>
  <method>logMessage</method>
  <thread>2964</thread>
  <message>Logging run data &amp;apos;deviceOS&amp;apos; with value &amp;apos;Android&amp;apos;</message>
  <nestedLevel>0</nestedLevel>
  <property name="deviceOS">Android</property>
</record>
<record>
  <date>2018-09-21T10:30:29</date>
  <millis>1537506029105</millis>
  <sequence>19809</sequence>
  <level>RUN_DATA</level>
  <class>com.kms.katalon.core.logging.KeywordLogger</class>
  <method>logMessage</method>
  <thread>2964</thread>
  <message>Logging run data &amp;apos;deviceOSVersion&amp;apos; with value &amp;apos;4.4.4&amp;apos;</message>
  <nestedLevel>0</nestedLevel>
  <property name="deviceOSVersion">4.4.4</property>
</record>
<record>
  <date>2018-09-21T10:33:52</date>
  <millis>1537506232245</millis>
  <sequence>19810</sequence>
  <level>INFO</level>
  <class>com.kms.katalon.core.logging.KeywordLogger</class>
  <method>logMessage</method>
  <thread>2990</thread>
  <message>Checking object</message>
  <nestedLevel>0</nestedLevel>
</record>
<record>
  <date>2018-09-21T10:34:04</date>
  <millis>1537506244630</millis>
  <sequence>19811</sequence>
  <level>INFO</level>
  <class>com.kms.katalon.core.logging.KeywordLogger</class>
  <method>logMessage</method>
  <thread>2996</thread>
  <message>Checking object</message>
  <nestedLevel>0</nestedLevel>
</record>
<record>
  <date>2018-09-21T10:34:21</date>
  <millis>1537506261898</millis>
  <sequence>19812</sequence>
  <level>INFO</level>
  <class>com.kms.katalon.core.logging.KeywordLogger</class>
  <method>logMessage</method>
  <thread>3002</thread>
  <message>Checking object</message>
  <nestedLevel>0</nestedLevel>
</record>
<record>
  <date>2018-09-21T10:34:41</date>
  <millis>1537506281098</millis>
  <sequence>19813</sequence>
  <level>INFO</level>
  <class>com.kms.katalon.core.logging.KeywordLogger</class>
  <method>logMessage</method>
  <thread>3008</thread>
  <message>Checking object</message>
  <nestedLevel>0</nestedLevel>
</record>
<record>
  <date>2018-09-21T10:34:56</date>
  <millis>1537506296356</millis>
  <sequence>19814</sequence>
  <level>INFO</level>
  <class>com.kms.katalon.core.logging.KeywordLogger</class>
  <method>logMessage</method>
  <thread>3017</thread>
  <message>Checking object</message>
  <nestedLevel>0</nestedLevel>
</record>
<record>
  <date>2018-09-21T10:35:12</date>
  <millis>1537506312485</millis>
  <sequence>19815</sequence>
  <level>INFO</level>
  <class>com.kms.katalon.core.logging.KeywordLogger</class>
  <method>logMessage</method>
  <thread>3023</thread>
  <message>Checking object</message>
  <nestedLevel>0</nestedLevel>
</record>
<record>
  <date>2018-09-21T10:53:45</date>
  <millis>1537507425600</millis>
  <sequence>22937</sequence>
  <level>INFO</level>
  <class>com.kms.katalon.core.logging.KeywordLogger</class>
  <method>logMessage</method>
  <thread>3217</thread>
  <message>User set preference: [&amp;apos;acceptSslCerts&amp;apos;, &amp;apos;true&amp;apos;]</message>
  <nestedLevel>0</nestedLevel>
</record>
<record>
  <date>2018-09-21T10:53:45</date>
  <millis>1537507425602</millis>
  <sequence>22938</sequence>
  <level>INFO</level>
  <class>com.kms.katalon.core.logging.KeywordLogger</class>
  <method>logMessage</method>
  <thread>3217</thread>
  <message>User set preference: [&amp;apos;sessionDescription&amp;apos;, &amp;apos;&amp;apos;]</message>
  <nestedLevel>0</nestedLevel>
</record>
<record>
  <date>2018-09-21T10:53:45</date>
  <millis>1537507425604</millis>
  <sequence>22939</sequence>
  <level>INFO</level>
  <class>com.kms.katalon.core.logging.KeywordLogger</class>
  <method>logMessage</method>
  <thread>3217</thread>
  <message>User set preference: [&amp;apos;platformVersion&amp;apos;, &amp;apos;7.0&amp;apos;]</message>
  <nestedLevel>0</nestedLevel>
</record>
<record>
  <date>2018-09-21T10:53:45</date>
  <millis>1537507425605</millis>
  <sequence>22940</sequence>
  <level>INFO</level>
  <class>com.kms.katalon.core.logging.KeywordLogger</class>
  <method>logMessage</method>
  <thread>3217</thread>
  <message>User set preference: [&amp;apos;sessionName&amp;apos;, &amp;apos;Automation test session&amp;apos;]</message>
  <nestedLevel>0</nestedLevel>
</record>
<record>
  <date>2018-09-21T10:53:45</date>
  <millis>1537507425609</millis>
  <sequence>22941</sequence>
  <level>INFO</level>
  <class>com.kms.katalon.core.logging.KeywordLogger</class>
  <method>logMessage</method>
  <thread>3217</thread>
  <message>User set preference: [&amp;apos;captureSreenShots&amp;apos;, &amp;apos;true&amp;apos;]</message>
  <nestedLevel>0</nestedLevel>
</record>
<record>
  <date>2018-09-21T10:53:45</date>
  <millis>1537507425613</millis>
  <sequence>22942</sequence>
  <level>INFO</level>
  <class>com.kms.katalon.core.logging.KeywordLogger</class>
  <method>logMessage</method>
  <thread>3217</thread>
  <message>User set preference: [&amp;apos;deviceOrientation&amp;apos;, &amp;apos;portrait&amp;apos;]</message>
  <nestedLevel>0</nestedLevel>
</record>
<record>
  <date>2018-09-21T10:53:45</date>
  <millis>1537507425615</millis>
  <sequence>22943</sequence>
  <level>INFO</level>
  <class>com.kms.katalon.core.logging.KeywordLogger</class>
  <method>logMessage</method>
  <thread>3217</thread>
  <message>User set preference: [&amp;apos;platformName&amp;apos;, &amp;apos;Android&amp;apos;]</message>
  <nestedLevel>0</nestedLevel>
</record>
<record>
  <date>2018-09-21T10:53:45</date>
  <millis>1537507425616</millis>
  <sequence>22944</sequence>
  <level>INFO</level>
  <class>com.kms.katalon.core.logging.KeywordLogger</class>
  <method>logMessage</method>
  <thread>3217</thread>
  <message>User set preference: [&amp;apos;deviceName&amp;apos;, &amp;apos;Galaxy A5(2017)&amp;apos;]</message>
  <nestedLevel>0</nestedLevel>
</record>
<record>
  <date>2018-09-21T10:53:47</date>
  <millis>1537507427735</millis>
  <sequence>22945</sequence>
  <level>RUN_DATA</level>
  <class>com.kms.katalon.core.logging.KeywordLogger</class>
  <method>logMessage</method>
  <thread>3217</thread>
  <message>Logging run data &amp;apos;deviceId&amp;apos; with value &amp;apos;null&amp;apos;</message>
  <nestedLevel>0</nestedLevel>
  <property name="deviceId">null</property>
</record>
<record>
  <date>2018-09-21T10:53:47</date>
  <millis>1537507427968</millis>
  <sequence>22946</sequence>
  <level>RUN_DATA</level>
  <class>com.kms.katalon.core.logging.KeywordLogger</class>
  <method>logMessage</method>
  <thread>3217</thread>
  <message>Logging run data &amp;apos;deviceName&amp;apos; with value &amp;apos;Galaxy A5(2017)&amp;apos;</message>
  <nestedLevel>0</nestedLevel>
  <property name="deviceName">Galaxy A5(2017)</property>
</record>
<record>
  <date>2018-09-21T10:53:48</date>
  <millis>1537507428035</millis>
  <sequence>22947</sequence>
  <level>RUN_DATA</level>
  <class>com.kms.katalon.core.logging.KeywordLogger</class>
  <method>logMessage</method>
  <thread>3217</thread>
  <message>Logging run data &amp;apos;deviceModel&amp;apos; with value &amp;apos;null&amp;apos;</message>
  <nestedLevel>0</nestedLevel>
  <property name="deviceModel">null</property>
</record>
<record>
  <date>2018-09-21T10:53:48</date>
  <millis>1537507428099</millis>
  <sequence>22948</sequence>
  <level>RUN_DATA</level>
  <class>com.kms.katalon.core.logging.KeywordLogger</class>
  <method>logMessage</method>
  <thread>3217</thread>
  <message>Logging run data &amp;apos;deviceManufacturer&amp;apos; with value &amp;apos;null&amp;apos;</message>
  <nestedLevel>0</nestedLevel>
  <property name="deviceManufacturer">null</property>
</record>
<record>
  <date>2018-09-21T10:53:48</date>
  <millis>1537507428166</millis>
  <sequence>22949</sequence>
  <level>RUN_DATA</level>
  <class>com.kms.katalon.core.logging.KeywordLogger</class>
  <method>logMessage</method>
  <thread>3217</thread>
  <message>Logging run data &amp;apos;deviceOS&amp;apos; with value &amp;apos;Android&amp;apos;</message>
  <nestedLevel>0</nestedLevel>
  <property name="deviceOS">Android</property>
</record>
<record>
  <date>2018-09-21T10:53:48</date>
  <millis>1537507428226</millis>
  <sequence>22950</sequence>
  <level>RUN_DATA</level>
  <class>com.kms.katalon.core.logging.KeywordLogger</class>
  <method>logMessage</method>
  <thread>3217</thread>
  <message>Logging run data &amp;apos;deviceOSVersion&amp;apos; with value &amp;apos;7.0&amp;apos;</message>
  <nestedLevel>0</nestedLevel>
  <property name="deviceOSVersion">7.0</property>
</record>
<record>
  <date>2018-09-21T10:54:55</date>
  <millis>1537507495794</millis>
  <sequence>22951</sequence>
  <level>INFO</level>
  <class>com.kms.katalon.core.logging.KeywordLogger</class>
  <method>logMessage</method>
  <thread>3223</thread>
  <message>User set preference: [&amp;apos;acceptSslCerts&amp;apos;, &amp;apos;true&amp;apos;]</message>
  <nestedLevel>0</nestedLevel>
</record>
<record>
  <date>2018-09-21T10:54:55</date>
  <millis>1537507495796</millis>
  <sequence>22952</sequence>
  <level>INFO</level>
  <class>com.kms.katalon.core.logging.KeywordLogger</class>
  <method>logMessage</method>
  <thread>3223</thread>
  <message>User set preference: [&amp;apos;sessionDescription&amp;apos;, &amp;apos;&amp;apos;]</message>
  <nestedLevel>0</nestedLevel>
</record>
<record>
  <date>2018-09-21T10:54:55</date>
  <millis>1537507495803</millis>
  <sequence>22953</sequence>
  <level>INFO</level>
  <class>com.kms.katalon.core.logging.KeywordLogger</class>
  <method>logMessage</method>
  <thread>3223</thread>
  <message>User set preference: [&amp;apos;platformVersion&amp;apos;, &amp;apos;6.0.1&amp;apos;]</message>
  <nestedLevel>0</nestedLevel>
</record>
<record>
  <date>2018-09-21T10:54:55</date>
  <millis>1537507495805</millis>
  <sequence>22954</sequence>
  <level>INFO</level>
  <class>com.kms.katalon.core.logging.KeywordLogger</class>
  <method>logMessage</method>
  <thread>3223</thread>
  <message>User set preference: [&amp;apos;sessionName&amp;apos;, &amp;apos;Automation test session&amp;apos;]</message>
  <nestedLevel>0</nestedLevel>
</record>
<record>
  <date>2018-09-21T10:54:55</date>
  <millis>1537507495807</millis>
  <sequence>22955</sequence>
  <level>INFO</level>
  <class>com.kms.katalon.core.logging.KeywordLogger</class>
  <method>logMessage</method>
  <thread>3223</thread>
  <message>User set preference: [&amp;apos;captureSreenShots&amp;apos;, &amp;apos;true&amp;apos;]</message>
  <nestedLevel>0</nestedLevel>
</record>
<record>
  <date>2018-09-21T10:54:55</date>
  <millis>1537507495809</millis>
  <sequence>22956</sequence>
  <level>INFO</level>
  <class>com.kms.katalon.core.logging.KeywordLogger</class>
  <method>logMessage</method>
  <thread>3223</thread>
  <message>User set preference: [&amp;apos;deviceOrientation&amp;apos;, &amp;apos;portrait&amp;apos;]</message>
  <nestedLevel>0</nestedLevel>
</record>
<record>
  <date>2018-09-21T10:54:55</date>
  <millis>1537507495810</millis>
  <sequence>22957</sequence>
  <level>INFO</level>
  <class>com.kms.katalon.core.logging.KeywordLogger</class>
  <method>logMessage</method>
  <thread>3223</thread>
  <message>User set preference: [&amp;apos;platformName&amp;apos;, &amp;apos;Android&amp;apos;]</message>
  <nestedLevel>0</nestedLevel>
</record>
<record>
  <date>2018-09-21T10:54:55</date>
  <millis>1537507495811</millis>
  <sequence>22958</sequence>
  <level>INFO</level>
  <class>com.kms.katalon.core.logging.KeywordLogger</class>
  <method>logMessage</method>
  <thread>3223</thread>
  <message>User set preference: [&amp;apos;deviceName&amp;apos;, &amp;apos;Galaxy J2 Prime&amp;apos;]</message>
  <nestedLevel>0</nestedLevel>
</record>
<record>
  <date>2018-09-21T10:56:28</date>
  <millis>1537507588210</millis>
  <sequence>22960</sequence>
  <level>RUN_DATA</level>
  <class>com.kms.katalon.core.logging.KeywordLogger</class>
  <method>logMessage</method>
  <thread>3223</thread>
  <message>Logging run data &amp;apos;appiumVersion&amp;apos; with value &amp;apos;1.8.1&amp;apos;</message>
  <nestedLevel>0</nestedLevel>
  <property name="appiumVersion">1.8.1</property>
</record>
<record>
  <date>2018-09-21T10:56:28</date>
  <millis>1537507588927</millis>
  <sequence>22961</sequence>
  <level>RUN_DATA</level>
  <class>com.kms.katalon.core.logging.KeywordLogger</class>
  <method>logMessage</method>
  <thread>3223</thread>
  <message>Logging run data &amp;apos;deviceId&amp;apos; with value &amp;apos;null&amp;apos;</message>
  <nestedLevel>0</nestedLevel>
  <property name="deviceId">null</property>
</record>
<record>
  <date>2018-09-21T10:56:29</date>
  <millis>1537507589031</millis>
  <sequence>22962</sequence>
  <level>RUN_DATA</level>
  <class>com.kms.katalon.core.logging.KeywordLogger</class>
  <method>logMessage</method>
  <thread>3223</thread>
  <message>Logging run data &amp;apos;deviceName&amp;apos; with value &amp;apos;Galaxy J2 Prime&amp;apos;</message>
  <nestedLevel>0</nestedLevel>
  <property name="deviceName">Galaxy J2 Prime</property>
</record>
<record>
  <date>2018-09-21T10:56:29</date>
  <millis>1537507589108</millis>
  <sequence>22963</sequence>
  <level>RUN_DATA</level>
  <class>com.kms.katalon.core.logging.KeywordLogger</class>
  <method>logMessage</method>
  <thread>3223</thread>
  <message>Logging run data &amp;apos;deviceModel&amp;apos; with value &amp;apos;null&amp;apos;</message>
  <nestedLevel>0</nestedLevel>
  <property name="deviceModel">null</property>
</record>
<record>
  <date>2018-09-21T10:56:29</date>
  <millis>1537507589158</millis>
  <sequence>22964</sequence>
  <level>RUN_DATA</level>
  <class>com.kms.katalon.core.logging.KeywordLogger</class>
  <method>logMessage</method>
  <thread>3223</thread>
  <message>Logging run data &amp;apos;deviceManufacturer&amp;apos; with value &amp;apos;null&amp;apos;</message>
  <nestedLevel>0</nestedLevel>
  <property name="deviceManufacturer">null</property>
</record>
<record>
  <date>2018-09-21T10:56:29</date>
  <millis>1537507589207</millis>
  <sequence>22965</sequence>
  <level>RUN_DATA</level>
  <class>com.kms.katalon.core.logging.KeywordLogger</class>
  <method>logMessage</method>
  <thread>3223</thread>
  <message>Logging run data &amp;apos;deviceOS&amp;apos; with value &amp;apos;Android&amp;apos;</message>
  <nestedLevel>0</nestedLevel>
  <property name="deviceOS">Android</property>
</record>
<record>
  <date>2018-09-21T10:56:29</date>
  <millis>1537507589254</millis>
  <sequence>22966</sequence>
  <level>RUN_DATA</level>
  <class>com.kms.katalon.core.logging.KeywordLogger</class>
  <method>logMessage</method>
  <thread>3223</thread>
  <message>Logging run data &amp;apos;deviceOSVersion&amp;apos; with value &amp;apos;6.0.1&amp;apos;</message>
  <nestedLevel>0</nestedLevel>
  <property name="deviceOSVersion">6.0.1</property>
</record>
<record>
  <date>2018-09-21T10:56:50</date>
  <millis>1537507610594</millis>
  <sequence>22967</sequence>
  <level>INFO</level>
  <class>com.kms.katalon.core.logging.KeywordLogger</class>
  <method>logMessage</method>
  <thread>3236</thread>
  <message>Checking object</message>
  <nestedLevel>0</nestedLevel>
</record>
<record>
  <date>2018-09-21T10:57:11</date>
  <millis>1537507631932</millis>
  <sequence>22968</sequence>
  <level>INFO</level>
  <class>com.kms.katalon.core.logging.KeywordLogger</class>
  <method>logMessage</method>
  <thread>3242</thread>
  <message>Checking object</message>
  <nestedLevel>0</nestedLevel>
</record>
<record>
  <date>2018-09-21T10:58:00</date>
  <millis>1537507680314</millis>
  <sequence>22969</sequence>
  <level>INFO</level>
  <class>com.kms.katalon.core.logging.KeywordLogger</class>
  <method>logMessage</method>
  <thread>3251</thread>
  <message>Checking object</message>
  <nestedLevel>0</nestedLevel>
</record>
<record>
  <date>2018-09-21T10:58:32</date>
  <millis>1537507712847</millis>
  <sequence>22970</sequence>
  <level>INFO</level>
  <class>com.kms.katalon.core.logging.KeywordLogger</class>
  <method>logMessage</method>
  <thread>3260</thread>
  <message>Checking object</message>
  <nestedLevel>0</nestedLevel>
</record>
<record>
  <date>2018-09-21T10:58:47</date>
  <millis>1537507727250</millis>
  <sequence>22971</sequence>
  <level>INFO</level>
  <class>com.kms.katalon.core.logging.KeywordLogger</class>
  <method>logMessage</method>
  <thread>3266</thread>
  <message>Checking object</message>
  <nestedLevel>0</nestedLevel>
</record>
<record>
  <date>2018-09-21T10:59:22</date>
  <millis>1537507762451</millis>
  <sequence>22972</sequence>
  <level>INFO</level>
  <class>com.kms.katalon.core.logging.KeywordLogger</class>
  <method>logMessage</method>
  <thread>3272</thread>
  <message>Checking object</message>
  <nestedLevel>0</nestedLevel>
</record>
<record>
  <date>2018-09-21T10:59:32</date>
  <millis>1537507772756</millis>
  <sequence>22973</sequence>
  <level>FAILED</level>
  <class>com.kms.katalon.core.logging.KeywordLogger</class>
  <method>logMessage</method>
  <thread>3272</thread>
  <message>Object android.widget.EditText0 - klkreddy2268@gmail.com not found</message>
  <nestedLevel>0</nestedLevel>
</record>
<record>
  <date>2018-09-21T10:59:56</date>
  <millis>1537507796742</millis>
  <sequence>22974</sequence>
  <level>INFO</level>
  <class>com.kms.katalon.core.logging.KeywordLogger</class>
  <method>logMessage</method>
  <thread>3280</thread>
  <message>Checking object</message>
  <nestedLevel>0</nestedLevel>
</record>
<record>
  <date>2018-09-21T11:00:08</date>
  <millis>1537507808115</millis>
  <sequence>22975</sequence>
  <level>FAILED</level>
  <class>com.kms.katalon.core.logging.KeywordLogger</class>
  <method>logMessage</method>
  <thread>3280</thread>
  <message>Object android.view.View7 not found</message>
  <nestedLevel>0</nestedLevel>
</record>
<record>
  <date>2018-09-21T11:00:30</date>
  <millis>1537507830466</millis>
  <sequence>22976</sequence>
  <level>INFO</level>
  <class>com.kms.katalon.core.logging.KeywordLogger</class>
  <method>logMessage</method>
  <thread>3291</thread>
  <message>Checking object</message>
  <nestedLevel>0</nestedLevel>
</record>
<record>
  <date>2018-09-21T11:00:41</date>
  <millis>1537507841027</millis>
  <sequence>22977</sequence>
  <level>FAILED</level>
  <class>com.kms.katalon.core.logging.KeywordLogger</class>
  <method>logMessage</method>
  <thread>3291</thread>
  <message>Object android.widget.EditText0 - klkreddy2268@gmail.com not found</message>
  <nestedLevel>0</nestedLevel>
</record>
<record>
  <date>2018-09-21T11:01:04</date>
  <millis>1537507864744</millis>
  <sequence>22978</sequence>
  <level>INFO</level>
  <class>com.kms.katalon.core.logging.KeywordLogger</class>
  <method>logMessage</method>
  <thread>3296</thread>
  <message>Checking object</message>
  <nestedLevel>0</nestedLevel>
</record>
<record>
  <date>2018-09-21T11:01:15</date>
  <millis>1537507875278</millis>
  <sequence>22979</sequence>
  <level>FAILED</level>
  <class>com.kms.katalon.core.logging.KeywordLogger</class>
  <method>logMessage</method>
  <thread>3296</thread>
  <message>Object android.widget.EditText0 - klkreddy2268@gmail.com not found</message>
  <nestedLevel>0</nestedLevel>
</record>
<record>
  <date>2018-09-21T11:01:21</date>
  <millis>1537507881182</millis>
  <sequence>22980</sequence>
  <level>INFO</level>
  <class>com.kms.katalon.core.logging.KeywordLogger</class>
  <method>logMessage</method>
  <thread>3299</thread>
  <message>User set preference: [&amp;apos;acceptSslCerts&amp;apos;, &amp;apos;true&amp;apos;]</message>
  <nestedLevel>0</nestedLevel>
</record>
<record>
  <date>2018-09-21T11:01:21</date>
  <millis>1537507881184</millis>
  <sequence>22981</sequence>
  <level>INFO</level>
  <class>com.kms.katalon.core.logging.KeywordLogger</class>
  <method>logMessage</method>
  <thread>3299</thread>
  <message>User set preference: [&amp;apos;sessionDescription&amp;apos;, &amp;apos;&amp;apos;]</message>
  <nestedLevel>0</nestedLevel>
</record>
<record>
  <date>2018-09-21T11:01:21</date>
  <millis>1537507881185</millis>
  <sequence>22982</sequence>
  <level>INFO</level>
  <class>com.kms.katalon.core.logging.KeywordLogger</class>
  <method>logMessage</method>
  <thread>3299</thread>
  <message>User set preference: [&amp;apos;platformVersion&amp;apos;, &amp;apos;6.0.1&amp;apos;]</message>
  <nestedLevel>0</nestedLevel>
</record>
<record>
  <date>2018-09-21T11:01:21</date>
  <millis>1537507881186</millis>
  <sequence>22983</sequence>
  <level>INFO</level>
  <class>com.kms.katalon.core.logging.KeywordLogger</class>
  <method>logMessage</method>
  <thread>3299</thread>
  <message>User set preference: [&amp;apos;sessionName&amp;apos;, &amp;apos;Automation test session&amp;apos;]</message>
  <nestedLevel>0</nestedLevel>
</record>
<record>
  <date>2018-09-21T11:01:21</date>
  <millis>1537507881193</millis>
  <sequence>22984</sequence>
  <level>INFO</level>
  <class>com.kms.katalon.core.logging.KeywordLogger</class>
  <method>logMessage</method>
  <thread>3299</thread>
  <message>User set preference: [&amp;apos;captureSreenShots&amp;apos;, &amp;apos;true&amp;apos;]</message>
  <nestedLevel>0</nestedLevel>
</record>
<record>
  <date>2018-09-21T11:01:21</date>
  <millis>1537507881194</millis>
  <sequence>22985</sequence>
  <level>INFO</level>
  <class>com.kms.katalon.core.logging.KeywordLogger</class>
  <method>logMessage</method>
  <thread>3299</thread>
  <message>User set preference: [&amp;apos;deviceOrientation&amp;apos;, &amp;apos;portrait&amp;apos;]</message>
  <nestedLevel>0</nestedLevel>
</record>
<record>
  <date>2018-09-21T11:01:21</date>
  <millis>1537507881198</millis>
  <sequence>22986</sequence>
  <level>INFO</level>
  <class>com.kms.katalon.core.logging.KeywordLogger</class>
  <method>logMessage</method>
  <thread>3299</thread>
  <message>User set preference: [&amp;apos;platformName&amp;apos;, &amp;apos;Android&amp;apos;]</message>
  <nestedLevel>0</nestedLevel>
</record>
<record>
  <date>2018-09-21T11:01:21</date>
  <millis>1537507881199</millis>
  <sequence>22987</sequence>
  <level>INFO</level>
  <class>com.kms.katalon.core.logging.KeywordLogger</class>
  <method>logMessage</method>
  <thread>3299</thread>
  <message>User set preference: [&amp;apos;deviceName&amp;apos;, &amp;apos;Galaxy J2 Prime&amp;apos;]</message>
  <nestedLevel>0</nestedLevel>
</record>
<record>
  <date>2018-09-21T11:02:36</date>
  <millis>1537507956807</millis>
  <sequence>22988</sequence>
  <level>INFO</level>
  <class>com.kms.katalon.core.logging.KeywordLogger</class>
  <method>logMessage</method>
  <thread>3304</thread>
  <message>User set preference: [&amp;apos;acceptSslCerts&amp;apos;, &amp;apos;true&amp;apos;]</message>
  <nestedLevel>0</nestedLevel>
</record>
<record>
  <date>2018-09-21T11:02:36</date>
  <millis>1537507956809</millis>
  <sequence>22989</sequence>
  <level>INFO</level>
  <class>com.kms.katalon.core.logging.KeywordLogger</class>
  <method>logMessage</method>
  <thread>3304</thread>
  <message>User set preference: [&amp;apos;sessionDescription&amp;apos;, &amp;apos;&amp;apos;]</message>
  <nestedLevel>0</nestedLevel>
</record>
<record>
  <date>2018-09-21T11:02:36</date>
  <millis>1537507956810</millis>
  <sequence>22990</sequence>
  <level>INFO</level>
  <class>com.kms.katalon.core.logging.KeywordLogger</class>
  <method>logMessage</method>
  <thread>3304</thread>
  <message>User set preference: [&amp;apos;platformVersion&amp;apos;, &amp;apos;6.0.1&amp;apos;]</message>
  <nestedLevel>0</nestedLevel>
</record>
<record>
  <date>2018-09-21T11:02:36</date>
  <millis>1537507956811</millis>
  <sequence>22991</sequence>
  <level>INFO</level>
  <class>com.kms.katalon.core.logging.KeywordLogger</class>
  <method>logMessage</method>
  <thread>3304</thread>
  <message>User set preference: [&amp;apos;sessionName&amp;apos;, &amp;apos;Automation test session&amp;apos;]</message>
  <nestedLevel>0</nestedLevel>
</record>
<record>
  <date>2018-09-21T11:02:36</date>
  <millis>1537507956813</millis>
  <sequence>22992</sequence>
  <level>INFO</level>
  <class>com.kms.katalon.core.logging.KeywordLogger</class>
  <method>logMessage</method>
  <thread>3304</thread>
  <message>User set preference: [&amp;apos;captureSreenShots&amp;apos;, &amp;apos;true&amp;apos;]</message>
  <nestedLevel>0</nestedLevel>
</record>
<record>
  <date>2018-09-21T11:02:36</date>
  <millis>1537507956814</millis>
  <sequence>22993</sequence>
  <level>INFO</level>
  <class>com.kms.katalon.core.logging.KeywordLogger</class>
  <method>logMessage</method>
  <thread>3304</thread>
  <message>User set preference: [&amp;apos;deviceOrientation&amp;apos;, &amp;apos;portrait&amp;apos;]</message>
  <nestedLevel>0</nestedLevel>
</record>
<record>
  <date>2018-09-21T11:02:36</date>
  <millis>1537507956816</millis>
  <sequence>22994</sequence>
  <level>INFO</level>
  <class>com.kms.katalon.core.logging.KeywordLogger</class>
  <method>logMessage</method>
  <thread>3304</thread>
  <message>User set preference: [&amp;apos;platformName&amp;apos;, &amp;apos;Android&amp;apos;]</message>
  <nestedLevel>0</nestedLevel>
</record>
<record>
  <date>2018-09-21T11:02:36</date>
  <millis>1537507956818</millis>
  <sequence>22995</sequence>
  <level>INFO</level>
  <class>com.kms.katalon.core.logging.KeywordLogger</class>
  <method>logMessage</method>
  <thread>3304</thread>
  <message>User set preference: [&amp;apos;deviceName&amp;apos;, &amp;apos;Galaxy J2 Prime&amp;apos;]</message>
  <nestedLevel>0</nestedLevel>
</record>
<record>
  <date>2018-09-21T11:02:38</date>
  <millis>1537507958297</millis>
  <sequence>22996</sequence>
  <level>RUN_DATA</level>
  <class>com.kms.katalon.core.logging.KeywordLogger</class>
  <method>logMessage</method>
  <thread>3304</thread>
  <message>Logging run data &amp;apos;deviceId&amp;apos; with value &amp;apos;null&amp;apos;</message>
  <nestedLevel>0</nestedLevel>
  <property name="deviceId">null</property>
</record>
<record>
  <date>2018-09-21T11:02:38</date>
  <millis>1537507958368</millis>
  <sequence>22997</sequence>
  <level>RUN_DATA</level>
  <class>com.kms.katalon.core.logging.KeywordLogger</class>
  <method>logMessage</method>
  <thread>3304</thread>
  <message>Logging run data &amp;apos;deviceName&amp;apos; with value &amp;apos;Galaxy J2 Prime&amp;apos;</message>
  <nestedLevel>0</nestedLevel>
  <property name="deviceName">Galaxy J2 Prime</property>
</record>
<record>
  <date>2018-09-21T11:02:38</date>
  <millis>1537507958427</millis>
  <sequence>22998</sequence>
  <level>RUN_DATA</level>
  <class>com.kms.katalon.core.logging.KeywordLogger</class>
  <method>logMessage</method>
  <thread>3304</thread>
  <message>Logging run data &amp;apos;deviceModel&amp;apos; with value &amp;apos;null&amp;apos;</message>
  <nestedLevel>0</nestedLevel>
  <property name="deviceModel">null</property>
</record>
<record>
  <date>2018-09-21T11:02:38</date>
  <millis>1537507958494</millis>
  <sequence>22999</sequence>
  <level>RUN_DATA</level>
  <class>com.kms.katalon.core.logging.KeywordLogger</class>
  <method>logMessage</method>
  <thread>3304</thread>
  <message>Logging run data &amp;apos;deviceManufacturer&amp;apos; with value &amp;apos;null&amp;apos;</message>
  <nestedLevel>0</nestedLevel>
  <property name="deviceManufacturer">null</property>
</record>
<record>
  <date>2018-09-21T11:02:38</date>
  <millis>1537507958544</millis>
  <sequence>23000</sequence>
  <level>RUN_DATA</level>
  <class>com.kms.katalon.core.logging.KeywordLogger</class>
  <method>logMessage</method>
  <thread>3304</thread>
  <message>Logging run data &amp;apos;deviceOS&amp;apos; with value &amp;apos;Android&amp;apos;</message>
  <nestedLevel>0</nestedLevel>
  <property name="deviceOS">Android</property>
</record>
<record>
  <date>2018-09-21T11:02:38</date>
  <millis>1537507958591</millis>
  <sequence>23001</sequence>
  <level>RUN_DATA</level>
  <class>com.kms.katalon.core.logging.KeywordLogger</class>
  <method>logMessage</method>
  <thread>3304</thread>
  <message>Logging run data &amp;apos;deviceOSVersion&amp;apos; with value &amp;apos;6.0.1&amp;apos;</message>
  <nestedLevel>0</nestedLevel>
  <property name="deviceOSVersion">6.0.1</property>
</record>
<record>
  <date>2018-09-21T11:03:02</date>
  <millis>1537507982172</millis>
  <sequence>23003</sequence>
  <level>RUN_DATA</level>
  <class>com.kms.katalon.core.logging.KeywordLogger</class>
  <method>logMessage</method>
  <thread>3299</thread>
  <message>Logging run data &amp;apos;appiumVersion&amp;apos; with value &amp;apos;1.8.1&amp;apos;</message>
  <nestedLevel>0</nestedLevel>
  <property name="appiumVersion">1.8.1</property>
</record>
<record>
  <date>2018-09-21T11:03:04</date>
  <millis>1537507984590</millis>
  <sequence>23004</sequence>
  <level>RUN_DATA</level>
  <class>com.kms.katalon.core.logging.KeywordLogger</class>
  <method>logMessage</method>
  <thread>3299</thread>
  <message>Logging run data &amp;apos;deviceId&amp;apos; with value &amp;apos;null&amp;apos;</message>
  <nestedLevel>0</nestedLevel>
  <property name="deviceId">null</property>
</record>
<record>
  <date>2018-09-21T11:03:04</date>
  <millis>1537507984659</millis>
  <sequence>23005</sequence>
  <level>RUN_DATA</level>
  <class>com.kms.katalon.core.logging.KeywordLogger</class>
  <method>logMessage</method>
  <thread>3299</thread>
  <message>Logging run data &amp;apos;deviceName&amp;apos; with value &amp;apos;Galaxy J2 Prime&amp;apos;</message>
  <nestedLevel>0</nestedLevel>
  <property name="deviceName">Galaxy J2 Prime</property>
</record>
<record>
  <date>2018-09-21T11:03:04</date>
  <millis>1537507984731</millis>
  <sequence>23006</sequence>
  <level>RUN_DATA</level>
  <class>com.kms.katalon.core.logging.KeywordLogger</class>
  <method>logMessage</method>
  <thread>3299</thread>
  <message>Logging run data &amp;apos;deviceModel&amp;apos; with value &amp;apos;null&amp;apos;</message>
  <nestedLevel>0</nestedLevel>
  <property name="deviceModel">null</property>
</record>
<record>
  <date>2018-09-21T11:03:04</date>
  <millis>1537507984801</millis>
  <sequence>23007</sequence>
  <level>RUN_DATA</level>
  <class>com.kms.katalon.core.logging.KeywordLogger</class>
  <method>logMessage</method>
  <thread>3299</thread>
  <message>Logging run data &amp;apos;deviceManufacturer&amp;apos; with value &amp;apos;null&amp;apos;</message>
  <nestedLevel>0</nestedLevel>
  <property name="deviceManufacturer">null</property>
</record>
<record>
  <date>2018-09-21T11:03:04</date>
  <millis>1537507984873</millis>
  <sequence>23008</sequence>
  <level>RUN_DATA</level>
  <class>com.kms.katalon.core.logging.KeywordLogger</class>
  <method>logMessage</method>
  <thread>3299</thread>
  <message>Logging run data &amp;apos;deviceOS&amp;apos; with value &amp;apos;Android&amp;apos;</message>
  <nestedLevel>0</nestedLevel>
  <property name="deviceOS">Android</property>
</record>
<record>
  <date>2018-09-21T11:03:04</date>
  <millis>1537507984937</millis>
  <sequence>23009</sequence>
  <level>RUN_DATA</level>
  <class>com.kms.katalon.core.logging.KeywordLogger</class>
  <method>logMessage</method>
  <thread>3299</thread>
  <message>Logging run data &amp;apos;deviceOSVersion&amp;apos; with value &amp;apos;6.0.1&amp;apos;</message>
  <nestedLevel>0</nestedLevel>
  <property name="deviceOSVersion">6.0.1</property>
</record>
<record>
  <date>2018-09-21T11:03:59</date>
  <millis>1537508039171</millis>
  <sequence>23010</sequence>
  <level>INFO</level>
  <class>com.kms.katalon.core.logging.KeywordLogger</class>
  <method>logMessage</method>
  <thread>3311</thread>
  <message>User set preference: [&amp;apos;acceptSslCerts&amp;apos;, &amp;apos;true&amp;apos;]</message>
  <nestedLevel>0</nestedLevel>
</record>
<record>
  <date>2018-09-21T11:03:59</date>
  <millis>1537508039178</millis>
  <sequence>23011</sequence>
  <level>INFO</level>
  <class>com.kms.katalon.core.logging.KeywordLogger</class>
  <method>logMessage</method>
  <thread>3311</thread>
  <message>User set preference: [&amp;apos;sessionDescription&amp;apos;, &amp;apos;&amp;apos;]</message>
  <nestedLevel>0</nestedLevel>
</record>
<record>
  <date>2018-09-21T11:03:59</date>
  <millis>1537508039180</millis>
  <sequence>23012</sequence>
  <level>INFO</level>
  <class>com.kms.katalon.core.logging.KeywordLogger</class>
  <method>logMessage</method>
  <thread>3311</thread>
  <message>User set preference: [&amp;apos;platformVersion&amp;apos;, &amp;apos;6.0.1&amp;apos;]</message>
  <nestedLevel>0</nestedLevel>
</record>
<record>
  <date>2018-09-21T11:03:59</date>
  <millis>1537508039181</millis>
  <sequence>23013</sequence>
  <level>INFO</level>
  <class>com.kms.katalon.core.logging.KeywordLogger</class>
  <method>logMessage</method>
  <thread>3311</thread>
  <message>User set preference: [&amp;apos;sessionName&amp;apos;, &amp;apos;Automation test session&amp;apos;]</message>
  <nestedLevel>0</nestedLevel>
</record>
<record>
  <date>2018-09-21T11:03:59</date>
  <millis>1537508039182</millis>
  <sequence>23014</sequence>
  <level>INFO</level>
  <class>com.kms.katalon.core.logging.KeywordLogger</class>
  <method>logMessage</method>
  <thread>3311</thread>
  <message>User set preference: [&amp;apos;captureSreenShots&amp;apos;, &amp;apos;true&amp;apos;]</message>
  <nestedLevel>0</nestedLevel>
</record>
<record>
  <date>2018-09-21T11:03:59</date>
  <millis>1537508039182</millis>
  <sequence>23015</sequence>
  <level>INFO</level>
  <class>com.kms.katalon.core.logging.KeywordLogger</class>
  <method>logMessage</method>
  <thread>3311</thread>
  <message>User set preference: [&amp;apos;deviceOrientation&amp;apos;, &amp;apos;portrait&amp;apos;]</message>
  <nestedLevel>0</nestedLevel>
</record>
<record>
  <date>2018-09-21T11:03:59</date>
  <millis>1537508039183</millis>
  <sequence>23016</sequence>
  <level>INFO</level>
  <class>com.kms.katalon.core.logging.KeywordLogger</class>
  <method>logMessage</method>
  <thread>3311</thread>
  <message>User set preference: [&amp;apos;platformName&amp;apos;, &amp;apos;Android&amp;apos;]</message>
  <nestedLevel>0</nestedLevel>
</record>
<record>
  <date>2018-09-21T11:03:59</date>
  <millis>1537508039184</millis>
  <sequence>23017</sequence>
  <level>INFO</level>
  <class>com.kms.katalon.core.logging.KeywordLogger</class>
  <method>logMessage</method>
  <thread>3311</thread>
  <message>User set preference: [&amp;apos;deviceName&amp;apos;, &amp;apos;Galaxy A3 (2017)&amp;apos;]</message>
  <nestedLevel>0</nestedLevel>
</record>
<record>
  <date>2018-09-21T11:05:20</date>
  <millis>1537508120300</millis>
  <sequence>23019</sequence>
  <level>RUN_DATA</level>
  <class>com.kms.katalon.core.logging.KeywordLogger</class>
  <method>logMessage</method>
  <thread>3311</thread>
  <message>Logging run data &amp;apos;appiumVersion&amp;apos; with value &amp;apos;1.8.1&amp;apos;</message>
  <nestedLevel>0</nestedLevel>
  <property name="appiumVersion">1.8.1</property>
</record>
<record>
  <date>2018-09-21T11:05:20</date>
  <millis>1537508120906</millis>
  <sequence>23020</sequence>
  <level>RUN_DATA</level>
  <class>com.kms.katalon.core.logging.KeywordLogger</class>
  <method>logMessage</method>
  <thread>3311</thread>
  <message>Logging run data &amp;apos;deviceId&amp;apos; with value &amp;apos;null&amp;apos;</message>
  <nestedLevel>0</nestedLevel>
  <property name="deviceId">null</property>
</record>
<record>
  <date>2018-09-21T11:05:20</date>
  <millis>1537508120987</millis>
  <sequence>23021</sequence>
  <level>RUN_DATA</level>
  <class>com.kms.katalon.core.logging.KeywordLogger</class>
  <method>logMessage</method>
  <thread>3311</thread>
  <message>Logging run data &amp;apos;deviceName&amp;apos; with value &amp;apos;Galaxy A3 (2017)&amp;apos;</message>
  <nestedLevel>0</nestedLevel>
  <property name="deviceName">Galaxy A3 (2017)</property>
</record>
<record>
  <date>2018-09-21T11:05:21</date>
  <millis>1537508121078</millis>
  <sequence>23022</sequence>
  <level>RUN_DATA</level>
  <class>com.kms.katalon.core.logging.KeywordLogger</class>
  <method>logMessage</method>
  <thread>3311</thread>
  <message>Logging run data &amp;apos;deviceModel&amp;apos; with value &amp;apos;null&amp;apos;</message>
  <nestedLevel>0</nestedLevel>
  <property name="deviceModel">null</property>
</record>
<record>
  <date>2018-09-21T11:05:21</date>
  <millis>1537508121157</millis>
  <sequence>23023</sequence>
  <level>RUN_DATA</level>
  <class>com.kms.katalon.core.logging.KeywordLogger</class>
  <method>logMessage</method>
  <thread>3311</thread>
  <message>Logging run data &amp;apos;deviceManufacturer&amp;apos; with value &amp;apos;null&amp;apos;</message>
  <nestedLevel>0</nestedLevel>
  <property name="deviceManufacturer">null</property>
</record>
<record>
  <date>2018-09-21T11:05:21</date>
  <millis>1537508121194</millis>
  <sequence>23024</sequence>
  <level>RUN_DATA</level>
  <class>com.kms.katalon.core.logging.KeywordLogger</class>
  <method>logMessage</method>
  <thread>3311</thread>
  <message>Logging run data &amp;apos;deviceOS&amp;apos; with value &amp;apos;Android&amp;apos;</message>
  <nestedLevel>0</nestedLevel>
  <property name="deviceOS">Android</property>
</record>
<record>
  <date>2018-09-21T11:05:21</date>
  <millis>1537508121232</millis>
  <sequence>23025</sequence>
  <level>RUN_DATA</level>
  <class>com.kms.katalon.core.logging.KeywordLogger</class>
  <method>logMessage</method>
  <thread>3311</thread>
  <message>Logging run data &amp;apos;deviceOSVersion&amp;apos; with value &amp;apos;6.0.1&amp;apos;</message>
  <nestedLevel>0</nestedLevel>
  <property name="deviceOSVersion">6.0.1</property>
</record>
<record>
  <date>2018-09-21T11:05:37</date>
  <millis>1537508137241</millis>
  <sequence>23026</sequence>
  <level>INFO</level>
  <class>com.kms.katalon.core.logging.KeywordLogger</class>
  <method>logMessage</method>
  <thread>3325</thread>
  <message>Checking object</message>
  <nestedLevel>0</nestedLevel>
</record>
<record>
  <date>2018-09-21T11:05:57</date>
  <millis>1537508157312</millis>
  <sequence>23027</sequence>
  <level>INFO</level>
  <class>com.kms.katalon.core.logging.KeywordLogger</class>
  <method>logMessage</method>
  <thread>3331</thread>
  <message>Checking object</message>
  <nestedLevel>0</nestedLevel>
</record>
<record>
  <date>2018-09-21T11:07:00</date>
  <millis>1537508220588</millis>
  <sequence>23028</sequence>
  <level>INFO</level>
  <class>com.kms.katalon.core.logging.KeywordLogger</class>
  <method>logMessage</method>
  <thread>3340</thread>
  <message>Checking object</message>
  <nestedLevel>0</nestedLevel>
</record>
<record>
  <date>2018-09-21T11:07:34</date>
  <millis>1537508254350</millis>
  <sequence>23029</sequence>
  <level>INFO</level>
  <class>com.kms.katalon.core.logging.KeywordLogger</class>
  <method>logMessage</method>
  <thread>3349</thread>
  <message>Checking object</message>
  <nestedLevel>0</nestedLevel>
</record>
<record>
  <date>2018-09-21T11:07:48</date>
  <millis>1537508268157</millis>
  <sequence>23030</sequence>
  <level>INFO</level>
  <class>com.kms.katalon.core.logging.KeywordLogger</class>
  <method>logMessage</method>
  <thread>3355</thread>
  <message>Checking object</message>
  <nestedLevel>0</nestedLevel>
</record>
<record>
  <date>2018-09-21T11:08:19</date>
  <millis>1537508299458</millis>
  <sequence>23031</sequence>
  <level>INFO</level>
  <class>com.kms.katalon.core.logging.KeywordLogger</class>
  <method>logMessage</method>
  <thread>3366</thread>
  <message>Checking object</message>
  <nestedLevel>0</nestedLevel>
</record>
<record>
  <date>2018-09-21T11:08:31</date>
  <millis>1537508311750</millis>
  <sequence>23032</sequence>
  <level>INFO</level>
  <class>com.kms.katalon.core.logging.KeywordLogger</class>
  <method>logMessage</method>
  <thread>3372</thread>
  <message>Checking object</message>
  <nestedLevel>0</nestedLevel>
</record>
<record>
  <date>2018-09-21T11:08:46</date>
  <millis>1537508326029</millis>
  <sequence>23033</sequence>
  <level>INFO</level>
  <class>com.kms.katalon.core.logging.KeywordLogger</class>
  <method>logMessage</method>
  <thread>3378</thread>
  <message>Checking object</message>
  <nestedLevel>0</nestedLevel>
</record>
<record>
  <date>2018-09-21T11:09:17</date>
  <millis>1537508357445</millis>
  <sequence>23034</sequence>
  <level>INFO</level>
  <class>com.kms.katalon.core.logging.KeywordLogger</class>
  <method>logMessage</method>
  <thread>3387</thread>
  <message>Checking object</message>
  <nestedLevel>0</nestedLevel>
</record>
<record>
  <date>2018-09-21T11:09:34</date>
  <millis>1537508374851</millis>
  <sequence>23035</sequence>
  <level>INFO</level>
  <class>com.kms.katalon.core.logging.KeywordLogger</class>
  <method>logMessage</method>
  <thread>3393</thread>
  <message>Checking object</message>
  <nestedLevel>0</nestedLevel>
</record>
<record>
  <date>2018-09-21T11:10:05</date>
  <millis>1537508405280</millis>
  <sequence>23036</sequence>
  <level>INFO</level>
  <class>com.kms.katalon.core.logging.KeywordLogger</class>
  <method>logMessage</method>
  <thread>3399</thread>
  <message>Checking object</message>
  <nestedLevel>0</nestedLevel>
</record>
<record>
  <date>2018-09-21T11:10:33</date>
  <millis>1537508433263</millis>
  <sequence>23037</sequence>
  <level>INFO</level>
  <class>com.kms.katalon.core.logging.KeywordLogger</class>
  <method>logMessage</method>
  <thread>3408</thread>
  <message>Checking object</message>
  <nestedLevel>0</nestedLevel>
</record>
<record>
  <date>2018-09-21T11:11:26</date>
  <millis>1537508486809</millis>
  <sequence>23038</sequence>
  <level>INFO</level>
  <class>com.kms.katalon.core.logging.KeywordLogger</class>
  <method>logMessage</method>
  <thread>3417</thread>
  <message>Checking object</message>
  <nestedLevel>0</nestedLevel>
</record>
<record>
  <date>2018-09-21T11:11:48</date>
  <millis>1537508508131</millis>
  <sequence>23039</sequence>
  <level>INFO</level>
  <class>com.kms.katalon.core.logging.KeywordLogger</class>
  <method>logMessage</method>
  <thread>3426</thread>
  <message>Checking object</message>
  <nestedLevel>0</nestedLevel>
</record>
<record>
  <date>2018-09-21T12:57:38</date>
  <millis>1537514858358</millis>
  <sequence>23787</sequence>
  <level>INFO</level>
  <class>com.kms.katalon.core.logging.KeywordLogger</class>
  <method>logMessage</method>
  <thread>3739</thread>
  <message>Appium server started on port 58,446</message>
  <nestedLevel>0</nestedLevel>
</record>
<record>
  <date>2018-09-21T12:57:38</date>
  <millis>1537514858359</millis>
  <sequence>23788</sequence>
  <level>INFO</level>
  <class>com.kms.katalon.core.logging.KeywordLogger</class>
  <method>logMessage</method>
  <thread>3739</thread>
  <message>User set preference: [&amp;apos;unicodeKeyboard&amp;apos;, &amp;apos;true&amp;apos;]</message>
  <nestedLevel>0</nestedLevel>
</record>
<record>
  <date>2018-09-21T12:57:38</date>
  <millis>1537514858360</millis>
  <sequence>23789</sequence>
  <level>INFO</level>
  <class>com.kms.katalon.core.logging.KeywordLogger</class>
  <method>logMessage</method>
  <thread>3739</thread>
  <message>User set preference: [&amp;apos;appWaitActivity&amp;apos;, &amp;apos;*&amp;apos;]</message>
  <nestedLevel>0</nestedLevel>
</record>
<record>
  <date>2018-09-21T12:57:38</date>
  <millis>1537514858361</millis>
  <sequence>23790</sequence>
  <level>INFO</level>
  <class>com.kms.katalon.core.logging.KeywordLogger</class>
  <method>logMessage</method>
  <thread>3739</thread>
  <message>User set preference: [&amp;apos;deviceId&amp;apos;, &amp;apos;192.168.205.101:5555&amp;apos;]</message>
  <nestedLevel>0</nestedLevel>
</record>
<record>
  <date>2018-09-21T12:58:05</date>
  <millis>1537514885575</millis>
  <sequence>23792</sequence>
  <level>RUN_DATA</level>
  <class>com.kms.katalon.core.logging.KeywordLogger</class>
  <method>logMessage</method>
  <thread>3739</thread>
  <message>Logging run data &amp;apos;appiumVersion&amp;apos; with value &amp;apos;1.7.2&amp;apos;</message>
  <nestedLevel>0</nestedLevel>
  <property name="appiumVersion">1.7.2</property>
</record>
<record>
  <date>2018-09-21T12:58:05</date>
  <millis>1537514885698</millis>
  <sequence>23793</sequence>
  <level>RUN_DATA</level>
  <class>com.kms.katalon.core.logging.KeywordLogger</class>
  <method>logMessage</method>
  <thread>3739</thread>
  <message>Logging run data &amp;apos;deviceId&amp;apos; with value &amp;apos;4d002db30eec21d9&amp;apos;</message>
  <nestedLevel>0</nestedLevel>
  <property name="deviceId">4d002db30eec21d9</property>
</record>
<record>
  <date>2018-09-21T12:58:05</date>
  <millis>1537514885751</millis>
  <sequence>23794</sequence>
  <level>RUN_DATA</level>
  <class>com.kms.katalon.core.logging.KeywordLogger</class>
  <method>logMessage</method>
  <thread>3739</thread>
  <message>Logging run data &amp;apos;deviceName&amp;apos; with value &amp;apos;samsung GT-I9500 (Android 5.0.1)&amp;apos;</message>
  <nestedLevel>0</nestedLevel>
  <property name="deviceName">samsung GT-I9500 (Android 5.0.1)</property>
</record>
<record>
  <date>2018-09-21T12:58:05</date>
  <millis>1537514885806</millis>
  <sequence>23795</sequence>
  <level>RUN_DATA</level>
  <class>com.kms.katalon.core.logging.KeywordLogger</class>
  <method>logMessage</method>
  <thread>3739</thread>
  <message>Logging run data &amp;apos;deviceModel&amp;apos; with value &amp;apos;GT-I9500&amp;apos;</message>
  <nestedLevel>0</nestedLevel>
  <property name="deviceModel">GT-I9500</property>
</record>
<record>
  <date>2018-09-21T12:58:05</date>
  <millis>1537514885855</millis>
  <sequence>23796</sequence>
  <level>RUN_DATA</level>
  <class>com.kms.katalon.core.logging.KeywordLogger</class>
  <method>logMessage</method>
  <thread>3739</thread>
  <message>Logging run data &amp;apos;deviceManufacturer&amp;apos; with value &amp;apos;samsung&amp;apos;</message>
  <nestedLevel>0</nestedLevel>
  <property name="deviceManufacturer">samsung</property>
</record>
<record>
  <date>2018-09-21T12:58:05</date>
  <millis>1537514885915</millis>
  <sequence>23797</sequence>
  <level>RUN_DATA</level>
  <class>com.kms.katalon.core.logging.KeywordLogger</class>
  <method>logMessage</method>
  <thread>3739</thread>
  <message>Logging run data &amp;apos;deviceOS&amp;apos; with value &amp;apos;Android&amp;apos;</message>
  <nestedLevel>0</nestedLevel>
  <property name="deviceOS">Android</property>
</record>
<record>
  <date>2018-09-21T12:58:05</date>
  <millis>1537514885960</millis>
  <sequence>23798</sequence>
  <level>RUN_DATA</level>
  <class>com.kms.katalon.core.logging.KeywordLogger</class>
  <method>logMessage</method>
  <thread>3739</thread>
  <message>Logging run data &amp;apos;deviceOSVersion&amp;apos; with value &amp;apos;5.0.1&amp;apos;</message>
  <nestedLevel>0</nestedLevel>
  <property name="deviceOSVersion">5.0.1</property>
</record>
<record>
  <date>2018-09-21T13:33:03</date>
  <millis>1537516983531</millis>
  <sequence>24203</sequence>
  <level>INFO</level>
  <class>com.kms.katalon.core.logging.KeywordLogger</class>
  <method>logMessage</method>
  <thread>3888</thread>
  <message>Appium server started on port 61,127</message>
  <nestedLevel>0</nestedLevel>
</record>
<record>
  <date>2018-09-21T13:33:03</date>
  <millis>1537516983532</millis>
  <sequence>24204</sequence>
  <level>INFO</level>
  <class>com.kms.katalon.core.logging.KeywordLogger</class>
  <method>logMessage</method>
  <thread>3888</thread>
  <message>User set preference: [&amp;apos;unicodeKeyboard&amp;apos;, &amp;apos;true&amp;apos;]</message>
  <nestedLevel>0</nestedLevel>
</record>
<record>
  <date>2018-09-21T13:33:03</date>
  <millis>1537516983533</millis>
  <sequence>24205</sequence>
  <level>INFO</level>
  <class>com.kms.katalon.core.logging.KeywordLogger</class>
  <method>logMessage</method>
  <thread>3888</thread>
  <message>User set preference: [&amp;apos;appWaitActivity&amp;apos;, &amp;apos;*&amp;apos;]</message>
  <nestedLevel>0</nestedLevel>
</record>
<record>
  <date>2018-09-21T13:33:03</date>
  <millis>1537516983536</millis>
  <sequence>24206</sequence>
  <level>INFO</level>
  <class>com.kms.katalon.core.logging.KeywordLogger</class>
  <method>logMessage</method>
  <thread>3888</thread>
  <message>User set preference: [&amp;apos;deviceId&amp;apos;, &amp;apos;192.168.205.101:5555&amp;apos;]</message>
  <nestedLevel>0</nestedLevel>
</record>
<record>
  <date>2018-09-21T13:33:28</date>
  <millis>1537517008147</millis>
  <sequence>24208</sequence>
  <level>RUN_DATA</level>
  <class>com.kms.katalon.core.logging.KeywordLogger</class>
  <method>logMessage</method>
  <thread>3888</thread>
  <message>Logging run data &amp;apos;appiumVersion&amp;apos; with value &amp;apos;1.7.2&amp;apos;</message>
  <nestedLevel>0</nestedLevel>
  <property name="appiumVersion">1.7.2</property>
</record>
<record>
  <date>2018-09-21T13:33:28</date>
  <millis>1537517008257</millis>
  <sequence>24209</sequence>
  <level>RUN_DATA</level>
  <class>com.kms.katalon.core.logging.KeywordLogger</class>
  <method>logMessage</method>
  <thread>3888</thread>
  <message>Logging run data &amp;apos;deviceId&amp;apos; with value &amp;apos;4d002db30eec21d9&amp;apos;</message>
  <nestedLevel>0</nestedLevel>
  <property name="deviceId">4d002db30eec21d9</property>
</record>
<record>
  <date>2018-09-21T13:33:28</date>
  <millis>1537517008298</millis>
  <sequence>24210</sequence>
  <level>RUN_DATA</level>
  <class>com.kms.katalon.core.logging.KeywordLogger</class>
  <method>logMessage</method>
  <thread>3888</thread>
  <message>Logging run data &amp;apos;deviceName&amp;apos; with value &amp;apos;samsung GT-I9500 (Android 5.0.1)&amp;apos;</message>
  <nestedLevel>0</nestedLevel>
  <property name="deviceName">samsung GT-I9500 (Android 5.0.1)</property>
</record>
<record>
  <date>2018-09-21T13:33:28</date>
  <millis>1537517008398</millis>
  <sequence>24211</sequence>
  <level>RUN_DATA</level>
  <class>com.kms.katalon.core.logging.KeywordLogger</class>
  <method>logMessage</method>
  <thread>3888</thread>
  <message>Logging run data &amp;apos;deviceModel&amp;apos; with value &amp;apos;GT-I9500&amp;apos;</message>
  <nestedLevel>0</nestedLevel>
  <property name="deviceModel">GT-I9500</property>
</record>
<record>
  <date>2018-09-21T13:33:28</date>
  <millis>1537517008438</millis>
  <sequence>24212</sequence>
  <level>RUN_DATA</level>
  <class>com.kms.katalon.core.logging.KeywordLogger</class>
  <method>logMessage</method>
  <thread>3888</thread>
  <message>Logging run data &amp;apos;deviceManufacturer&amp;apos; with value &amp;apos;samsung&amp;apos;</message>
  <nestedLevel>0</nestedLevel>
  <property name="deviceManufacturer">samsung</property>
</record>
<record>
  <date>2018-09-21T13:33:28</date>
  <millis>1537517008476</millis>
  <sequence>24213</sequence>
  <level>RUN_DATA</level>
  <class>com.kms.katalon.core.logging.KeywordLogger</class>
  <method>logMessage</method>
  <thread>3888</thread>
  <message>Logging run data &amp;apos;deviceOS&amp;apos; with value &amp;apos;Android&amp;apos;</message>
  <nestedLevel>0</nestedLevel>
  <property name="deviceOS">Android</property>
</record>
<record>
  <date>2018-09-21T13:33:28</date>
  <millis>1537517008514</millis>
  <sequence>24214</sequence>
  <level>RUN_DATA</level>
  <class>com.kms.katalon.core.logging.KeywordLogger</class>
  <method>logMessage</method>
  <thread>3888</thread>
  <message>Logging run data &amp;apos;deviceOSVersion&amp;apos; with value &amp;apos;5.0.1&amp;apos;</message>
  <nestedLevel>0</nestedLevel>
  <property name="deviceOSVersion">5.0.1</property>
</record>
<record>
  <date>2018-09-21T13:33:47</date>
  <millis>1537517027114</millis>
  <sequence>24215</sequence>
  <level>INFO</level>
  <class>com.kms.katalon.core.logging.KeywordLogger</class>
  <method>logMessage</method>
  <thread>3911</thread>
  <message>Checking object</message>
  <nestedLevel>0</nestedLevel>
</record>
<record>
  <date>2018-09-21T13:35:03</date>
  <millis>1537517103470</millis>
  <sequence>24216</sequence>
  <level>INFO</level>
  <class>com.kms.katalon.core.logging.KeywordLogger</class>
  <method>logMessage</method>
  <thread>3925</thread>
  <message>Checking object</message>
  <nestedLevel>0</nestedLevel>
</record>
<record>
  <date>2018-09-21T13:35:29</date>
  <millis>1537517129521</millis>
  <sequence>24217</sequence>
  <level>INFO</level>
  <class>com.kms.katalon.core.logging.KeywordLogger</class>
  <method>logMessage</method>
  <thread>3944</thread>
  <message>Checking object</message>
  <nestedLevel>0</nestedLevel>
</record>
<record>
  <date>2018-09-21T13:35:46</date>
  <millis>1537517146414</millis>
  <sequence>24218</sequence>
  <level>INFO</level>
  <class>com.kms.katalon.core.logging.KeywordLogger</class>
  <method>logMessage</method>
  <thread>3952</thread>
  <message>Checking object</message>
  <nestedLevel>0</nestedLevel>
</record>
<record>
  <date>2018-09-21T13:36:46</date>
  <millis>1537517206506</millis>
  <sequence>24219</sequence>
  <level>FAILED</level>
  <class>com.kms.katalon.core.logging.KeywordLogger</class>
  <method>logMessage</method>
  <thread>3952</thread>
  <message>Object android.widget.LinearLayout2 not found</message>
  <nestedLevel>0</nestedLevel>
</record>
<record>
  <date>2018-09-21T13:37:06</date>
  <millis>1537517226012</millis>
  <sequence>24220</sequence>
  <level>INFO</level>
  <class>com.kms.katalon.core.logging.KeywordLogger</class>
  <method>logMessage</method>
  <thread>3955</thread>
  <message>Checking object</message>
  <nestedLevel>0</nestedLevel>
</record>
<record>
  <date>2018-09-21T13:38:06</date>
  <millis>1537517286103</millis>
  <sequence>24221</sequence>
  <level>FAILED</level>
  <class>com.kms.katalon.core.logging.KeywordLogger</class>
  <method>logMessage</method>
  <thread>3955</thread>
  <message>Object android.widget.LinearLayout2 not found</message>
  <nestedLevel>0</nestedLevel>
</record>
<record>
  <date>2018-09-21T13:38:26</date>
  <millis>1537517306543</millis>
  <sequence>24222</sequence>
  <level>INFO</level>
  <class>com.kms.katalon.core.logging.KeywordLogger</class>
  <method>logMessage</method>
  <thread>3961</thread>
  <message>Checking object</message>
  <nestedLevel>0</nestedLevel>
</record>
<record>
  <date>2018-09-21T13:38:38</date>
  <millis>1537517318101</millis>
  <sequence>24223</sequence>
  <level>INFO</level>
  <class>com.kms.katalon.core.logging.KeywordLogger</class>
  <method>logMessage</method>
  <thread>3967</thread>
  <message>Checking object</message>
  <nestedLevel>0</nestedLevel>
</record>
<record>
  <date>2018-09-21T13:39:01</date>
  <millis>1537517341725</millis>
  <sequence>24224</sequence>
  <level>INFO</level>
  <class>com.kms.katalon.core.logging.KeywordLogger</class>
  <method>logMessage</method>
  <thread>3976</thread>
  <message>Checking object</message>
  <nestedLevel>0</nestedLevel>
</record>
<record>
  <date>2018-09-21T13:39:13</date>
  <millis>1537517353849</millis>
  <sequence>24225</sequence>
  <level>INFO</level>
  <class>com.kms.katalon.core.logging.KeywordLogger</class>
  <method>logMessage</method>
  <thread>3982</thread>
  <message>Checking object</message>
  <nestedLevel>0</nestedLevel>
</record>
<record>
  <date>2018-09-21T13:39:24</date>
  <millis>1537517364105</millis>
  <sequence>24226</sequence>
  <level>INFO</level>
  <class>com.kms.katalon.core.logging.KeywordLogger</class>
  <method>logMessage</method>
  <thread>3988</thread>
  <message>Checking object</message>
  <nestedLevel>0</nestedLevel>
</record>
<record>
  <date>2018-09-21T13:39:33</date>
  <millis>1537517373352</millis>
  <sequence>24227</sequence>
  <level>INFO</level>
  <class>com.kms.katalon.core.logging.KeywordLogger</class>
  <method>logMessage</method>
  <thread>3994</thread>
  <message>Checking object</message>
  <nestedLevel>0</nestedLevel>
</record>
<record>
  <date>2018-09-21T13:39:42</date>
  <millis>1537517382667</millis>
  <sequence>24228</sequence>
  <level>INFO</level>
  <class>com.kms.katalon.core.logging.KeywordLogger</class>
  <method>logMessage</method>
  <thread>4000</thread>
  <message>Checking object</message>
  <nestedLevel>0</nestedLevel>
</record>
<record>
  <date>2018-09-21T13:39:51</date>
  <millis>1537517391650</millis>
  <sequence>24229</sequence>
  <level>INFO</level>
  <class>com.kms.katalon.core.logging.KeywordLogger</class>
  <method>logMessage</method>
  <thread>4006</thread>
  <message>Checking object</message>
  <nestedLevel>0</nestedLevel>
</record>
<record>
  <date>2018-09-21T13:40:04</date>
  <millis>1537517404241</millis>
  <sequence>24230</sequence>
  <level>INFO</level>
  <class>com.kms.katalon.core.logging.KeywordLogger</class>
  <method>logMessage</method>
  <thread>4012</thread>
  <message>Checking object</message>
  <nestedLevel>0</nestedLevel>
</record>
<record>
  <date>2018-09-21T13:40:23</date>
  <millis>1537517423837</millis>
  <sequence>24231</sequence>
  <level>INFO</level>
  <class>com.kms.katalon.core.logging.KeywordLogger</class>
  <method>logMessage</method>
  <thread>4018</thread>
  <message>Checking object</message>
  <nestedLevel>0</nestedLevel>
</record>
<record>
  <date>2018-09-21T13:40:33</date>
  <millis>1537517433191</millis>
  <sequence>24232</sequence>
  <level>INFO</level>
  <class>com.kms.katalon.core.logging.KeywordLogger</class>
  <method>logMessage</method>
  <thread>4024</thread>
  <message>Checking object</message>
  <nestedLevel>0</nestedLevel>
</record>
<record>
  <date>2018-09-21T13:40:43</date>
  <millis>1537517443931</millis>
  <sequence>24233</sequence>
  <level>INFO</level>
  <class>com.kms.katalon.core.logging.KeywordLogger</class>
  <method>logMessage</method>
  <thread>4030</thread>
  <message>Checking object</message>
  <nestedLevel>0</nestedLevel>
</record>
<record>
  <date>2018-09-21T13:41:31</date>
  <millis>1537517491440</millis>
  <sequence>24234</sequence>
  <level>INFO</level>
  <class>com.kms.katalon.core.logging.KeywordLogger</class>
  <method>logMessage</method>
  <thread>4042</thread>
  <message>Appium server started on port 62,118</message>
  <nestedLevel>0</nestedLevel>
</record>
<record>
  <date>2018-09-21T13:41:31</date>
  <millis>1537517491441</millis>
  <sequence>24235</sequence>
  <level>INFO</level>
  <class>com.kms.katalon.core.logging.KeywordLogger</class>
  <method>logMessage</method>
  <thread>4042</thread>
  <message>User set preference: [&amp;apos;unicodeKeyboard&amp;apos;, &amp;apos;true&amp;apos;]</message>
  <nestedLevel>0</nestedLevel>
</record>
<record>
  <date>2018-09-21T13:41:31</date>
  <millis>1537517491442</millis>
  <sequence>24236</sequence>
  <level>INFO</level>
  <class>com.kms.katalon.core.logging.KeywordLogger</class>
  <method>logMessage</method>
  <thread>4042</thread>
  <message>User set preference: [&amp;apos;appWaitActivity&amp;apos;, &amp;apos;*&amp;apos;]</message>
  <nestedLevel>0</nestedLevel>
</record>
<record>
  <date>2018-09-21T13:41:31</date>
  <millis>1537517491442</millis>
  <sequence>24237</sequence>
  <level>INFO</level>
  <class>com.kms.katalon.core.logging.KeywordLogger</class>
  <method>logMessage</method>
  <thread>4042</thread>
  <message>User set preference: [&amp;apos;deviceId&amp;apos;, &amp;apos;192.168.205.101:5555&amp;apos;]</message>
  <nestedLevel>0</nestedLevel>
</record>
<record>
  <date>2018-09-21T13:41:53</date>
  <millis>1537517513033</millis>
  <sequence>24239</sequence>
  <level>RUN_DATA</level>
  <class>com.kms.katalon.core.logging.KeywordLogger</class>
  <method>logMessage</method>
  <thread>4042</thread>
  <message>Logging run data &amp;apos;appiumVersion&amp;apos; with value &amp;apos;1.7.2&amp;apos;</message>
  <nestedLevel>0</nestedLevel>
  <property name="appiumVersion">1.7.2</property>
</record>
<record>
  <date>2018-09-21T13:41:53</date>
  <millis>1537517513130</millis>
  <sequence>24240</sequence>
  <level>RUN_DATA</level>
  <class>com.kms.katalon.core.logging.KeywordLogger</class>
  <method>logMessage</method>
  <thread>4042</thread>
  <message>Logging run data &amp;apos;deviceId&amp;apos; with value &amp;apos;4d002db30eec21d9&amp;apos;</message>
  <nestedLevel>0</nestedLevel>
  <property name="deviceId">4d002db30eec21d9</property>
</record>
<record>
  <date>2018-09-21T13:41:53</date>
  <millis>1537517513171</millis>
  <sequence>24241</sequence>
  <level>RUN_DATA</level>
  <class>com.kms.katalon.core.logging.KeywordLogger</class>
  <method>logMessage</method>
  <thread>4042</thread>
  <message>Logging run data &amp;apos;deviceName&amp;apos; with value &amp;apos;samsung GT-I9500 (Android 5.0.1)&amp;apos;</message>
  <nestedLevel>0</nestedLevel>
  <property name="deviceName">samsung GT-I9500 (Android 5.0.1)</property>
</record>
<record>
  <date>2018-09-21T13:41:53</date>
  <millis>1537517513219</millis>
  <sequence>24242</sequence>
  <level>RUN_DATA</level>
  <class>com.kms.katalon.core.logging.KeywordLogger</class>
  <method>logMessage</method>
  <thread>4042</thread>
  <message>Logging run data &amp;apos;deviceModel&amp;apos; with value &amp;apos;GT-I9500&amp;apos;</message>
  <nestedLevel>0</nestedLevel>
  <property name="deviceModel">GT-I9500</property>
</record>
<record>
  <date>2018-09-21T13:41:53</date>
  <millis>1537517513268</millis>
  <sequence>24243</sequence>
  <level>RUN_DATA</level>
  <class>com.kms.katalon.core.logging.KeywordLogger</class>
  <method>logMessage</method>
  <thread>4042</thread>
  <message>Logging run data &amp;apos;deviceManufacturer&amp;apos; with value &amp;apos;samsung&amp;apos;</message>
  <nestedLevel>0</nestedLevel>
  <property name="deviceManufacturer">samsung</property>
</record>
<record>
  <date>2018-09-21T13:41:53</date>
  <millis>1537517513307</millis>
  <sequence>24244</sequence>
  <level>RUN_DATA</level>
  <class>com.kms.katalon.core.logging.KeywordLogger</class>
  <method>logMessage</method>
  <thread>4042</thread>
  <message>Logging run data &amp;apos;deviceOS&amp;apos; with value &amp;apos;Android&amp;apos;</message>
  <nestedLevel>0</nestedLevel>
  <property name="deviceOS">Android</property>
</record>
<record>
  <date>2018-09-21T13:41:53</date>
  <millis>1537517513347</millis>
  <sequence>24245</sequence>
  <level>RUN_DATA</level>
  <class>com.kms.katalon.core.logging.KeywordLogger</class>
  <method>logMessage</method>
  <thread>4042</thread>
  <message>Logging run data &amp;apos;deviceOSVersion&amp;apos; with value &amp;apos;5.0.1&amp;apos;</message>
  <nestedLevel>0</nestedLevel>
  <property name="deviceOSVersion">5.0.1</property>
</record>
