Suite/Test/Step Name,Browser,Description,Start time,End time,Duration,Status
Parent Execution,,,2019-04-17 17:58:03,2019-04-17 18:13:00,14m - 57.836s,FAILED
,,,,,,
Test Cases/Parent Login/Login/Verify if able to launch the application successfully,,,2019-04-17 17:58:03,2019-04-17 17:59:18,1m - 14.846s,PASSED
"startApplication(""D:\NLP_Prod.apk"", true)",,Browse the applciation in computer,2019-04-17 17:58:03,2019-04-17 17:59:13,1m - 9.455s,PASSED
delay(5),,,2019-04-17 17:59:13,2019-04-17 17:59:18,5.026s,PASSED
,,,,,,
Test Cases/Parent Login/Login/Verify if able to enter school code,,,2019-04-17 17:59:18,2019-04-17 17:59:38,20.525s,PASSED
"setText(findTestObject(""Parent Login/Login/School CodeDomain""), ""DS"", 2)",,,2019-04-17 17:59:18,2019-04-17 17:59:38,20.317s,PASSED
,,,,,,
Test Cases/Parent Login/Login/Verify if able see G Login screen after clicking on proceed with valid school code,,,2019-04-17 17:59:38,2019-04-17 17:59:42,4.140s,PASSED
"tap(findTestObject(""Parent Login/Login/Proceed""), 2)",,,2019-04-17 17:59:38,2019-04-17 17:59:42,3.951s,PASSED
,,,,,,
Test Cases/Parent Login/Google Login selection/Verify if able to sucessfully click on Login with Google button,,,2019-04-17 17:59:42,2019-04-17 18:00:16,33.109s,FAILED
"tap(findTestObject(""Parent Login/Login Details/Login with Google""), 2)",,,2019-04-17 17:59:43,2019-04-17 18:00:16,32.911s,FAILED
,,,,,,
Test Cases/Parent Login/Google Login selection/Verify if able to choose parent email id from the list,,,2019-04-17 18:00:16,2019-04-17 18:00:48,32.761s,FAILED
"tap(findTestObject(""Parent Login/Gmail Account Selection/2268klkreddygmail.com""), 2)",,,2019-04-17 18:00:16,2019-04-17 18:00:48,32.562s,FAILED
,,,,,,
Test Cases/Parent Login/Login/Push Notifications/Verify if able to click on Yes in the Push Notifications popup screen,,,2019-04-17 18:00:48,2019-04-17 18:01:21,32.973s,FAILED
"tap(findTestObject(""Parent Login/Push Notification/Push Notification-Yes""), 0)",,,2019-04-17 18:00:49,2019-04-17 18:01:21,32.767s,FAILED
,,,,,,
Test Cases/Parent Login/Main Menu after Login/Leave/Verify if able to click on Leave Menu or not,,,2019-04-17 18:01:21,2019-04-17 18:01:54,32.859s,FAILED
"tap(findTestObject(""Parent Login/Main Menu after Login/Leave/Leave""), 0)",,,2019-04-17 18:01:21,2019-04-17 18:01:54,32.661s,FAILED
,,,,,,
Test Cases/Parent Login/Main Menu after Login/Leave/Verifiy if able to click on Applied tab to view applied leaves,,,2019-04-17 18:01:54,2019-04-17 18:02:28,33.698s,FAILED
"tap(findTestObject(""Parent Login/Main Menu after Login/Leave/Applied""), 0)",,,2019-04-17 18:01:54,2019-04-17 18:02:28,33.501s,FAILED
,,,,,,
Test Cases/Parent Login/Main Menu after Login/Leave/Verifiy if able to click on Confirmed tab to view confirmed leaves,,,2019-04-17 18:02:28,2019-04-17 18:03:06,38.502s,FAILED
"delay(5, CONTINUE_ON_FAILURE)",,,2019-04-17 18:02:28,2019-04-17 18:02:33,5.006s,PASSED
"tap(findTestObject(""Parent Login/Main Menu after Login/Leave/Confirmed""), 0)",,,2019-04-17 18:02:33,2019-04-17 18:03:06,33.150s,FAILED
,,,,,,
Test Cases/Parent Login/Main Menu after Login/Leave/Confirmed/Verify if able to view details when confirmed leave is selected,,,2019-04-17 18:03:06,2019-04-17 18:03:43,36.507s,FAILED
"delay(4, CONTINUE_ON_FAILURE)",,,2019-04-17 18:03:07,2019-04-17 18:03:11,4.003s,PASSED
"tap(findTestObject(""Parent Login/Main Menu after Login/Leave/Confirmed Leaves/Confirmed Leave Details""), 0)",,,2019-04-17 18:03:11,2019-04-17 18:03:43,32.315s,FAILED
,,,,,,
Test Cases/Parent Login/Main Menu after Login/Leave/Confirmed/Verify if able to click on Withdraw Leave request button to withdraw,,,2019-04-17 18:03:43,2019-04-17 18:04:16,32.995s,FAILED
"tap(findTestObject(""Parent Login/Main Menu after Login/Leave/Confirmed Leaves/Withdraw Leave Request""), 0)",,,2019-04-17 18:03:43,2019-04-17 18:04:16,32.770s,FAILED
,,,,,,
Test Cases/Parent Login/Main Menu after Login/Leave/Verifiy if able to click on Rejected tab to view Rejected leaves,,,2019-04-17 18:04:16,2019-04-17 18:04:49,33.010s,FAILED
"tap(findTestObject(""Parent Login/Main Menu after Login/Leave/Rejected""), 0)",,,2019-04-17 18:04:16,2019-04-17 18:04:49,32.815s,FAILED
,,,,,,
Test Cases/Parent Login/Main Menu after Login/Leave/Rejected/Verify if able to view Rejected leave details,,,2019-04-17 18:04:49,2019-04-17 18:04:53,3.734s,PASSED
"tap(findTestObject(""Parent Login/Main Menu after Login/Leave/Rejected Leave/Rejected Leave details""), 0)",,,2019-04-17 18:04:49,2019-04-17 18:04:53,3.507s,PASSED
,,,,,,
Test Cases/Parent Login/Main Menu after Login/Leave/Rejected/Verify if able to click on back button to access leave details,,,2019-04-17 18:04:53,2019-04-17 18:05:26,32.883s,FAILED
"tap(findTestObject(""Parent Login/Main Menu after Login/Leave/Rejected Leave/Back Button""), 0)",,,2019-04-17 18:04:53,2019-04-17 18:05:26,32.700s,FAILED
,,,,,,
Test Cases/Parent Login/Main Menu after Login/Leave/Apply Leave/Verify if able to click on Add button to add leave,,,2019-04-17 18:05:26,2019-04-17 18:05:59,33.201s,FAILED
"tap(findTestObject(""Parent Login/Main Menu after Login/Leave/Apply Leave Button""), 0)",,,2019-04-17 18:05:26,2019-04-17 18:05:59,33.015s,FAILED
,,,,,,
Test Cases/Parent Login/Main Menu after Login/Leave/Apply Leave/Verify if able to click on a date to apply leave,,,2019-04-17 18:05:59,2019-04-17 18:06:32,33.580s,FAILED
"tap(findTestObject(""Parent Login/Main Menu after Login/Leave/Apply Leave/To Date""), 0)",,,2019-04-17 18:05:59,2019-04-17 18:06:32,33.376s,FAILED
,,,,,,
Test Cases/Parent Login/Main Menu after Login/Leave/Apply Leave/Verify if able to click on OK to apply leave,,,2019-04-17 18:06:32,2019-04-17 18:07:06,34.183s,FAILED
"tap(findTestObject(""Parent Login/Main Menu after Login/Leave/Apply Leave/OK Button""), 0)",,,2019-04-17 18:06:33,2019-04-17 18:07:06,33.891s,FAILED
,,,,,,
Test Cases/Parent Login/Main Menu after Login/Leave/Apply Leave/Proceed Folder/Verify if able to click on First Half tab,,,2019-04-17 18:07:07,2019-04-17 18:07:41,34.241s,FAILED
"tap(findTestObject(""Parent Login/Main Menu after Login/Leave/Apply Leave/Apply Leave Popup/First Half""), 0)",,,2019-04-17 18:07:07,2019-04-17 18:07:41,33.862s,FAILED
,,,,,,
Test Cases/Parent Login/Main Menu after Login/Leave/Apply Leave/Proceed Folder/Verify if able to click on Proceed button after selecting Leave type,,,2019-04-17 18:07:41,2019-04-17 18:08:15,34.357s,FAILED
"tap(findTestObject(""Parent Login/Main Menu after Login/Leave/Apply Leave/Apply Leave Popup/Proceed""), 0)",,,2019-04-17 18:07:41,2019-04-17 18:08:15,33.929s,FAILED
,,,,,,
Test Cases/Parent Login/Main Menu after Login/Leave/Apply Leave/Subject and Reason Leave/Verify if able to enter Subject for applying leave or not,,,2019-04-17 18:08:15,2019-04-17 18:08:50,34.644s,FAILED
"setText(findTestObject(""Parent Login/Main Menu after Login/Leave/Apply Leave/Apply Leave Subject/Enter Subject""), ""Test Leave"", 3)",,,2019-04-17 18:08:15,2019-04-17 18:08:50,34.286s,FAILED
,,,,,,
Test Cases/Parent Login/Main Menu after Login/Leave/Apply Leave/Subject and Reason Leave/Verify if able to enter Reason text,,,2019-04-17 18:08:50,2019-04-17 18:09:25,35.017s,FAILED
"setText(findTestObject(""Parent Login/Main Menu after Login/Leave/Apply Leave/Apply Leave Subject/Enter Reason""), ""Going out of town"", 3)",,,2019-04-17 18:08:50,2019-04-17 18:09:25,34.610s,FAILED
,,,,,,
Test Cases/Parent Login/Main Menu after Login/Leave/Apply Leave/Subject and Reason Leave/Verify if able to click on proceed after entering subject and reason,,,2019-04-17 18:09:25,2019-04-17 18:09:59,34.604s,FAILED
"tap(findTestObject(""Parent Login/Main Menu after Login/Leave/Apply Leave/Apply Leave Subject/Proceed Button in Subject""), 3)",,,2019-04-17 18:09:25,2019-04-17 18:09:59,34.255s,FAILED
,,,,,,
Test Cases/Parent Login/Main Menu after Login/Leave/Verifiy if able to click on Applied tab to view applied leaves,,,2019-04-17 18:09:59,2019-04-17 18:10:34,34.145s,FAILED
"tap(findTestObject(""Parent Login/Main Menu after Login/Leave/Applied""), 0)",,,2019-04-17 18:09:59,2019-04-17 18:10:34,34.130s,FAILED
,,,,,,
Test Cases/Parent Login/Main Menu after Login/Leave/Applied/Verify if able to view details when applied leave is selected,,,2019-04-17 18:10:34,2019-04-17 18:11:08,34.700s,FAILED
"tap(findTestObject(""Parent Login/Main Menu after Login/Leave/Apply Leave/Applied/Applied Leave date to view details""), 0)",,,2019-04-17 18:10:34,2019-04-17 18:11:08,34.298s,FAILED
,,,,,,
Test Cases/Parent Login/Main Menu after Login/Leave/Applied/Verify if able to click on Withdraw Leave Request button to cancel,,,2019-04-17 18:11:08,2019-04-17 18:11:43,34.721s,FAILED
"tap(findTestObject(""Parent Login/Main Menu after Login/Leave/Apply Leave/Applied/Withdraw Leave Request to cancel applied leave""), 0)",,,2019-04-17 18:11:09,2019-04-17 18:11:43,34.373s,FAILED
,,,,,,
Test Cases/Parent Login/Main Menu after Login/Leave/Verify if able to click on back button to view other menus,,,2019-04-17 18:11:43,2019-04-17 18:12:18,35.395s,FAILED
"tap(findTestObject(""Parent Login/Main Menu after Login/Leave/Apply Leave/Applied/Back Button""), 0)",,,2019-04-17 18:11:44,2019-04-17 18:12:18,34.941s,FAILED
,,,,,,
Test Cases/Parent Login/Main Menu after Login/Fee/Verify if able to click on Fee tab to view Fee details,,,2019-04-17 18:12:18,2019-04-17 18:12:53,34.660s,FAILED
"tap(findTestObject(""Parent Login/Main Menu after Login/Fee/Fee""), 0)",,,2019-04-17 18:12:19,2019-04-17 18:12:53,34.094s,FAILED
