Suite/Test/Step Name,Browser,Description,Start time,End time,Duration,Status
Login,,,2018-08-29 13:09:26,2018-08-29 13:12:10,2m - 43.756s,FAILED
,,,,,,
Test Cases/GLogin,,,2018-08-29 13:09:26,2018-08-29 13:11:14,1m - 47.123s,PASSED
startApplication,,Launch Application,2018-08-29 13:09:27,2018-08-29 13:10:36,1m - 8.998s,PASSED
setText,,Enter SchoolCode,2018-08-29 13:10:36,2018-08-29 13:10:55,18.550s,PASSED
tap,,"Click on ""Proceed"" button
",2018-08-29 13:10:55,2018-08-29 13:10:56,1.181s,PASSED
tap,,"Click on ""Login with Google"" Button",2018-08-29 13:10:56,2018-08-29 13:11:00,4.552s,PASSED
tap,,Choose the desired Gmail login which is registered with NLP,2018-08-29 13:11:00,2018-08-29 13:11:03,2.863s,PASSED
tap,,"Choose ""Yes"" from the Push Notifications Popup",2018-08-29 13:11:03,2018-08-29 13:11:08,5.151s,PASSED
delay,,,2018-08-29 13:11:08,2018-08-29 13:11:14,5.184s,PASSED
"Statement - com.kms.katalon.core.configuration.RunConfiguration.getProjectDir() + 0 == ""Users\lakshmikanthk\Downloads\app-nlp-debug.apk""",,,2018-08-29 13:11:14,2018-08-29 13:11:14,0.015s,NOT_RUN
startApplication,,,2018-08-29 13:11:14,2018-08-29 13:11:14,0.002s,NOT_RUN
waitForElementPresent,,,2018-08-29 13:11:14,2018-08-29 13:11:14,0.004s,NOT_RUN
,,,,,,
Test Cases/Calendar,,,2018-08-29 13:11:14,2018-08-29 13:12:02,48.546s,FAILED
tap,,,2018-08-29 13:11:14,2018-08-29 13:11:15,0.812s,PASSED
tap,,,2018-08-29 13:11:15,2018-08-29 13:11:17,1.678s,PASSED
tap,,,2018-08-29 13:11:17,2018-08-29 13:11:18,1.125s,PASSED
tap,,,2018-08-29 13:11:18,2018-08-29 13:11:19,1.170s,PASSED
tap,,,2018-08-29 13:11:19,2018-08-29 13:11:20,1.235s,PASSED
tap,,,2018-08-29 13:11:20,2018-08-29 13:11:23,2.459s,PASSED
tap,,,2018-08-29 13:11:23,2018-08-29 13:11:24,1.624s,PASSED
tap,,,2018-08-29 13:11:24,2018-08-29 13:11:25,0.956s,PASSED
tap,,,2018-08-29 13:11:25,2018-08-29 13:12:02,36.801s,FAILED
