[Appium] Welcome to Appium v1.7.2
[Appium] Non-default server args:
[Appium]   port: 60945
[Appium]   loglevel: info
[Appium]   chromeDriverPort: 60947
[Appium]   tmpDir: C:\Users\LAKSHM~1\AppData\Local\Temp\\Katalon\Appium\Temp1555337044878
[Appium] Appium REST http interface listener started on 0.0.0.0:60945
[HTTP] --> GET /wd/hub/status {}
[HTTP] <-- GET /wd/hub/status 200 16 ms - 72 
[HTTP] --> POST /wd/hub/session {"desiredCapabilities":{"app":"D:\\NLP_Prod.apk","appWaitActivity":"*","autoGrantPermissions":true,"deviceId":"4d002db30eec21d9","deviceName":"samsung GT-I9500 (Android 5.0.1)","fullReset":true,"newCommandTimeout":1800,"noReset":false,"platform":"ANDROID","platformName":"Android","udid":"4d002db30eec21d9","uniCodeKeyboard":true},"capabilities":{"desiredCapabilities":{"app":"D:\\NLP_Prod.apk","appWaitActivity":"*","autoGrantPermissions":true,"deviceId":"4d002db30eec21d9","deviceName":"samsung GT-I9500 (Android 5.0.1)","fullReset":true,"newCommandTimeout":1800,"noReset":false,"platform":"ANDROID","platformName":"Android","udid":"4d002db30eec21d9","uniCodeKeyboard":true},"firstMatch":[{"platformName":"android"}]}}
[Appium] Merged W3C capabilities {"desiredCapabilities":{"app":"D:\\NLP_Prod.apk... into desiredCapabilities object {"app":"D:\\NLP_Prod.apk","appWaitActivity":"*"...
[Appium] Creating new AndroidDriver (v1.37.0) session
[Appium] Capabilities:
[Appium]   app: D:\NLP_Prod.apk
[Appium]   appWaitActivity: *
[Appium]   autoGrantPermissions: true
[Appium]   deviceId: 4d002db30eec21d9
[Appium]   deviceName: samsung GT-I9500 (Android 5.0.1)
[Appium]   fullReset: true
[Appium]   newCommandTimeout: 1800
[Appium]   noReset: false
[Appium]   platform: ANDROID
[Appium]   platformName: android
[Appium]   udid: 4d002db30eec21d9
[Appium]   uniCodeKeyboard: true
[BaseDriver] The following capabilities were provided, but are not recognized by appium: deviceId, platform, uniCodeKeyboard.
[BaseDriver] Session created with session id: 6b9aaa3c-1a76-4e80-8e30-a3973023f168
[AndroidDriver] Java version is: 1.8.0_181
[ADB] Checking whether adb is present
[ADB] Using adb.exe from C:\Users\lakshmikanthk\.katalon\tools\android_sdk\platform-tools\adb.exe
[AndroidDriver] Retrieving device list
[AndroidDriver] Using device: 4d002db30eec21d9
[ADB] Checking whether adb is present
[BaseDriver] Using local app 'D:\NLP_Prod.apk'
[AndroidDriver] Starting Android session
[AndroidDriver] setDeviceLanguageCountry requires language or country.
[AndroidDriver] Got language: 'null' and country: 'null'
[ADB] Checking whether aapt is present
[ADB] Using aapt.exe from C:\Users\lakshmikanthk\.katalon\tools\android_sdk\build-tools\28.0.2\aapt.exe
[ADB] Checking whether aapt is present
[ADB] Getting device platform version
[ADB] Checking whether aapt is present
[ADB] Extracting package and launch activity from manifest
[ADB] com.next.nlp was successfully uninstalled
[AndroidDriver] Remote apk path is /data/local/tmp/cf3a22d2908ce0371ca21f00895487aa.apk
[AndroidDriver] Apk is not yet installed
[AndroidDriver] installing apk from remote
[AndroidDriver] Clearing out any existing remote apks with the same hash
[ADB] com.next.nlp was not uninstalled, because it was not present on the device
[ADB] Checking whether aapt is present
[ADB] Extracting package and launch activity from manifest
[ADB] Cannot kill process 20299 in 1000 ms. Trying to force kill...
[AndroidBootstrap] Android bootstrap socket is now connected
[AndroidDriver] Using app unlock, this is going to be deprecated!
[AndroidDriver] Unlocking screen
[AndroidDriver] Using app unlock, this is going to be deprecated!
[AndroidDriver] Unlocking screen
[HTTP] <-- POST /wd/hub/session - - ms - - 
[AndroidDriver] Using app unlock, this is going to be deprecated!
[AndroidDriver] Unlocking screen
[Appium] New AndroidDriver session created successfully, session 6b9aaa3c-1a76-4e80-8e30-a3973023f168 added to master session list
