Suite/Test/Step Name,Browser,Description,Start time,End time,Duration,Status
Login,,,2018-09-05 15:43:34,2018-09-05 15:45:46,2m - 11.910s,ERROR
,,,,,,
Test Cases/GLogin,,,2018-09-05 15:43:34,2018-09-05 15:45:17,1m - 42.967s,PASSED
startApplication,,,2018-09-05 15:43:35,2018-09-05 15:44:34,58.650s,PASSED
delay,,,2018-09-05 15:44:34,2018-09-05 15:44:39,5.099s,PASSED
verifyElementVisible,,,2018-09-05 15:44:39,2018-09-05 15:44:40,0.879s,PASSED
tap,,,2018-09-05 15:44:40,2018-09-05 15:44:41,1.608s,PASSED
waitForElementPresent,,,2018-09-05 15:44:41,2018-09-05 15:44:42,0.922s,PASSED
setText,,Enter SchoolCode,2018-09-05 15:44:42,2018-09-05 15:44:59,16.420s,PASSED
waitForElementPresent,,,2018-09-05 15:44:59,2018-09-05 15:44:59,0.718s,PASSED
tap,,"Click on ""Proceed"" button
",2018-09-05 15:44:59,2018-09-05 15:45:00,0.827s,PASSED
tap,,"Click on ""Login with Google"" Button",2018-09-05 15:45:00,2018-09-05 15:45:04,4.064s,PASSED
setText,,Enter Gmail ,2018-09-05 15:45:04,2018-09-05 15:45:04,0.004s,NOT_RUN
tap,,Click on Next,2018-09-05 15:45:04,2018-09-05 15:45:04,0.003s,NOT_RUN
setText,,Enter Password for gmail account,2018-09-05 15:45:04,2018-09-05 15:45:04,0.003s,NOT_RUN
tap,,Click on Next,2018-09-05 15:45:04,2018-09-05 15:45:04,0.031s,NOT_RUN
tap,,Accept Terms and Services,2018-09-05 15:45:04,2018-09-05 15:45:04,0.009s,NOT_RUN
tap,,Scroll to text for Accept button to be enabled,2018-09-05 15:45:04,2018-09-05 15:45:04,0.023s,NOT_RUN
tap,,Click on Accept,2018-09-05 15:45:04,2018-09-05 15:45:04,0.000s,NOT_RUN
tap,,Choose the desired Gmail login which is registered with NLP,2018-09-05 15:45:04,2018-09-05 15:45:09,4.835s,PASSED
tap,,"Choose ""Yes"" from the Push Notifications Popup",2018-09-05 15:45:09,2018-09-05 15:45:12,3.181s,PASSED
delay,,,2018-09-05 15:45:12,2018-09-05 15:45:17,4.994s,PASSED
"Statement - com.kms.katalon.core.configuration.RunConfiguration.getProjectDir() + 0 == ""Users\lakshmikanthk\Downloads\app-nlp-debug.apk""",,,2018-09-05 15:45:17,2018-09-05 15:45:17,0.003s,NOT_RUN
startApplication,,,2018-09-05 15:45:17,2018-09-05 15:45:17,0.010s,NOT_RUN
waitForElementPresent,,,2018-09-05 15:45:17,2018-09-05 15:45:17,0.000s,NOT_RUN
,,,,,,
Test Cases/Attendance,,,2018-09-05 15:45:17,2018-09-05 15:45:38,20.798s,ERROR
tap,,Click on Attendance Tab,2018-09-05 15:45:18,2018-09-05 15:45:19,0.807s,PASSED
tap,,"Click on ""My Attendance"" Tab to view staff attendance",2018-09-05 15:45:19,2018-09-05 15:45:20,1.119s,PASSED
com.my.keywords.android.swiping.scrollListToElementWithText,,,2018-09-05 15:45:20,2018-09-05 15:45:20,0.000s,NOT_RUN
"Statement - com.detroitlabs.katalonmobileutil.touch.Scroll.scrollListToElementWithText(""August"")",,,2018-09-05 15:45:20,2018-09-05 15:45:20,0.000s,NOT_RUN
tap,,,2018-09-05 15:45:20,2018-09-05 15:45:20,0.000s,NOT_RUN
"Comment - ""Scroll to verify August - 18 Text""",,,2018-09-05 15:45:20,2018-09-05 15:45:20,0.000s,PASSED
scrollToText,,Get item's label,2018-09-05 15:45:20,2018-09-05 15:45:31,10.931s,PASSED
verifyElementText,,Verify April - 18 Text is visible,2018-09-05 15:45:31,2018-09-05 15:45:31,0.000s,NOT_RUN
tap,,Click on Attendance Back button to view other menus,2018-09-05 15:45:31,2018-09-05 15:45:32,0.633s,PASSED
tap,,Click on Student Attendance Roll Call menu,2018-09-05 15:45:32,2018-09-05 15:45:34,2.232s,PASSED
tap,,In Roll Call select First Class,2018-09-05 15:45:34,2018-09-05 15:45:38,4.180s,PASSED
tap,,Select Present for the selected student,2018-09-05 15:45:38,2018-09-05 15:45:38,0.003s,NOT_RUN
keyword.swipe.swipeDirection,,,2018-09-05 15:45:38,2018-09-05 15:45:38,0.017s,ERROR
