Suite/Test/Step Name,Browser,Description,Start time,End time,Duration,Status
Parent Execution,,,2019-04-15 18:34:50,2019-04-15 18:37:34,2m - 44.277s,FAILED
,,,,,,
Test Cases/Parent Login/Login/Verify if able to launch the application successfully,,,2019-04-15 18:34:50,2019-04-15 18:36:04,1m - 13.461s,PASSED
"startApplication(""D:\NLP_Prod.apk"", true)",,Browse the applciation in computer,2019-04-15 18:34:51,2019-04-15 18:35:59,1m - 7.932s,PASSED
delay(5),,,2019-04-15 18:35:59,2019-04-15 18:36:04,5.027s,PASSED
,,,,,,
Test Cases/Parent Login/Login/Verify if able to enter school code,,,2019-04-15 18:36:04,2019-04-15 18:36:23,19.334s,PASSED
"setText(findTestObject(""Parent Login/Login/School CodeDomain""), ""DS"", 2)",,,2019-04-15 18:36:04,2019-04-15 18:36:23,19.134s,PASSED
,,,,,,
Test Cases/Parent Login/Login/Verify if able see G Login screen after clicking on proceed with valid school code,,,2019-04-15 18:36:23,2019-04-15 18:36:24,1.040s,PASSED
"tap(findTestObject(""Parent Login/Login/Proceed""), 2)",,,2019-04-15 18:36:23,2019-04-15 18:36:24,0.849s,PASSED
,,,,,,
Test Cases/Parent Login/Google Login selection/Verify if able to sucessfully click on Login with Google button,,,2019-04-15 18:36:24,2019-04-15 18:36:29,4.950s,PASSED
"tap(findTestObject(""Parent Login/Login Details/Login with Google""), 2)",,,2019-04-15 18:36:24,2019-04-15 18:36:29,4.760s,PASSED
,,,,,,
Test Cases/Parent Login/Google Login selection/Verify if able to choose parent email id from the list,,,2019-04-15 18:36:29,2019-04-15 18:36:37,7.983s,PASSED
"tap(findTestObject(""Parent Login/Gmail Account Selection/2268klkreddygmail.com""), 2)",,,2019-04-15 18:36:29,2019-04-15 18:36:37,7.795s,PASSED
,,,,,,
Test Cases/Parent Login/Login/Push Notifications/Verify if able to click on Yes in the Push Notifications popup screen,,,2019-04-15 18:36:37,2019-04-15 18:36:43,5.731s,PASSED
"tap(findTestObject(""Parent Login/Push Notification/Push Notification-Yes""), 0)",,,2019-04-15 18:36:37,2019-04-15 18:36:43,5.536s,PASSED
,,,,,,
Test Cases/Parent Login/Main Menu after Login/Student Profile/Verify Student profile is clickable or not,,,2019-04-15 18:36:43,2019-04-15 18:36:44,1.644s,PASSED
"tap(findTestObject(""Parent Login/Main Menu after Login/Student Profile/Student Profile""), 2)",,,2019-04-15 18:36:43,2019-04-15 18:36:44,1.452s,PASSED
,,,,,,
Test Cases/Parent Login/Main Menu after Login/Student Profile/Student/Verify if student is clickable or not,,,2019-04-15 18:36:44,2019-04-15 18:36:47,3.119s,PASSED
"tap(findTestObject(""Parent Login/Main Menu after Login/Student Profile/Student Details/Student/Student Tab""), 0)",,,2019-04-15 18:36:45,2019-04-15 18:36:47,2.928s,PASSED
,,,,,,
Test Cases/Parent Login/Main Menu after Login/Student Profile/Student/Personal Details/Verify if personal details is getting minimized or not when clicked on minimize button,,,2019-04-15 18:36:47,2019-04-15 18:36:49,1.793s,PASSED
"tap(findTestObject(""Parent Login/Main Menu after Login/Student Profile/Student Details/Student/Personal Details/Minimize button in Personal Details""), 0)",,,2019-04-15 18:36:48,2019-04-15 18:36:49,1.605s,PASSED
,,,,,,
Test Cases/Parent Login/Main Menu after Login/Student Profile/Student/Academic Details/Verify if able to view Academic details or not,,,2019-04-15 18:36:49,2019-04-15 18:36:51,1.422s,PASSED
"tap(findTestObject(""Parent Login/Main Menu after Login/Student Profile/Student Details/Student/Academic Details/Maximise button in Academic Details""), 0)",,,2019-04-15 18:36:49,2019-04-15 18:36:51,1.230s,PASSED
,,,,,,
Test Cases/Parent Login/Main Menu after Login/Student Profile/Student/Contact Details/Verify if able to view Contact details or not,,,2019-04-15 18:36:51,2019-04-15 18:36:52,1.164s,PASSED
"tap(findTestObject(""Parent Login/Main Menu after Login/Student Profile/Student Details/Student/Contact Details/Maximise Button in Contact Details""), 0)",,,2019-04-15 18:36:51,2019-04-15 18:36:52,0.932s,PASSED
,,,,,,
Test Cases/Parent Login/Main Menu after Login/Student Profile/Student/Previous School Details/Verify if able to view Previous School Details or not,,,2019-04-15 18:36:52,2019-04-15 18:36:53,1.474s,PASSED
"tap(findTestObject(""Parent Login/Main Menu after Login/Student Profile/Student Details/Student/Previous School Details/Maximise button in Previous School Details""), 0)",,,2019-04-15 18:36:52,2019-04-15 18:36:53,1.279s,PASSED
,,,,,,
Test Cases/Parent Login/Main Menu after Login/Student Profile/Student/Miscellaneous Details/Verify if able to view Miscellaneous Details or not,,,2019-04-15 18:36:53,2019-04-15 18:36:55,1.246s,PASSED
"tap(findTestObject(""Parent Login/Main Menu after Login/Student Profile/Student Details/Student/Miscellaneous Details/Maximise Button in Miscellaneous Details""), 0)",,,2019-04-15 18:36:54,2019-04-15 18:36:55,1.065s,PASSED
,,,,,,
Test Cases/Parent Login/Main Menu after Login/Student Profile/Student/Verify if able to click on back button in Student Details,,,2019-04-15 18:36:55,2019-04-15 18:37:27,32.620s,FAILED
"tap(findTestObject(""Parent Login/Main Menu after Login/Student Profile/Student Details/Back Button""), 0)",,,2019-04-15 18:36:55,2019-04-15 18:37:27,32.441s,FAILED
