Suite/Test/Step Name,Browser,Description,Start time,End time,Duration,Status
Login,,,2018-09-14 15:10:14,2018-09-14 15:13:03,2m - 48.922s,FAILED
,,,,,,
Test Cases/GLogin,,,2018-09-14 15:10:14,2018-09-14 15:12:13,1m - 58.839s,PASSED
startApplication,,,2018-09-14 15:10:15,2018-09-14 15:11:25,1m - 9.735s,PASSED
delay,,,2018-09-14 15:11:25,2018-09-14 15:11:25,0.112s,PASSED
verifyElementVisible,,,2018-09-14 15:11:25,2018-09-14 15:11:26,1.454s,PASSED
tap,,,2018-09-14 15:11:26,2018-09-14 15:11:28,1.998s,PASSED
waitForElementPresent,,,2018-09-14 15:11:28,2018-09-14 15:11:29,0.821s,PASSED
setText,,Enter SchoolCode,2018-09-14 15:11:29,2018-09-14 15:11:46,16.938s,PASSED
waitForElementPresent,,,2018-09-14 15:11:46,2018-09-14 15:11:47,0.761s,PASSED
tap,,"Click on ""Proceed"" button
",2018-09-14 15:11:47,2018-09-14 15:11:47,0.620s,PASSED
tap,,"Click on ""Login with Google"" Button",2018-09-14 15:11:47,2018-09-14 15:11:58,10.608s,PASSED
setText,,Enter Gmail ,2018-09-14 15:11:58,2018-09-14 15:11:58,0.003s,NOT_RUN
tap,,Click on Next,2018-09-14 15:11:58,2018-09-14 15:11:58,0.002s,NOT_RUN
setText,,Enter Password for gmail account,2018-09-14 15:11:58,2018-09-14 15:11:58,0.002s,NOT_RUN
tap,,Click on Next,2018-09-14 15:11:58,2018-09-14 15:11:58,0.002s,NOT_RUN
tap,,Accept Terms and Services,2018-09-14 15:11:58,2018-09-14 15:11:58,0.002s,NOT_RUN
tap,,Scroll to text for Accept button to be enabled,2018-09-14 15:11:58,2018-09-14 15:11:58,0.003s,NOT_RUN
tap,,Click on Accept,2018-09-14 15:11:58,2018-09-14 15:11:58,0.003s,NOT_RUN
tap,,Choose the desired Gmail login which is registered with NLP,2018-09-14 15:11:58,2018-09-14 15:12:05,7.287s,PASSED
tap,,"Choose ""Yes"" from the Push Notifications Popup",2018-09-14 15:12:05,2018-09-14 15:12:08,2.785s,PASSED
delay,,,2018-09-14 15:12:08,2018-09-14 15:12:13,5.007s,PASSED
"Statement - com.kms.katalon.core.configuration.RunConfiguration.getProjectDir() + 0 == ""Users\lakshmikanthk\Downloads\app-nlp-debug.apk""",,,2018-09-14 15:12:13,2018-09-14 15:12:13,0.002s,NOT_RUN
startApplication,,,2018-09-14 15:12:13,2018-09-14 15:12:13,0.002s,NOT_RUN
waitForElementPresent,,,2018-09-14 15:12:13,2018-09-14 15:12:13,0.002s,NOT_RUN
,,,,,,
Test Cases/After Sucessfull Login,,,2018-09-14 15:12:13,2018-09-14 15:12:56,43.050s,FAILED
waitForElementVisible,,,2018-09-14 15:12:14,2018-09-14 15:12:14,0.002s,NOT_RUN
tap,,,2018-09-14 15:12:14,2018-09-14 15:12:14,0.627s,PASSED
tap,,,2018-09-14 15:12:14,2018-09-14 15:12:14,0.005s,NOT_RUN
tap,,,2018-09-14 15:12:14,2018-09-14 15:12:19,4.513s,PASSED
tap,,,2018-09-14 15:12:19,2018-09-14 15:12:56,37.377s,FAILED
