Suite/Test/Step Name,Browser,Description,Start time,End time,Duration,Status
Login,,,2018-09-12 13:54:02,2018-09-12 13:54:45,43.477s,FAILED
,,,,,,
Test Cases/GLogin,,,2018-09-12 13:54:03,2018-09-12 13:54:43,40.039s,FAILED
startApplication,,,2018-09-12 13:54:05,2018-09-12 13:54:43,38.467s,FAILED
