Suite/Test/Step Name,Browser,Description,Start time,End time,Duration,Status
Login,,,2018-09-04 22:52:39,2018-09-04 22:54:01,1m - 22.497s,FAILED
,,,,,,
Test Cases/GLogin,,,2018-09-04 22:52:40,2018-09-04 22:53:57,1m - 17.383s,FAILED
startApplication,,,2018-09-04 22:52:40,2018-09-04 22:53:21,41.123s,PASSED
"Comment - ""Launch Application""",,,2018-09-04 22:53:21,2018-09-04 22:53:21,0.002s,PASSED
setText,,Enter SchoolCode,2018-09-04 22:53:21,2018-09-04 22:53:57,35.577s,FAILED
