Suite/Test/Step Name,Browser,Description,Start time,End time,Duration,Status
Login,,,2018-09-07 11:33:43,2018-09-07 11:37:59,4m - 15.790s,FAILED
,,,,,,
Test Cases/GLogin,,,2018-09-07 11:33:44,2018-09-07 11:35:51,2m - 6.579s,PASSED
startApplication,,,2018-09-07 11:33:45,2018-09-07 11:35:08,1m - 23.319s,PASSED
delay,,,2018-09-07 11:35:08,2018-09-07 11:35:08,0.115s,PASSED
verifyElementVisible,,,2018-09-07 11:35:08,2018-09-07 11:35:10,1.325s,PASSED
tap,,,2018-09-07 11:35:10,2018-09-07 11:35:12,1.987s,PASSED
waitForElementPresent,,,2018-09-07 11:35:12,2018-09-07 11:35:13,0.821s,PASSED
setText,,Enter SchoolCode,2018-09-07 11:35:13,2018-09-07 11:35:30,17.241s,PASSED
waitForElementPresent,,,2018-09-07 11:35:30,2018-09-07 11:35:30,0.643s,PASSED
tap,,"Click on ""Proceed"" button
",2018-09-07 11:35:30,2018-09-07 11:35:31,0.723s,PASSED
tap,,"Click on ""Login with Google"" Button",2018-09-07 11:35:31,2018-09-07 11:35:36,4.596s,PASSED
setText,,Enter Gmail ,2018-09-07 11:35:36,2018-09-07 11:35:36,0.004s,NOT_RUN
tap,,Click on Next,2018-09-07 11:35:36,2018-09-07 11:35:36,0.003s,NOT_RUN
setText,,Enter Password for gmail account,2018-09-07 11:35:36,2018-09-07 11:35:36,0.003s,NOT_RUN
tap,,Click on Next,2018-09-07 11:35:36,2018-09-07 11:35:36,0.002s,NOT_RUN
tap,,Accept Terms and Services,2018-09-07 11:35:36,2018-09-07 11:35:36,0.002s,NOT_RUN
tap,,Scroll to text for Accept button to be enabled,2018-09-07 11:35:36,2018-09-07 11:35:36,0.003s,NOT_RUN
tap,,Click on Accept,2018-09-07 11:35:36,2018-09-07 11:35:36,0.004s,NOT_RUN
tap,,Choose the desired Gmail login which is registered with NLP,2018-09-07 11:35:36,2018-09-07 11:35:40,4.422s,PASSED
tap,,"Choose ""Yes"" from the Push Notifications Popup",2018-09-07 11:35:40,2018-09-07 11:35:46,5.331s,PASSED
delay,,,2018-09-07 11:35:46,2018-09-07 11:35:51,5.006s,PASSED
"Statement - com.kms.katalon.core.configuration.RunConfiguration.getProjectDir() + 0 == ""Users\lakshmikanthk\Downloads\app-nlp-debug.apk""",,,2018-09-07 11:35:51,2018-09-07 11:35:51,0.019s,NOT_RUN
startApplication,,,2018-09-07 11:35:51,2018-09-07 11:35:51,0.002s,NOT_RUN
waitForElementPresent,,,2018-09-07 11:35:51,2018-09-07 11:35:51,0.002s,NOT_RUN
,,,,,,
Test Cases/Leave,,,2018-09-07 11:35:51,2018-09-07 11:37:52,2m - 0.869s,FAILED
tap,,Click on Leave Menu,2018-09-07 11:35:52,2018-09-07 11:35:53,1.207s,PASSED
scrollToText,,"Scroll to ""Sick Leave"" leave type",2018-09-07 11:35:53,2018-09-07 11:35:58,5.249s,PASSED
waitForElementPresent,,Wait for Sick Leave to be visible,2018-09-07 11:35:58,2018-09-07 11:36:00,1.375s,PASSED
tap,,Click on Sick Leave,2018-09-07 11:36:00,2018-09-07 11:36:00,0.642s,PASSED
waitForElementPresent,,,2018-09-07 11:36:00,2018-09-07 11:36:02,1.905s,PASSED
tap,,Select Start Date,2018-09-07 11:36:02,2018-09-07 11:36:03,0.763s,PASSED
tap,,Select Date,2018-09-07 11:36:03,2018-09-07 11:36:09,5.671s,PASSED
tap,,"Click on ""Ok"" button after selcting date",2018-09-07 11:36:09,2018-09-07 11:36:12,3.836s,PASSED
tap,,"Select ""2nd Half"" after date selection
",2018-09-07 11:36:12,2018-09-07 11:36:17,4.422s,PASSED
setText,,Type reason for leave,2018-09-07 11:36:17,2018-09-07 11:36:26,9.432s,PASSED
tap,,Upload file for leave,2018-09-07 11:36:26,2018-09-07 11:36:29,2.580s,PASSED
tap,,,2018-09-07 11:36:29,2018-09-07 11:36:29,0.004s,NOT_RUN
tap,,Select File for upload,2018-09-07 11:36:29,2018-09-07 11:36:30,1.428s,PASSED
tap,,,2018-09-07 11:36:30,2018-09-07 11:36:30,0.002s,NOT_RUN
verifyElementText,,,2018-09-07 11:36:30,2018-09-07 11:36:30,0.002s,NOT_RUN
tap,,"Click on ""Apply""  button for applying leave",2018-09-07 11:36:30,2018-09-07 11:36:33,2.545s,PASSED
tap,,"Click on ""Approvals"" Tab to view student leaves",2018-09-07 11:36:33,2018-09-07 11:36:39,6.244s,PASSED
tap,,"Click on ""Student"" Tab to view student leaves",2018-09-07 11:36:39,2018-09-07 11:36:42,3.349s,PASSED
tap,,Click on Approve Button to approve student leave,2018-09-07 11:36:42,2018-09-07 11:36:45,2.973s,PASSED
setText,,Enter Remark for approval,2018-09-07 11:36:45,2018-09-07 11:36:58,12.551s,PASSED
tap,,"Click on ""Done"" button to submit",2018-09-07 11:36:58,2018-09-07 11:37:00,1.932s,PASSED
tap,,,2018-09-07 11:37:00,2018-09-07 11:37:03,2.717s,PASSED
tap,,Click on Leave History,2018-09-07 11:37:03,2018-09-07 11:37:05,2.070s,PASSED
tap,,"Click on ""All"" to view all applied leaves",2018-09-07 11:37:05,2018-09-07 11:37:10,5.097s,PASSED
scrollToText,,"Scroll to ""Sick Leave"" Text",2018-09-07 11:37:10,2018-09-07 11:37:11,1.126s,PASSED
tap,,Then select the leave to view details,2018-09-07 11:37:11,2018-09-07 11:37:11,0.478s,PASSED
tap,,Click on Withdraw to cancel the leave,2018-09-07 11:37:11,2018-09-07 11:37:13,1.935s,PASSED
setText,,Enter reason for withdrawel,2018-09-07 11:37:13,2018-09-07 11:37:51,38.212s,FAILED
