Suite/Test/Step Name,Browser,Description,Start time,End time,Duration,Status
Login,,,2018-09-05 15:23:33,2018-09-05 15:26:10,2m - 37.080s,FAILED
,,,,,,
Test Cases/GLogin,,,2018-09-05 15:23:33,2018-09-05 15:25:38,2m - 4.362s,PASSED
startApplication,,,2018-09-05 15:23:34,2018-09-05 15:24:50,1m - 16.442s,PASSED
delay,,,2018-09-05 15:24:50,2018-09-05 15:24:56,5.053s,PASSED
verifyElementVisible,,,2018-09-05 15:24:56,2018-09-05 15:24:56,0.873s,PASSED
tap,,,2018-09-05 15:24:56,2018-09-05 15:24:58,2.057s,PASSED
waitForElementPresent,,,2018-09-05 15:24:58,2018-09-05 15:24:59,0.973s,PASSED
setText,,Enter SchoolCode,2018-09-05 15:24:59,2018-09-05 15:25:19,19.230s,PASSED
waitForElementPresent,,,2018-09-05 15:25:19,2018-09-05 15:25:19,0.709s,PASSED
tap,,"Click on ""Proceed"" button
",2018-09-05 15:25:19,2018-09-05 15:25:20,0.915s,PASSED
tap,,"Click on ""Login with Google"" Button",2018-09-05 15:25:20,2018-09-05 15:25:24,3.973s,PASSED
setText,,Enter Gmail ,2018-09-05 15:25:24,2018-09-05 15:25:24,0.010s,NOT_RUN
tap,,Click on Next,2018-09-05 15:25:24,2018-09-05 15:25:24,0.000s,NOT_RUN
setText,,Enter Password for gmail account,2018-09-05 15:25:24,2018-09-05 15:25:24,0.010s,NOT_RUN
tap,,Click on Next,2018-09-05 15:25:24,2018-09-05 15:25:24,0.000s,NOT_RUN
tap,,Accept Terms and Services,2018-09-05 15:25:24,2018-09-05 15:25:24,0.000s,NOT_RUN
tap,,Scroll to text for Accept button to be enabled,2018-09-05 15:25:24,2018-09-05 15:25:24,0.000s,NOT_RUN
tap,,Click on Accept,2018-09-05 15:25:24,2018-09-05 15:25:24,0.000s,NOT_RUN
tap,,Choose the desired Gmail login which is registered with NLP,2018-09-05 15:25:24,2018-09-05 15:25:29,5.037s,PASSED
tap,,"Choose ""Yes"" from the Push Notifications Popup",2018-09-05 15:25:29,2018-09-05 15:25:33,3.248s,PASSED
delay,,,2018-09-05 15:25:33,2018-09-05 15:25:38,5.007s,PASSED
"Statement - com.kms.katalon.core.configuration.RunConfiguration.getProjectDir() + 0 == ""Users\lakshmikanthk\Downloads\app-nlp-debug.apk""",,,2018-09-05 15:25:38,2018-09-05 15:25:38,0.002s,NOT_RUN
startApplication,,,2018-09-05 15:25:38,2018-09-05 15:25:38,0.002s,NOT_RUN
waitForElementPresent,,,2018-09-05 15:25:38,2018-09-05 15:25:38,0.002s,NOT_RUN
,,,,,,
Test Cases/Attendance,,,2018-09-05 15:25:38,2018-09-05 15:26:03,25.017s,FAILED
tap,,Click on Attendance Tab,2018-09-05 15:25:39,2018-09-05 15:25:39,0.760s,PASSED
tap,,"Click on ""My Attendance"" Tab to view staff attendance",2018-09-05 15:25:39,2018-09-05 15:25:41,1.182s,PASSED
com.my.keywords.android.swiping.scrollListToElementWithText,,,2018-09-05 15:25:41,2018-09-05 15:25:41,0.002s,NOT_RUN
"Statement - com.detroitlabs.katalonmobileutil.touch.Scroll.scrollListToElementWithText(""August"")",,,2018-09-05 15:25:41,2018-09-05 15:25:41,0.002s,NOT_RUN
tap,,,2018-09-05 15:25:41,2018-09-05 15:25:41,0.002s,NOT_RUN
"Comment - ""Scroll to verify August - 18 Text""",,,2018-09-05 15:25:41,2018-09-05 15:25:41,0.001s,PASSED
scrollToText,,Get item's label,2018-09-05 15:25:41,2018-09-05 15:25:51,10.803s,PASSED
verifyElementText,,Verify April - 18 Text is visible,2018-09-05 15:25:51,2018-09-05 15:25:51,0.004s,NOT_RUN
tap,,Click on Attendance Back button to view other menus,2018-09-05 15:25:51,2018-09-05 15:25:52,0.612s,PASSED
tap,,Click on Student Attendance Roll Call menu,2018-09-05 15:25:52,2018-09-05 15:25:54,2.048s,PASSED
tap,,In Roll Call select First Class,2018-09-05 15:25:54,2018-09-05 15:25:58,3.877s,PASSED
tap,,Select Present for the selected student,2018-09-05 15:25:58,2018-09-05 15:25:58,0.020s,NOT_RUN
swipe,,,2018-09-05 15:25:58,2018-09-05 15:26:03,4.538s,FAILED
