Suite/Test/Step Name,Browser,Description,Start time,End time,Duration,Status
Login,,,2018-08-29 10:56:24,2018-08-29 10:58:52,2m - 28.135s,PASSED
,,,,,,
Test Cases/GLogin,,,2018-08-29 10:56:24,2018-08-29 10:58:09,1m - 45.132s,PASSED
startApplication,,Launch Application,2018-08-29 10:56:25,2018-08-29 10:57:23,57.962s,PASSED
setText,,Enter SchoolCode,2018-08-29 10:57:23,2018-08-29 10:57:41,18.645s,PASSED
tap,,"Click on ""Proceed"" button
",2018-08-29 10:57:41,2018-08-29 10:57:42,0.999s,PASSED
tap,,"Click on ""Login with Google"" Button",2018-08-29 10:57:42,2018-08-29 10:57:47,4.405s,PASSED
tap,,Choose the desired Gmail login which is registered with NLP,2018-08-29 10:57:47,2018-08-29 10:57:52,5.148s,PASSED
tap,,"Choose ""Yes"" from the Push Notifications Popup",2018-08-29 10:57:52,2018-08-29 10:58:04,12.107s,PASSED
delay,,,2018-08-29 10:58:04,2018-08-29 10:58:09,5.057s,PASSED
"Statement - com.kms.katalon.core.configuration.RunConfiguration.getProjectDir() + 0 == ""Users\lakshmikanthk\Downloads\app-nlp-debug.apk""",,,2018-08-29 10:58:09,2018-08-29 10:58:09,0.038s,NOT_RUN
startApplication,,,2018-08-29 10:58:09,2018-08-29 10:58:09,0.032s,NOT_RUN
waitForElementPresent,,,2018-08-29 10:58:09,2018-08-29 10:58:09,0.031s,NOT_RUN
,,,,,,
Test Cases/Attendance,,,2018-08-29 10:58:09,2018-08-29 10:58:45,35.438s,PASSED
tap,,Click on Attendance Tab,2018-08-29 10:58:10,2018-08-29 10:58:10,0.641s,PASSED
tap,,"Click on ""My Attendance"" Tab to view staff attendance",2018-08-29 10:58:10,2018-08-29 10:58:12,1.621s,PASSED
verifyElementText,,Verify April - 18 Text is visible,2018-08-29 10:58:12,2018-08-29 10:58:12,0.003s,NOT_RUN
scrollToText,,Scroll to verify August - 18 Text,2018-08-29 10:58:12,2018-08-29 10:58:12,0.004s,NOT_RUN
tap,,Click on Attendance Back button to view other menus,2018-08-29 10:58:12,2018-08-29 10:58:13,0.998s,PASSED
tap,,Click on Student Attendance Roll Call menu,2018-08-29 10:58:13,2018-08-29 10:58:15,1.838s,PASSED
tap,,In Roll Call select First Class,2018-08-29 10:58:15,2018-08-29 10:58:18,3.304s,PASSED
tap,,Select Present for the selected student,2018-08-29 10:58:18,2018-08-29 10:58:23,5.377s,PASSED
tap,,Click on back button in Roll call,2018-08-29 10:58:23,2018-08-29 10:58:24,0.970s,PASSED
tap,,Click on back button in Class Selection page,2018-08-29 10:58:24,2018-08-29 10:58:26,2.121s,PASSED
tap,,Click on Student Attendance Mark ,2018-08-29 10:58:26,2018-08-29 10:58:28,1.829s,PASSED
tap,,Select Class/Section from the list,2018-08-29 10:58:28,2018-08-29 10:58:32,3.423s,PASSED
tap,,Select the student for marking Attendance,2018-08-29 10:58:32,2018-08-29 10:58:36,3.988s,PASSED
tap,,Select Present for the selected Student,2018-08-29 10:58:36,2018-08-29 10:58:38,2.003s,PASSED
tap,,Click on Done to submit,2018-08-29 10:58:38,2018-08-29 10:58:39,1.121s,PASSED
tap,,Click on Back button,2018-08-29 10:58:39,2018-08-29 10:58:41,2.309s,PASSED
tap,,Click on back button to go back to Menu,2018-08-29 10:58:41,2018-08-29 10:58:43,1.871s,PASSED
tap,,Click on back button to go back to Main Menu,2018-08-29 10:58:43,2018-08-29 10:58:45,1.736s,PASSED
