Suite/Test/Step Name,Browser,Description,Start time,End time,Duration,Status
Login,,,2018-08-30 15:12:53,2018-08-30 15:12:59,5.921s,FAILED
,,,,,,
Test Cases/GLogin,,,2018-08-30 15:12:54,2018-08-30 15:12:59,4.605s,FAILED
startApplication,,Launch Application,2018-08-30 15:12:55,2018-08-30 15:12:59,3.374s,FAILED
