Suite/Test/Step Name,Browser,Description,Start time,End time,Duration,Status
Parent Execution,,,2019-04-09 10:17:38,2019-04-09 10:17:48,9.177s,FAILED
,,,,,,
Test Cases/Parent Login/Login/Verify if able to launch the application successfully,,,2019-04-09 10:17:39,2019-04-09 10:17:44,5.700s,FAILED
"startApplication(""C:\Users\lakshmikanthk\Downloads\NLP_Prod.apk"", true)",,Browse the applciation in computer,2019-04-09 10:17:39,2019-04-09 10:17:39,0.282s,FAILED
delay(5),,,2019-04-09 10:17:39,2019-04-09 10:17:44,5.054s,FAILED
,,,,,,
Test Cases/Parent Login/Login/Verify if able to click on FAQ to view details,,,2019-04-09 10:17:44,2019-04-09 10:17:47,2.311s,FAILED
delay(2),,,2019-04-09 10:17:45,2019-04-09 10:17:47,2.005s,PASSED
"tap(findTestObject(""Parent Login/Login/FAQ""), 2)",,,2019-04-09 10:17:47,2019-04-09 10:17:47,0.075s,FAILED
,,,,,,
Test Cases/Parent Login/Login/Verify if able to click on back button in FAQ,,,2019-04-09 10:17:47,2019-04-09 10:17:47,0.233s,FAILED
"tap(findTestObject(""Parent Login/Login/Backbutton in FAQ""), 2)",,,2019-04-09 10:17:47,2019-04-09 10:17:47,0.018s,FAILED
,,,,,,
Test Cases/Parent Login/Login/Verify if able to click on Dont have School Code or Domain link,,,2019-04-09 10:17:47,2019-04-09 10:17:47,0.205s,FAILED
"tap(findTestObject(""Parent Login/Login/Dont have School CodeDomain""), 2)",,,2019-04-09 10:17:47,2019-04-09 10:17:47,0.011s,FAILED
,,,,,,
Test Cases/Parent Login/Login/Verify if able to click on OK button to close dialog,,,2019-04-09 10:17:47,2019-04-09 10:17:47,0.184s,FAILED
"tap(findTestObject(""Parent Login/Login/OK button for Dont have school code alert""), 2)",,,2019-04-09 10:17:47,2019-04-09 10:17:47,0.010s,FAILED
,,,,,,
Test Cases/Parent Login/Login/Verify if able to enter school code,,,2019-04-09 10:17:47,2019-04-09 10:17:48,0.226s,FAILED
"setText(findTestObject(""Parent Login/Login/School CodeDomain""), ""DS"", 2)",,,2019-04-09 10:17:48,2019-04-09 10:17:48,0.022s,FAILED
