[Appium] Welcome to Appium v1.7.2
[Appium] Non-default server args:
[Appium]   port: 52988
[Appium]   loglevel: info
[Appium]   chromeDriverPort: 52990
[Appium]   tmpDir: C:\Users\LAKSHM~1\AppData\Local\Temp\\Katalon\Appium\Temp1554368480322
[Appium] Appium REST http interface listener started on 0.0.0.0:52988
[HTTP] --> GET /wd/hub/status {}
[HTTP] <-- GET /wd/hub/status 200 11 ms - 72 
[HTTP] --> POST /wd/hub/session {"desiredCapabilities":{"app":"C:\\Users\\lakshmikanthk\\Downloads\\NLP_Prod.apk","appWaitActivity":"*","autoGrantPermissions":true,"deviceId":"4d002db30eec21d9","deviceName":"samsung GT-I9500 (Android 5.0.1)","fullReset":true,"newCommandTimeout":1800,"noReset":false,"platform":"ANDROID","platformName":"Android","udid":"4d002db30eec21d9","unicodeKeyboard":true},"capabilities":{"desiredCapabilities":{"app":"C:\\Users\\lakshmikanthk\\Downloads\\NLP_Prod.apk","appWaitActivity":"*","autoGrantPermissions":true,"deviceId":"4d002db30eec21d9","deviceName":"samsung GT-I9500 (Android 5.0.1)","fullReset":true,"newCommandTimeout":1800,"noReset":false,"platform":"ANDROID","platformName":"Android","udid":"4d002db30eec21d9","unicodeKeyboard":true},"firstMatch":[{"platformName":"android"}]}}
[Appium] Merged W3C capabilities {"desiredCapabilities":{"app":"C:\\Users\\laksh... into desiredCapabilities object {"app":"C:\\Users\\lakshmikanthk\\Downloads\\NL...
[Appium] Creating new AndroidDriver (v1.37.0) session
[Appium] Capabilities:
[Appium]   app: C:\Users\lakshmikanthk\Downloads\NLP_Prod.apk
[Appium]   appWaitActivity: *
[Appium]   autoGrantPermissions: true
[Appium]   deviceId: 4d002db30eec21d9
[Appium]   deviceName: samsung GT-I9500 (Android 5.0.1)
[Appium]   fullReset: true
[Appium]   newCommandTimeout: 1800
[Appium]   noReset: false
[Appium]   platform: ANDROID
[Appium]   platformName: android
[Appium]   udid: 4d002db30eec21d9
[Appium]   unicodeKeyboard: true
[BaseDriver] The following capabilities were provided, but are not recognized by appium: deviceId, platform.
[BaseDriver] Session created with session id: d78c741f-be7e-495d-8618-490324e609c6
[AndroidDriver] Java version is: 1.8.0_181
[ADB] Checking whether adb is present
[ADB] Using adb.exe from C:\Users\lakshmikanthk\.katalon\tools\android_sdk\platform-tools\adb.exe
[AndroidDriver] Retrieving device list
[AndroidDriver] Using device: 4d002db30eec21d9
[ADB] Checking whether adb is present
[BaseDriver] Using local app 'C:\Users\lakshmikanthk\Downloads\NLP_Prod.apk'
[AndroidDriver] Starting Android session
[AndroidDriver] setDeviceLanguageCountry requires language or country.
[AndroidDriver] Got language: 'null' and country: 'null'
[ADB] Checking whether aapt is present
[ADB] Using aapt.exe from C:\Users\lakshmikanthk\.katalon\tools\android_sdk\build-tools\27.0.3\aapt.exe
[ADB] Checking whether aapt is present
[ADB] Getting device platform version
[ADB] Checking whether aapt is present
[ADB] Extracting package and launch activity from manifest
[ADB] com.next.nlp was successfully uninstalled
[AndroidDriver] Remote apk path is /data/local/tmp/cf3a22d2908ce0371ca21f00895487aa.apk
[AndroidDriver] Apk is not yet installed
[AndroidDriver] installing apk from remote
[AndroidDriver] Clearing out any existing remote apks with the same hash
[ADB] com.next.nlp was not uninstalled, because it was not present on the device
[ADB] Checking whether aapt is present
[ADB] Extracting package and launch activity from manifest
[ADB] Cannot kill process 21899 in 1000 ms. Trying to force kill...
[AndroidBootstrap] Android bootstrap socket is now connected
[AndroidDriver] Screen already unlocked, doing nothing
[Appium] New AndroidDriver session created successfully, session d78c741f-be7e-495d-8618-490324e609c6 added to master session list
[HTTP] <-- POST /wd/hub/session 200 74885 ms - 1179 
[HTTP] --> GET /wd/hub/status {}
[HTTP] <-- GET /wd/hub/status 200 5 ms - 83 
[HTTP] --> POST /wd/hub/session/d78c741f-be7e-495d-8618-490324e609c6/timeouts {"type":"implicit","ms":30000}
[HTTP] <-- POST /wd/hub/session/d78c741f-be7e-495d-8618-490324e609c6/timeouts 200 9 ms - 76 
[HTTP] --> GET /wd/hub/session/d78c741f-be7e-495d-8618-490324e609c6/window/current/size {}
[HTTP] <-- GET /wd/hub/session/d78c741f-be7e-495d-8618-490324e609c6/window/current/size 200 38 ms - 100 
[HTTP] --> POST /wd/hub/session/d78c741f-be7e-495d-8618-490324e609c6/elements {"using":"-android uiautomator","value":"new UiSelector().className(\"android.widget.EditText\").resourceId(\"com.next.nlp:id/school_code_edit\").instance(0)"}
[HTTP] <-- POST /wd/hub/session/d78c741f-be7e-495d-8618-490324e609c6/elements 200 122 ms - 89 
[HTTP] --> GET /wd/hub/session/d78c741f-be7e-495d-8618-490324e609c6 {}
[HTTP] <-- GET /wd/hub/session/d78c741f-be7e-495d-8618-490324e609c6 200 4 ms - 1179 
[HTTP] --> GET /wd/hub/session/d78c741f-be7e-495d-8618-490324e609c6 {}
[HTTP] <-- GET /wd/hub/session/d78c741f-be7e-495d-8618-490324e609c6 200 4 ms - 1179 
[HTTP] --> GET /wd/hub/session/d78c741f-be7e-495d-8618-490324e609c6 {}
[HTTP] <-- GET /wd/hub/session/d78c741f-be7e-495d-8618-490324e609c6 200 4 ms - 1179 
[HTTP] --> GET /wd/hub/session/d78c741f-be7e-495d-8618-490324e609c6 {}
[HTTP] <-- GET /wd/hub/session/d78c741f-be7e-495d-8618-490324e609c6 200 3 ms - 1179 
[HTTP] --> GET /wd/hub/session/d78c741f-be7e-495d-8618-490324e609c6/element/1/location {}
[HTTP] <-- GET /wd/hub/session/d78c741f-be7e-495d-8618-490324e609c6/element/1/location 200 51 ms - 90 
[HTTP] --> POST /wd/hub/session/d78c741f-be7e-495d-8618-490324e609c6/element/1/clear {"id":"1"}
[HTTP] <-- POST /wd/hub/session/d78c741f-be7e-495d-8618-490324e609c6/element/1/clear 200 10544 ms - 76 
[HTTP] --> POST /wd/hub/session/d78c741f-be7e-495d-8618-490324e609c6/element/1/value {"id":"1","value":["DS"]}
[HTTP] <-- POST /wd/hub/session/d78c741f-be7e-495d-8618-490324e609c6/element/1/value 200 4505 ms - 76 
[HTTP] --> GET /wd/hub/session/d78c741f-be7e-495d-8618-490324e609c6/window/current/size {}
[HTTP] <-- GET /wd/hub/session/d78c741f-be7e-495d-8618-490324e609c6/window/current/size 200 10 ms - 100 
[HTTP] --> POST /wd/hub/session/d78c741f-be7e-495d-8618-490324e609c6/elements {"using":"-android uiautomator","value":"new UiSelector().className(\"android.widget.Button\").text(\"proceed\").resourceId(\"com.next.nlp:id/proceed_btn\").instance(0)"}
[HTTP] <-- POST /wd/hub/session/d78c741f-be7e-495d-8618-490324e609c6/elements 200 203 ms - 89 
[HTTP] --> GET /wd/hub/session/d78c741f-be7e-495d-8618-490324e609c6 {}
[HTTP] <-- GET /wd/hub/session/d78c741f-be7e-495d-8618-490324e609c6 200 2 ms - 1179 
[HTTP] --> GET /wd/hub/session/d78c741f-be7e-495d-8618-490324e609c6 {}
[HTTP] <-- GET /wd/hub/session/d78c741f-be7e-495d-8618-490324e609c6 200 2 ms - 1179 
[HTTP] --> GET /wd/hub/session/d78c741f-be7e-495d-8618-490324e609c6 {}
[HTTP] <-- GET /wd/hub/session/d78c741f-be7e-495d-8618-490324e609c6 200 2 ms - 1179 
[HTTP] --> GET /wd/hub/session/d78c741f-be7e-495d-8618-490324e609c6 {}
[HTTP] <-- GET /wd/hub/session/d78c741f-be7e-495d-8618-490324e609c6 200 2 ms - 1179 
[HTTP] --> GET /wd/hub/session/d78c741f-be7e-495d-8618-490324e609c6/element/2/location {}
[HTTP] <-- GET /wd/hub/session/d78c741f-be7e-495d-8618-490324e609c6/element/2/location 200 38 ms - 90 
[HTTP] --> POST /wd/hub/session/d78c741f-be7e-495d-8618-490324e609c6/touch/perform {"actions":[{"action":"tap","options":{"element":"2","x":1,"y":1}}]}
[HTTP] <-- POST /wd/hub/session/d78c741f-be7e-495d-8618-490324e609c6/touch/perform 200 283 ms - 76 
[HTTP] --> GET /wd/hub/session/d78c741f-be7e-495d-8618-490324e609c6/window/current/size {}
[HTTP] <-- GET /wd/hub/session/d78c741f-be7e-495d-8618-490324e609c6/window/current/size 200 7 ms - 100 
[HTTP] --> POST /wd/hub/session/d78c741f-be7e-495d-8618-490324e609c6/elements {"using":"xpath","value":"//hierarchy/android.widget.FrameLayout[1]/android.widget.LinearLayout[1]/android.widget.FrameLayout[1]/android.widget.FrameLayout[1]/android.widget.FrameLayout[1]/android.widget.RelativeLayout[1]/android.widget.FrameLayout[1]/android.widget.LinearLayout[1]/android.support.v4.view.ViewPager[1]/android.widget.RelativeLayout[1]/android.widget.ScrollView[1]/android.widget.RelativeLayout[1]/android.widget.LinearLayout[1]/android.widget.FrameLayout[1]"}
[HTTP] <-- POST /wd/hub/session/d78c741f-be7e-495d-8618-490324e609c6/elements 200 1229 ms - 89 
[HTTP] --> GET /wd/hub/session/d78c741f-be7e-495d-8618-490324e609c6 {}
[HTTP] <-- GET /wd/hub/session/d78c741f-be7e-495d-8618-490324e609c6 200 10 ms - 1179 
[HTTP] --> GET /wd/hub/session/d78c741f-be7e-495d-8618-490324e609c6 {}
[HTTP] <-- GET /wd/hub/session/d78c741f-be7e-495d-8618-490324e609c6 200 7 ms - 1179 
[HTTP] --> GET /wd/hub/session/d78c741f-be7e-495d-8618-490324e609c6 {}
[HTTP] <-- GET /wd/hub/session/d78c741f-be7e-495d-8618-490324e609c6 200 6 ms - 1179 
[HTTP] --> GET /wd/hub/session/d78c741f-be7e-495d-8618-490324e609c6 {}
[HTTP] <-- GET /wd/hub/session/d78c741f-be7e-495d-8618-490324e609c6 200 6 ms - 1179 
[HTTP] --> GET /wd/hub/session/d78c741f-be7e-495d-8618-490324e609c6/element/3/location {}
[HTTP] <-- GET /wd/hub/session/d78c741f-be7e-495d-8618-490324e609c6/element/3/location 200 216 ms - 90 
[HTTP] --> POST /wd/hub/session/d78c741f-be7e-495d-8618-490324e609c6/touch/perform {"actions":[{"action":"tap","options":{"element":"3","x":1,"y":1}}]}
[HTTP] <-- POST /wd/hub/session/d78c741f-be7e-495d-8618-490324e609c6/touch/perform 200 2333 ms - 76 
[HTTP] --> GET /wd/hub/session/d78c741f-be7e-495d-8618-490324e609c6/window/current/size {}
[HTTP] <-- GET /wd/hub/session/d78c741f-be7e-495d-8618-490324e609c6/window/current/size 200 18 ms - 100 
[HTTP] --> POST /wd/hub/session/d78c741f-be7e-495d-8618-490324e609c6/elements {"using":"-android uiautomator","value":"new UiSelector().text(\"demo.nexteducation@gmail.com\")"}
[HTTP] <-- POST /wd/hub/session/d78c741f-be7e-495d-8618-490324e609c6/elements 200 3245 ms - 89 
[HTTP] --> GET /wd/hub/session/d78c741f-be7e-495d-8618-490324e609c6 {}
[HTTP] <-- GET /wd/hub/session/d78c741f-be7e-495d-8618-490324e609c6 200 3 ms - 1179 
[HTTP] --> GET /wd/hub/session/d78c741f-be7e-495d-8618-490324e609c6 {}
[HTTP] <-- GET /wd/hub/session/d78c741f-be7e-495d-8618-490324e609c6 200 3 ms - 1179 
[HTTP] --> GET /wd/hub/session/d78c741f-be7e-495d-8618-490324e609c6 {}
[HTTP] <-- GET /wd/hub/session/d78c741f-be7e-495d-8618-490324e609c6 200 3 ms - 1179 
[HTTP] --> GET /wd/hub/session/d78c741f-be7e-495d-8618-490324e609c6 {}
[HTTP] <-- GET /wd/hub/session/d78c741f-be7e-495d-8618-490324e609c6 200 3 ms - 1179 
[HTTP] --> GET /wd/hub/session/d78c741f-be7e-495d-8618-490324e609c6/element/4/location {}
[HTTP] <-- GET /wd/hub/session/d78c741f-be7e-495d-8618-490324e609c6/element/4/location 200 27 ms - 89 
[HTTP] --> POST /wd/hub/session/d78c741f-be7e-495d-8618-490324e609c6/touch/perform {"actions":[{"action":"tap","options":{"element":"4","x":1,"y":1}}]}
[HTTP] <-- POST /wd/hub/session/d78c741f-be7e-495d-8618-490324e609c6/touch/perform 200 821 ms - 76 
[HTTP] --> GET /wd/hub/session/d78c741f-be7e-495d-8618-490324e609c6/window/current/size {}
[HTTP] <-- GET /wd/hub/session/d78c741f-be7e-495d-8618-490324e609c6/window/current/size 200 24 ms - 100 
[HTTP] --> POST /wd/hub/session/d78c741f-be7e-495d-8618-490324e609c6/elements {"using":"-android uiautomator","value":"new UiSelector().className(\"android.widget.Button\").text(\"Yes\").resourceId(\"android:id/button1\").instance(1)"}
[HTTP] <-- POST /wd/hub/session/d78c741f-be7e-495d-8618-490324e609c6/elements 200 3478 ms - 89 
[HTTP] --> GET /wd/hub/session/d78c741f-be7e-495d-8618-490324e609c6 {}
[HTTP] <-- GET /wd/hub/session/d78c741f-be7e-495d-8618-490324e609c6 200 3 ms - 1179 
[HTTP] --> GET /wd/hub/session/d78c741f-be7e-495d-8618-490324e609c6 {}
[HTTP] <-- GET /wd/hub/session/d78c741f-be7e-495d-8618-490324e609c6 200 3 ms - 1179 
[HTTP] --> GET /wd/hub/session/d78c741f-be7e-495d-8618-490324e609c6 {}
[HTTP] <-- GET /wd/hub/session/d78c741f-be7e-495d-8618-490324e609c6 200 3 ms - 1179 
[HTTP] --> GET /wd/hub/session/d78c741f-be7e-495d-8618-490324e609c6 {}
[HTTP] <-- GET /wd/hub/session/d78c741f-be7e-495d-8618-490324e609c6 200 3 ms - 1179 
[HTTP] --> GET /wd/hub/session/d78c741f-be7e-495d-8618-490324e609c6/element/5/location {}
[HTTP] <-- GET /wd/hub/session/d78c741f-be7e-495d-8618-490324e609c6/element/5/location 200 16 ms - 90 
[HTTP] --> POST /wd/hub/session/d78c741f-be7e-495d-8618-490324e609c6/touch/perform {"actions":[{"action":"tap","options":{"element":"5","x":1,"y":1}}]}
[HTTP] <-- POST /wd/hub/session/d78c741f-be7e-495d-8618-490324e609c6/touch/perform 200 1694 ms - 76 
[HTTP] --> GET /wd/hub/session/d78c741f-be7e-495d-8618-490324e609c6/window/current/size {}
[HTTP] <-- GET /wd/hub/session/d78c741f-be7e-495d-8618-490324e609c6/window/current/size 200 7 ms - 100 
[HTTP] --> POST /wd/hub/session/d78c741f-be7e-495d-8618-490324e609c6/elements {"using":"-android uiautomator","value":"new UiSelector().className(\"android.widget.LinearLayout\").instance(9)"}
[HTTP] <-- POST /wd/hub/session/d78c741f-be7e-495d-8618-490324e609c6/elements 200 589 ms - 89 
[HTTP] --> GET /wd/hub/session/d78c741f-be7e-495d-8618-490324e609c6 {}
[HTTP] <-- GET /wd/hub/session/d78c741f-be7e-495d-8618-490324e609c6 200 2 ms - 1179 
[HTTP] --> GET /wd/hub/session/d78c741f-be7e-495d-8618-490324e609c6 {}
[HTTP] <-- GET /wd/hub/session/d78c741f-be7e-495d-8618-490324e609c6 200 4 ms - 1179 
[HTTP] --> GET /wd/hub/session/d78c741f-be7e-495d-8618-490324e609c6 {}
[HTTP] <-- GET /wd/hub/session/d78c741f-be7e-495d-8618-490324e609c6 200 3 ms - 1179 
[HTTP] --> GET /wd/hub/session/d78c741f-be7e-495d-8618-490324e609c6 {}
[HTTP] <-- GET /wd/hub/session/d78c741f-be7e-495d-8618-490324e609c6 200 2 ms - 1179 
[HTTP] --> GET /wd/hub/session/d78c741f-be7e-495d-8618-490324e609c6/element/6/location {}
[HTTP] <-- GET /wd/hub/session/d78c741f-be7e-495d-8618-490324e609c6/element/6/location 200 24 ms - 89 
[HTTP] --> POST /wd/hub/session/d78c741f-be7e-495d-8618-490324e609c6/touch/perform {"actions":[{"action":"tap","options":{"element":"6","x":1,"y":1}}]}
[HTTP] <-- POST /wd/hub/session/d78c741f-be7e-495d-8618-490324e609c6/touch/perform 200 540 ms - 76 
[HTTP] --> GET /wd/hub/session/d78c741f-be7e-495d-8618-490324e609c6/window/current/size {}
[HTTP] <-- GET /wd/hub/session/d78c741f-be7e-495d-8618-490324e609c6/window/current/size 200 8 ms - 100 
[HTTP] --> POST /wd/hub/session/d78c741f-be7e-495d-8618-490324e609c6/elements {"using":"-android uiautomator","value":"new UiSelector().className(\"android.widget.TextView\").resourceId(\"com.next.nlp:id/action_search\").instance(1)"}
[HTTP] <-- POST /wd/hub/session/d78c741f-be7e-495d-8618-490324e609c6/elements 200 668 ms - 89 
[HTTP] --> GET /wd/hub/session/d78c741f-be7e-495d-8618-490324e609c6 {}
[HTTP] <-- GET /wd/hub/session/d78c741f-be7e-495d-8618-490324e609c6 200 2 ms - 1179 
[HTTP] --> GET /wd/hub/session/d78c741f-be7e-495d-8618-490324e609c6 {}
[HTTP] <-- GET /wd/hub/session/d78c741f-be7e-495d-8618-490324e609c6 200 2 ms - 1179 
[HTTP] --> GET /wd/hub/session/d78c741f-be7e-495d-8618-490324e609c6 {}
[HTTP] <-- GET /wd/hub/session/d78c741f-be7e-495d-8618-490324e609c6 200 2 ms - 1179 
[HTTP] --> GET /wd/hub/session/d78c741f-be7e-495d-8618-490324e609c6 {}
[HTTP] <-- GET /wd/hub/session/d78c741f-be7e-495d-8618-490324e609c6 200 2 ms - 1179 
[HTTP] --> GET /wd/hub/session/d78c741f-be7e-495d-8618-490324e609c6/element/7/location {}
[HTTP] <-- GET /wd/hub/session/d78c741f-be7e-495d-8618-490324e609c6/element/7/location 200 26 ms - 88 
[HTTP] --> POST /wd/hub/session/d78c741f-be7e-495d-8618-490324e609c6/touch/perform {"actions":[{"action":"tap","options":{"element":"7","x":1,"y":1}}]}
[HTTP] <-- POST /wd/hub/session/d78c741f-be7e-495d-8618-490324e609c6/touch/perform 200 1233 ms - 76 
[HTTP] --> GET /wd/hub/session/d78c741f-be7e-495d-8618-490324e609c6/window/current/size {}
[HTTP] <-- GET /wd/hub/session/d78c741f-be7e-495d-8618-490324e609c6/window/current/size 200 10 ms - 100 
[HTTP] --> POST /wd/hub/session/d78c741f-be7e-495d-8618-490324e609c6/elements {"using":"-android uiautomator","value":"new UiSelector().className(\"android.widget.EditText\").text(\"Search by Name, Admission No\").resourceId(\"com.next.nlp:id/search_student_text\").instance(0)"}
[HTTP] <-- POST /wd/hub/session/d78c741f-be7e-495d-8618-490324e609c6/elements 200 252 ms - 89 
[HTTP] --> GET /wd/hub/session/d78c741f-be7e-495d-8618-490324e609c6 {}
[HTTP] <-- GET /wd/hub/session/d78c741f-be7e-495d-8618-490324e609c6 200 2 ms - 1179 
[HTTP] --> GET /wd/hub/session/d78c741f-be7e-495d-8618-490324e609c6 {}
[HTTP] <-- GET /wd/hub/session/d78c741f-be7e-495d-8618-490324e609c6 200 2 ms - 1179 
[HTTP] --> GET /wd/hub/session/d78c741f-be7e-495d-8618-490324e609c6 {}
[HTTP] <-- GET /wd/hub/session/d78c741f-be7e-495d-8618-490324e609c6 200 3 ms - 1179 
[HTTP] --> GET /wd/hub/session/d78c741f-be7e-495d-8618-490324e609c6 {}
[HTTP] <-- GET /wd/hub/session/d78c741f-be7e-495d-8618-490324e609c6 200 2 ms - 1179 
[HTTP] --> GET /wd/hub/session/d78c741f-be7e-495d-8618-490324e609c6/element/8/location {}
[HTTP] <-- GET /wd/hub/session/d78c741f-be7e-495d-8618-490324e609c6/element/8/location 200 49 ms - 88 
[HTTP] --> POST /wd/hub/session/d78c741f-be7e-495d-8618-490324e609c6/element/8/clear {"id":"8"}
[HTTP] <-- POST /wd/hub/session/d78c741f-be7e-495d-8618-490324e609c6/element/8/clear 200 5766 ms - 76 
[HTTP] --> POST /wd/hub/session/d78c741f-be7e-495d-8618-490324e609c6/element/8/value {"id":"8","value":["1260"]}
[HTTP] <-- POST /wd/hub/session/d78c741f-be7e-495d-8618-490324e609c6/element/8/value 200 6412 ms - 76 
[HTTP] --> GET /wd/hub/session/d78c741f-be7e-495d-8618-490324e609c6/window/current/size {}
[HTTP] <-- GET /wd/hub/session/d78c741f-be7e-495d-8618-490324e609c6/window/current/size 200 15 ms - 100 
[HTTP] --> POST /wd/hub/session/d78c741f-be7e-495d-8618-490324e609c6/elements {"using":"-android uiautomator","value":"new UiSelector().className(\"android.widget.RelativeLayout\").resourceId(\"com.next.nlp:id/user_profile_layout\").instance(5)"}
[HTTP] <-- POST /wd/hub/session/d78c741f-be7e-495d-8618-490324e609c6/elements 200 2384 ms - 89 
[HTTP] --> GET /wd/hub/session/d78c741f-be7e-495d-8618-490324e609c6 {}
[HTTP] <-- GET /wd/hub/session/d78c741f-be7e-495d-8618-490324e609c6 200 4 ms - 1179 
[HTTP] --> GET /wd/hub/session/d78c741f-be7e-495d-8618-490324e609c6 {}
[HTTP] <-- GET /wd/hub/session/d78c741f-be7e-495d-8618-490324e609c6 200 2 ms - 1179 
[HTTP] --> GET /wd/hub/session/d78c741f-be7e-495d-8618-490324e609c6 {}
[HTTP] <-- GET /wd/hub/session/d78c741f-be7e-495d-8618-490324e609c6 200 2 ms - 1179 
[HTTP] --> GET /wd/hub/session/d78c741f-be7e-495d-8618-490324e609c6 {}
[HTTP] <-- GET /wd/hub/session/d78c741f-be7e-495d-8618-490324e609c6 200 4 ms - 1179 
[HTTP] --> GET /wd/hub/session/d78c741f-be7e-495d-8618-490324e609c6/element/9/location {}
[HTTP] <-- GET /wd/hub/session/d78c741f-be7e-495d-8618-490324e609c6/element/9/location 200 41 ms - 87 
[HTTP] --> POST /wd/hub/session/d78c741f-be7e-495d-8618-490324e609c6/touch/perform {"actions":[{"action":"tap","options":{"element":"9","x":1,"y":1}}]}
[HTTP] <-- POST /wd/hub/session/d78c741f-be7e-495d-8618-490324e609c6/touch/perform 200 1018 ms - 76 
[HTTP] --> GET /wd/hub/session/d78c741f-be7e-495d-8618-490324e609c6/window/current/size {}
[HTTP] <-- GET /wd/hub/session/d78c741f-be7e-495d-8618-490324e609c6/window/current/size 200 8 ms - 100 
[HTTP] --> POST /wd/hub/session/d78c741f-be7e-495d-8618-490324e609c6/elements {"using":"-android uiautomator","value":"new UiSelector().className(\"android.widget.RelativeLayout\").resourceId(\"com.next.nlp:id/see_all_details_layout\").instance(13)"}
[HTTP] <-- POST /wd/hub/session/d78c741f-be7e-495d-8618-490324e609c6/elements 200 1190 ms - 90 
[HTTP] --> GET /wd/hub/session/d78c741f-be7e-495d-8618-490324e609c6 {}
[HTTP] <-- GET /wd/hub/session/d78c741f-be7e-495d-8618-490324e609c6 200 6 ms - 1179 
[HTTP] --> GET /wd/hub/session/d78c741f-be7e-495d-8618-490324e609c6 {}
[HTTP] <-- GET /wd/hub/session/d78c741f-be7e-495d-8618-490324e609c6 200 1 ms - 1179 
[HTTP] --> GET /wd/hub/session/d78c741f-be7e-495d-8618-490324e609c6 {}
[HTTP] <-- GET /wd/hub/session/d78c741f-be7e-495d-8618-490324e609c6 200 2 ms - 1179 
[HTTP] --> GET /wd/hub/session/d78c741f-be7e-495d-8618-490324e609c6 {}
[HTTP] <-- GET /wd/hub/session/d78c741f-be7e-495d-8618-490324e609c6 200 1 ms - 1179 
[HTTP] --> GET /wd/hub/session/d78c741f-be7e-495d-8618-490324e609c6/element/10/location {}
[HTTP] <-- GET /wd/hub/session/d78c741f-be7e-495d-8618-490324e609c6/element/10/location 200 23 ms - 88 
[HTTP] --> POST /wd/hub/session/d78c741f-be7e-495d-8618-490324e609c6/touch/perform {"actions":[{"action":"tap","options":{"element":"10","x":1,"y":1}}]}
[HTTP] <-- POST /wd/hub/session/d78c741f-be7e-495d-8618-490324e609c6/touch/perform 200 257 ms - 76 
[HTTP] --> GET /wd/hub/session/d78c741f-be7e-495d-8618-490324e609c6/window/current/size {}
[HTTP] <-- GET /wd/hub/session/d78c741f-be7e-495d-8618-490324e609c6/window/current/size 200 14 ms - 100 
[HTTP] --> POST /wd/hub/session/d78c741f-be7e-495d-8618-490324e609c6/elements {"using":"-android uiautomator","value":"new UiSelector().className(\"android.widget.LinearLayout\").instance(5)"}
[HTTP] <-- POST /wd/hub/session/d78c741f-be7e-495d-8618-490324e609c6/elements 200 1555 ms - 90 
[HTTP] --> GET /wd/hub/session/d78c741f-be7e-495d-8618-490324e609c6 {}
[HTTP] <-- GET /wd/hub/session/d78c741f-be7e-495d-8618-490324e609c6 200 1 ms - 1179 
[HTTP] --> GET /wd/hub/session/d78c741f-be7e-495d-8618-490324e609c6 {}
[HTTP] <-- GET /wd/hub/session/d78c741f-be7e-495d-8618-490324e609c6 200 1 ms - 1179 
[HTTP] --> GET /wd/hub/session/d78c741f-be7e-495d-8618-490324e609c6 {}
[HTTP] <-- GET /wd/hub/session/d78c741f-be7e-495d-8618-490324e609c6 200 1 ms - 1179 
[HTTP] --> GET /wd/hub/session/d78c741f-be7e-495d-8618-490324e609c6 {}
[HTTP] <-- GET /wd/hub/session/d78c741f-be7e-495d-8618-490324e609c6 200 1 ms - 1179 
[HTTP] --> GET /wd/hub/session/d78c741f-be7e-495d-8618-490324e609c6/element/11/location {}
[HTTP] <-- GET /wd/hub/session/d78c741f-be7e-495d-8618-490324e609c6/element/11/location 200 26 ms - 89 
[HTTP] --> POST /wd/hub/session/d78c741f-be7e-495d-8618-490324e609c6/touch/perform {"actions":[{"action":"tap","options":{"element":"11","x":1,"y":1}}]}
[HTTP] <-- POST /wd/hub/session/d78c741f-be7e-495d-8618-490324e609c6/touch/perform 200 202 ms - 76 
[HTTP] --> GET /wd/hub/session/d78c741f-be7e-495d-8618-490324e609c6/window/current/size {}
[HTTP] <-- GET /wd/hub/session/d78c741f-be7e-495d-8618-490324e609c6/window/current/size 200 20 ms - 100 
[HTTP] --> POST /wd/hub/session/d78c741f-be7e-495d-8618-490324e609c6/elements {"using":"-android uiautomator","value":"new UiSelector().className(\"android.widget.LinearLayout\").instance(3)"}
[HTTP] <-- POST /wd/hub/session/d78c741f-be7e-495d-8618-490324e609c6/elements 200 502 ms - 90 
[HTTP] --> GET /wd/hub/session/d78c741f-be7e-495d-8618-490324e609c6 {}
[HTTP] <-- GET /wd/hub/session/d78c741f-be7e-495d-8618-490324e609c6 200 5 ms - 1179 
[HTTP] --> GET /wd/hub/session/d78c741f-be7e-495d-8618-490324e609c6 {}
[HTTP] <-- GET /wd/hub/session/d78c741f-be7e-495d-8618-490324e609c6 200 10 ms - 1179 
[HTTP] --> GET /wd/hub/session/d78c741f-be7e-495d-8618-490324e609c6 {}
[HTTP] <-- GET /wd/hub/session/d78c741f-be7e-495d-8618-490324e609c6 200 11 ms - 1179 
[HTTP] --> GET /wd/hub/session/d78c741f-be7e-495d-8618-490324e609c6 {}
[HTTP] <-- GET /wd/hub/session/d78c741f-be7e-495d-8618-490324e609c6 200 4 ms - 1179 
[HTTP] --> GET /wd/hub/session/d78c741f-be7e-495d-8618-490324e609c6/element/12/location {}
[HTTP] <-- GET /wd/hub/session/d78c741f-be7e-495d-8618-490324e609c6/element/12/location 200 46 ms - 88 
[HTTP] --> POST /wd/hub/session/d78c741f-be7e-495d-8618-490324e609c6/touch/perform {"actions":[{"action":"tap","options":{"element":"12","x":1,"y":1}}]}
[HTTP] <-- POST /wd/hub/session/d78c741f-be7e-495d-8618-490324e609c6/touch/perform 200 294 ms - 76 
[HTTP] --> GET /wd/hub/session/d78c741f-be7e-495d-8618-490324e609c6/window/current/size {}
[HTTP] <-- GET /wd/hub/session/d78c741f-be7e-495d-8618-490324e609c6/window/current/size 200 16 ms - 100 
[HTTP] --> POST /wd/hub/session/d78c741f-be7e-495d-8618-490324e609c6/elements {"using":"-android uiautomator","value":"new UiSelector().className(\"android.widget.FrameLayout\").instance(7)"}
[HTTP] <-- POST /wd/hub/session/d78c741f-be7e-495d-8618-490324e609c6/elements 200 1645 ms - 90 
[HTTP] --> GET /wd/hub/session/d78c741f-be7e-495d-8618-490324e609c6 {}
[HTTP] <-- GET /wd/hub/session/d78c741f-be7e-495d-8618-490324e609c6 200 5 ms - 1179 
[HTTP] --> GET /wd/hub/session/d78c741f-be7e-495d-8618-490324e609c6 {}
[HTTP] <-- GET /wd/hub/session/d78c741f-be7e-495d-8618-490324e609c6 200 5 ms - 1179 
[HTTP] --> GET /wd/hub/session/d78c741f-be7e-495d-8618-490324e609c6 {}
[HTTP] <-- GET /wd/hub/session/d78c741f-be7e-495d-8618-490324e609c6 200 3 ms - 1179 
[HTTP] --> GET /wd/hub/session/d78c741f-be7e-495d-8618-490324e609c6 {}
[HTTP] <-- GET /wd/hub/session/d78c741f-be7e-495d-8618-490324e609c6 200 3 ms - 1179 
[HTTP] --> GET /wd/hub/session/d78c741f-be7e-495d-8618-490324e609c6/element/13/location {}
[HTTP] <-- GET /wd/hub/session/d78c741f-be7e-495d-8618-490324e609c6/element/13/location 200 49 ms - 88 
[HTTP] --> POST /wd/hub/session/d78c741f-be7e-495d-8618-490324e609c6/touch/perform {"actions":[{"action":"tap","options":{"element":"13","x":1,"y":1}}]}
[HTTP] <-- POST /wd/hub/session/d78c741f-be7e-495d-8618-490324e609c6/touch/perform 200 315 ms - 76 
[HTTP] --> GET /wd/hub/session/d78c741f-be7e-495d-8618-490324e609c6/window/current/size {}
[HTTP] <-- GET /wd/hub/session/d78c741f-be7e-495d-8618-490324e609c6/window/current/size 200 18 ms - 100 
[HTTP] --> POST /wd/hub/session/d78c741f-be7e-495d-8618-490324e609c6/elements {"using":"-android uiautomator","value":"new UiSelector().className(\"android.widget.RelativeLayout\").resourceId(\"com.next.nlp:id/parent_layout\").instance(7)"}
[HTTP] <-- POST /wd/hub/session/d78c741f-be7e-495d-8618-490324e609c6/elements 200 5322 ms - 668 
[HTTP] --> GET /wd/hub/session/d78c741f-be7e-495d-8618-490324e609c6 {}
[HTTP] <-- GET /wd/hub/session/d78c741f-be7e-495d-8618-490324e609c6 200 3 ms - 1179 
[HTTP] --> GET /wd/hub/session/d78c741f-be7e-495d-8618-490324e609c6 {}
[HTTP] <-- GET /wd/hub/session/d78c741f-be7e-495d-8618-490324e609c6 200 3 ms - 1179 
[HTTP] --> GET /wd/hub/session/d78c741f-be7e-495d-8618-490324e609c6 {}
[HTTP] <-- GET /wd/hub/session/d78c741f-be7e-495d-8618-490324e609c6 200 4 ms - 1179 
[HTTP] --> GET /wd/hub/session/d78c741f-be7e-495d-8618-490324e609c6 {}
[HTTP] <-- GET /wd/hub/session/d78c741f-be7e-495d-8618-490324e609c6 200 3 ms - 1179 
[HTTP] --> GET /wd/hub/session/d78c741f-be7e-495d-8618-490324e609c6 {}
[HTTP] <-- GET /wd/hub/session/d78c741f-be7e-495d-8618-490324e609c6 200 4 ms - 1179 
[HTTP] --> GET /wd/hub/session/d78c741f-be7e-495d-8618-490324e609c6 {}
[HTTP] <-- GET /wd/hub/session/d78c741f-be7e-495d-8618-490324e609c6 200 5 ms - 1179 
[HTTP] --> GET /wd/hub/session/d78c741f-be7e-495d-8618-490324e609c6 {}
[HTTP] <-- GET /wd/hub/session/d78c741f-be7e-495d-8618-490324e609c6 200 4 ms - 1179 
[HTTP] --> GET /wd/hub/session/d78c741f-be7e-495d-8618-490324e609c6 {}
[HTTP] <-- GET /wd/hub/session/d78c741f-be7e-495d-8618-490324e609c6 200 4 ms - 1179 
[HTTP] --> GET /wd/hub/session/d78c741f-be7e-495d-8618-490324e609c6 {}
[HTTP] <-- GET /wd/hub/session/d78c741f-be7e-495d-8618-490324e609c6 200 6 ms - 1179 
[HTTP] --> GET /wd/hub/session/d78c741f-be7e-495d-8618-490324e609c6 {}
[HTTP] <-- GET /wd/hub/session/d78c741f-be7e-495d-8618-490324e609c6 200 4 ms - 1179 
[HTTP] --> GET /wd/hub/session/d78c741f-be7e-495d-8618-490324e609c6 {}
[HTTP] <-- GET /wd/hub/session/d78c741f-be7e-495d-8618-490324e609c6 200 3 ms - 1179 
[HTTP] --> GET /wd/hub/session/d78c741f-be7e-495d-8618-490324e609c6 {}
[HTTP] <-- GET /wd/hub/session/d78c741f-be7e-495d-8618-490324e609c6 200 5 ms - 1179 
[HTTP] --> GET /wd/hub/session/d78c741f-be7e-495d-8618-490324e609c6 {}
[HTTP] <-- GET /wd/hub/session/d78c741f-be7e-495d-8618-490324e609c6 200 3 ms - 1179 
[HTTP] --> GET /wd/hub/session/d78c741f-be7e-495d-8618-490324e609c6 {}
[HTTP] <-- GET /wd/hub/session/d78c741f-be7e-495d-8618-490324e609c6 200 4 ms - 1179 
[HTTP] --> GET /wd/hub/session/d78c741f-be7e-495d-8618-490324e609c6 {}
[HTTP] <-- GET /wd/hub/session/d78c741f-be7e-495d-8618-490324e609c6 200 3 ms - 1179 
[HTTP] --> GET /wd/hub/session/d78c741f-be7e-495d-8618-490324e609c6 {}
[HTTP] <-- GET /wd/hub/session/d78c741f-be7e-495d-8618-490324e609c6 200 3 ms - 1179 
[HTTP] --> GET /wd/hub/session/d78c741f-be7e-495d-8618-490324e609c6 {}
[HTTP] <-- GET /wd/hub/session/d78c741f-be7e-495d-8618-490324e609c6 200 6 ms - 1179 
[HTTP] --> GET /wd/hub/session/d78c741f-be7e-495d-8618-490324e609c6 {}
[HTTP] <-- GET /wd/hub/session/d78c741f-be7e-495d-8618-490324e609c6 200 6 ms - 1179 
[HTTP] --> GET /wd/hub/session/d78c741f-be7e-495d-8618-490324e609c6 {}
[HTTP] <-- GET /wd/hub/session/d78c741f-be7e-495d-8618-490324e609c6 200 3 ms - 1179 
[HTTP] --> GET /wd/hub/session/d78c741f-be7e-495d-8618-490324e609c6 {}
[HTTP] <-- GET /wd/hub/session/d78c741f-be7e-495d-8618-490324e609c6 200 5 ms - 1179 
[HTTP] --> GET /wd/hub/session/d78c741f-be7e-495d-8618-490324e609c6 {}
[HTTP] <-- GET /wd/hub/session/d78c741f-be7e-495d-8618-490324e609c6 200 5 ms - 1179 
[HTTP] --> GET /wd/hub/session/d78c741f-be7e-495d-8618-490324e609c6 {}
[HTTP] <-- GET /wd/hub/session/d78c741f-be7e-495d-8618-490324e609c6 200 5 ms - 1179 
[HTTP] --> GET /wd/hub/session/d78c741f-be7e-495d-8618-490324e609c6 {}
[HTTP] <-- GET /wd/hub/session/d78c741f-be7e-495d-8618-490324e609c6 200 3 ms - 1179 
[HTTP] --> GET /wd/hub/session/d78c741f-be7e-495d-8618-490324e609c6 {}
[HTTP] <-- GET /wd/hub/session/d78c741f-be7e-495d-8618-490324e609c6 200 9 ms - 1179 
[HTTP] --> GET /wd/hub/session/d78c741f-be7e-495d-8618-490324e609c6 {}
[HTTP] <-- GET /wd/hub/session/d78c741f-be7e-495d-8618-490324e609c6 200 7 ms - 1179 
[HTTP] --> GET /wd/hub/session/d78c741f-be7e-495d-8618-490324e609c6 {}
[HTTP] <-- GET /wd/hub/session/d78c741f-be7e-495d-8618-490324e609c6 200 5 ms - 1179 
[HTTP] --> GET /wd/hub/session/d78c741f-be7e-495d-8618-490324e609c6 {}
[HTTP] <-- GET /wd/hub/session/d78c741f-be7e-495d-8618-490324e609c6 200 3 ms - 1179 
[HTTP] --> GET /wd/hub/session/d78c741f-be7e-495d-8618-490324e609c6 {}
[HTTP] <-- GET /wd/hub/session/d78c741f-be7e-495d-8618-490324e609c6 200 4 ms - 1179 
[HTTP] --> GET /wd/hub/session/d78c741f-be7e-495d-8618-490324e609c6 {}
[HTTP] <-- GET /wd/hub/session/d78c741f-be7e-495d-8618-490324e609c6 200 4 ms - 1179 
[HTTP] --> GET /wd/hub/session/d78c741f-be7e-495d-8618-490324e609c6 {}
[HTTP] <-- GET /wd/hub/session/d78c741f-be7e-495d-8618-490324e609c6 200 5 ms - 1179 
[HTTP] --> GET /wd/hub/session/d78c741f-be7e-495d-8618-490324e609c6 {}
[HTTP] <-- GET /wd/hub/session/d78c741f-be7e-495d-8618-490324e609c6 200 5 ms - 1179 
[HTTP] --> GET /wd/hub/session/d78c741f-be7e-495d-8618-490324e609c6 {}
[HTTP] <-- GET /wd/hub/session/d78c741f-be7e-495d-8618-490324e609c6 200 5 ms - 1179 
[HTTP] --> GET /wd/hub/session/d78c741f-be7e-495d-8618-490324e609c6 {}
[HTTP] <-- GET /wd/hub/session/d78c741f-be7e-495d-8618-490324e609c6 200 10 ms - 1179 
[HTTP] --> GET /wd/hub/session/d78c741f-be7e-495d-8618-490324e609c6 {}
[HTTP] <-- GET /wd/hub/session/d78c741f-be7e-495d-8618-490324e609c6 200 9 ms - 1179 
[HTTP] --> GET /wd/hub/session/d78c741f-be7e-495d-8618-490324e609c6 {}
[HTTP] <-- GET /wd/hub/session/d78c741f-be7e-495d-8618-490324e609c6 200 5 ms - 1179 
[HTTP] --> GET /wd/hub/session/d78c741f-be7e-495d-8618-490324e609c6 {}
[HTTP] <-- GET /wd/hub/session/d78c741f-be7e-495d-8618-490324e609c6 200 4 ms - 1179 
[HTTP] --> GET /wd/hub/session/d78c741f-be7e-495d-8618-490324e609c6 {}
[HTTP] <-- GET /wd/hub/session/d78c741f-be7e-495d-8618-490324e609c6 200 3 ms - 1179 
[HTTP] --> GET /wd/hub/session/d78c741f-be7e-495d-8618-490324e609c6 {}
[HTTP] <-- GET /wd/hub/session/d78c741f-be7e-495d-8618-490324e609c6 200 5 ms - 1179 
[HTTP] --> GET /wd/hub/session/d78c741f-be7e-495d-8618-490324e609c6 {}
[HTTP] <-- GET /wd/hub/session/d78c741f-be7e-495d-8618-490324e609c6 200 5 ms - 1179 
[HTTP] --> GET /wd/hub/session/d78c741f-be7e-495d-8618-490324e609c6 {}
[HTTP] <-- GET /wd/hub/session/d78c741f-be7e-495d-8618-490324e609c6 200 5 ms - 1179 
[HTTP] --> GET /wd/hub/session/d78c741f-be7e-495d-8618-490324e609c6 {}
[HTTP] <-- GET /wd/hub/session/d78c741f-be7e-495d-8618-490324e609c6 200 3 ms - 1179 
[HTTP] --> GET /wd/hub/session/d78c741f-be7e-495d-8618-490324e609c6 {}
[HTTP] <-- GET /wd/hub/session/d78c741f-be7e-495d-8618-490324e609c6 200 4 ms - 1179 
[HTTP] --> GET /wd/hub/session/d78c741f-be7e-495d-8618-490324e609c6 {}
[HTTP] <-- GET /wd/hub/session/d78c741f-be7e-495d-8618-490324e609c6 200 4 ms - 1179 
[HTTP] --> GET /wd/hub/session/d78c741f-be7e-495d-8618-490324e609c6 {}
[HTTP] <-- GET /wd/hub/session/d78c741f-be7e-495d-8618-490324e609c6 200 6 ms - 1179 
[HTTP] --> GET /wd/hub/session/d78c741f-be7e-495d-8618-490324e609c6 {}
[HTTP] <-- GET /wd/hub/session/d78c741f-be7e-495d-8618-490324e609c6 200 5 ms - 1179 
[HTTP] --> GET /wd/hub/session/d78c741f-be7e-495d-8618-490324e609c6 {}
[HTTP] <-- GET /wd/hub/session/d78c741f-be7e-495d-8618-490324e609c6 200 3 ms - 1179 
[HTTP] --> GET /wd/hub/session/d78c741f-be7e-495d-8618-490324e609c6 {}
[HTTP] <-- GET /wd/hub/session/d78c741f-be7e-495d-8618-490324e609c6 200 5 ms - 1179 
[HTTP] --> GET /wd/hub/session/d78c741f-be7e-495d-8618-490324e609c6 {}
[HTTP] <-- GET /wd/hub/session/d78c741f-be7e-495d-8618-490324e609c6 200 9 ms - 1179 
[HTTP] --> GET /wd/hub/session/d78c741f-be7e-495d-8618-490324e609c6 {}
[HTTP] <-- GET /wd/hub/session/d78c741f-be7e-495d-8618-490324e609c6 200 5 ms - 1179 
[HTTP] --> GET /wd/hub/session/d78c741f-be7e-495d-8618-490324e609c6 {}
[HTTP] <-- GET /wd/hub/session/d78c741f-be7e-495d-8618-490324e609c6 200 5 ms - 1179 
[HTTP] --> GET /wd/hub/session/d78c741f-be7e-495d-8618-490324e609c6 {}
[HTTP] <-- GET /wd/hub/session/d78c741f-be7e-495d-8618-490324e609c6 200 6 ms - 1179 
[HTTP] --> GET /wd/hub/session/d78c741f-be7e-495d-8618-490324e609c6 {}
[HTTP] <-- GET /wd/hub/session/d78c741f-be7e-495d-8618-490324e609c6 200 4 ms - 1179 
[HTTP] --> GET /wd/hub/session/d78c741f-be7e-495d-8618-490324e609c6 {}
[HTTP] <-- GET /wd/hub/session/d78c741f-be7e-495d-8618-490324e609c6 200 4 ms - 1179 
[HTTP] --> GET /wd/hub/session/d78c741f-be7e-495d-8618-490324e609c6 {}
[HTTP] <-- GET /wd/hub/session/d78c741f-be7e-495d-8618-490324e609c6 200 5 ms - 1179 
[HTTP] --> GET /wd/hub/session/d78c741f-be7e-495d-8618-490324e609c6 {}
[HTTP] <-- GET /wd/hub/session/d78c741f-be7e-495d-8618-490324e609c6 200 4 ms - 1179 
[HTTP] --> GET /wd/hub/session/d78c741f-be7e-495d-8618-490324e609c6 {}
[HTTP] <-- GET /wd/hub/session/d78c741f-be7e-495d-8618-490324e609c6 200 5 ms - 1179 
[HTTP] --> GET /wd/hub/session/d78c741f-be7e-495d-8618-490324e609c6 {}
[HTTP] <-- GET /wd/hub/session/d78c741f-be7e-495d-8618-490324e609c6 200 5 ms - 1179 
[HTTP] --> GET /wd/hub/session/d78c741f-be7e-495d-8618-490324e609c6 {}
[HTTP] <-- GET /wd/hub/session/d78c741f-be7e-495d-8618-490324e609c6 200 4 ms - 1179 
[HTTP] --> GET /wd/hub/session/d78c741f-be7e-495d-8618-490324e609c6 {}
[HTTP] <-- GET /wd/hub/session/d78c741f-be7e-495d-8618-490324e609c6 200 6 ms - 1179 
[HTTP] --> GET /wd/hub/session/d78c741f-be7e-495d-8618-490324e609c6 {}
[HTTP] <-- GET /wd/hub/session/d78c741f-be7e-495d-8618-490324e609c6 200 4 ms - 1179 
[HTTP] --> GET /wd/hub/session/d78c741f-be7e-495d-8618-490324e609c6 {}
[HTTP] <-- GET /wd/hub/session/d78c741f-be7e-495d-8618-490324e609c6 200 4 ms - 1179 
[HTTP] --> GET /wd/hub/session/d78c741f-be7e-495d-8618-490324e609c6 {}
[HTTP] <-- GET /wd/hub/session/d78c741f-be7e-495d-8618-490324e609c6 200 4 ms - 1179 
[HTTP] --> GET /wd/hub/session/d78c741f-be7e-495d-8618-490324e609c6 {}
[HTTP] <-- GET /wd/hub/session/d78c741f-be7e-495d-8618-490324e609c6 200 6 ms - 1179 
[HTTP] --> GET /wd/hub/session/d78c741f-be7e-495d-8618-490324e609c6 {}
[HTTP] <-- GET /wd/hub/session/d78c741f-be7e-495d-8618-490324e609c6 200 4 ms - 1179 
[HTTP] --> GET /wd/hub/session/d78c741f-be7e-495d-8618-490324e609c6 {}
[HTTP] <-- GET /wd/hub/session/d78c741f-be7e-495d-8618-490324e609c6 200 4 ms - 1179 
[HTTP] --> GET /wd/hub/session/d78c741f-be7e-495d-8618-490324e609c6 {}
[HTTP] <-- GET /wd/hub/session/d78c741f-be7e-495d-8618-490324e609c6 200 4 ms - 1179 
[HTTP] --> GET /wd/hub/session/d78c741f-be7e-495d-8618-490324e609c6 {}
[HTTP] <-- GET /wd/hub/session/d78c741f-be7e-495d-8618-490324e609c6 200 5 ms - 1179 
[HTTP] --> GET /wd/hub/session/d78c741f-be7e-495d-8618-490324e609c6 {}
[HTTP] <-- GET /wd/hub/session/d78c741f-be7e-495d-8618-490324e609c6 200 4 ms - 1179 
[HTTP] --> GET /wd/hub/session/d78c741f-be7e-495d-8618-490324e609c6 {}
[HTTP] <-- GET /wd/hub/session/d78c741f-be7e-495d-8618-490324e609c6 200 4 ms - 1179 
[HTTP] --> GET /wd/hub/session/d78c741f-be7e-495d-8618-490324e609c6 {}
[HTTP] <-- GET /wd/hub/session/d78c741f-be7e-495d-8618-490324e609c6 200 4 ms - 1179 
[HTTP] --> GET /wd/hub/session/d78c741f-be7e-495d-8618-490324e609c6 {}
[HTTP] <-- GET /wd/hub/session/d78c741f-be7e-495d-8618-490324e609c6 200 5 ms - 1179 
[HTTP] --> GET /wd/hub/session/d78c741f-be7e-495d-8618-490324e609c6 {}
[HTTP] <-- GET /wd/hub/session/d78c741f-be7e-495d-8618-490324e609c6 200 4 ms - 1179 
[HTTP] --> GET /wd/hub/session/d78c741f-be7e-495d-8618-490324e609c6 {}
[HTTP] <-- GET /wd/hub/session/d78c741f-be7e-495d-8618-490324e609c6 200 6 ms - 1179 
[HTTP] --> GET /wd/hub/session/d78c741f-be7e-495d-8618-490324e609c6 {}
[HTTP] <-- GET /wd/hub/session/d78c741f-be7e-495d-8618-490324e609c6 200 5 ms - 1179 
[HTTP] --> GET /wd/hub/session/d78c741f-be7e-495d-8618-490324e609c6 {}
[HTTP] <-- GET /wd/hub/session/d78c741f-be7e-495d-8618-490324e609c6 200 9 ms - 1179 
[HTTP] --> GET /wd/hub/session/d78c741f-be7e-495d-8618-490324e609c6 {}
[HTTP] <-- GET /wd/hub/session/d78c741f-be7e-495d-8618-490324e609c6 200 4 ms - 1179 
[HTTP] --> GET /wd/hub/session/d78c741f-be7e-495d-8618-490324e609c6 {}
[HTTP] <-- GET /wd/hub/session/d78c741f-be7e-495d-8618-490324e609c6 200 4 ms - 1179 
[HTTP] --> GET /wd/hub/session/d78c741f-be7e-495d-8618-490324e609c6 {}
[HTTP] <-- GET /wd/hub/session/d78c741f-be7e-495d-8618-490324e609c6 200 4 ms - 1179 
[HTTP] --> GET /wd/hub/session/d78c741f-be7e-495d-8618-490324e609c6 {}
[HTTP] <-- GET /wd/hub/session/d78c741f-be7e-495d-8618-490324e609c6 200 3 ms - 1179 
[HTTP] --> GET /wd/hub/session/d78c741f-be7e-495d-8618-490324e609c6 {}
[HTTP] <-- GET /wd/hub/session/d78c741f-be7e-495d-8618-490324e609c6 200 4 ms - 1179 
[HTTP] --> GET /wd/hub/session/d78c741f-be7e-495d-8618-490324e609c6 {}
[HTTP] <-- GET /wd/hub/session/d78c741f-be7e-495d-8618-490324e609c6 200 4 ms - 1179 
[HTTP] --> GET /wd/hub/session/d78c741f-be7e-495d-8618-490324e609c6 {}
[HTTP] <-- GET /wd/hub/session/d78c741f-be7e-495d-8618-490324e609c6 200 5 ms - 1179 
[HTTP] --> GET /wd/hub/session/d78c741f-be7e-495d-8618-490324e609c6 {}
[HTTP] <-- GET /wd/hub/session/d78c741f-be7e-495d-8618-490324e609c6 200 6 ms - 1179 
[HTTP] --> GET /wd/hub/session/d78c741f-be7e-495d-8618-490324e609c6 {}
[HTTP] <-- GET /wd/hub/session/d78c741f-be7e-495d-8618-490324e609c6 200 3 ms - 1179 
[HTTP] --> GET /wd/hub/session/d78c741f-be7e-495d-8618-490324e609c6 {}
[HTTP] <-- GET /wd/hub/session/d78c741f-be7e-495d-8618-490324e609c6 200 4 ms - 1179 
[HTTP] --> GET /wd/hub/session/d78c741f-be7e-495d-8618-490324e609c6 {}
[HTTP] <-- GET /wd/hub/session/d78c741f-be7e-495d-8618-490324e609c6 200 4 ms - 1179 
[HTTP] --> GET /wd/hub/session/d78c741f-be7e-495d-8618-490324e609c6 {}
[HTTP] <-- GET /wd/hub/session/d78c741f-be7e-495d-8618-490324e609c6 200 4 ms - 1179 
[HTTP] --> GET /wd/hub/session/d78c741f-be7e-495d-8618-490324e609c6 {}
[HTTP] <-- GET /wd/hub/session/d78c741f-be7e-495d-8618-490324e609c6 200 4 ms - 1179 
[HTTP] --> GET /wd/hub/session/d78c741f-be7e-495d-8618-490324e609c6 {}
[HTTP] <-- GET /wd/hub/session/d78c741f-be7e-495d-8618-490324e609c6 200 5 ms - 1179 
[HTTP] --> GET /wd/hub/session/d78c741f-be7e-495d-8618-490324e609c6 {}
[HTTP] <-- GET /wd/hub/session/d78c741f-be7e-495d-8618-490324e609c6 200 5 ms - 1179 
[HTTP] --> GET /wd/hub/session/d78c741f-be7e-495d-8618-490324e609c6 {}
[HTTP] <-- GET /wd/hub/session/d78c741f-be7e-495d-8618-490324e609c6 200 4 ms - 1179 
[HTTP] --> GET /wd/hub/session/d78c741f-be7e-495d-8618-490324e609c6 {}
[HTTP] <-- GET /wd/hub/session/d78c741f-be7e-495d-8618-490324e609c6 200 5 ms - 1179 
[HTTP] --> GET /wd/hub/session/d78c741f-be7e-495d-8618-490324e609c6 {}
[HTTP] <-- GET /wd/hub/session/d78c741f-be7e-495d-8618-490324e609c6 200 4 ms - 1179 
[HTTP] --> GET /wd/hub/session/d78c741f-be7e-495d-8618-490324e609c6 {}
[HTTP] <-- GET /wd/hub/session/d78c741f-be7e-495d-8618-490324e609c6 200 3 ms - 1179 
[HTTP] --> GET /wd/hub/session/d78c741f-be7e-495d-8618-490324e609c6 {}
[HTTP] <-- GET /wd/hub/session/d78c741f-be7e-495d-8618-490324e609c6 200 5 ms - 1179 
[HTTP] --> GET /wd/hub/session/d78c741f-be7e-495d-8618-490324e609c6 {}
[HTTP] <-- GET /wd/hub/session/d78c741f-be7e-495d-8618-490324e609c6 200 4 ms - 1179 
[HTTP] --> GET /wd/hub/session/d78c741f-be7e-495d-8618-490324e609c6 {}
[HTTP] <-- GET /wd/hub/session/d78c741f-be7e-495d-8618-490324e609c6 200 5 ms - 1179 
[HTTP] --> GET /wd/hub/session/d78c741f-be7e-495d-8618-490324e609c6 {}
[HTTP] <-- GET /wd/hub/session/d78c741f-be7e-495d-8618-490324e609c6 200 4 ms - 1179 
[HTTP] --> GET /wd/hub/session/d78c741f-be7e-495d-8618-490324e609c6 {}
[HTTP] <-- GET /wd/hub/session/d78c741f-be7e-495d-8618-490324e609c6 200 5 ms - 1179 
[HTTP] --> GET /wd/hub/session/d78c741f-be7e-495d-8618-490324e609c6 {}
[HTTP] <-- GET /wd/hub/session/d78c741f-be7e-495d-8618-490324e609c6 200 5 ms - 1179 
[HTTP] --> GET /wd/hub/session/d78c741f-be7e-495d-8618-490324e609c6 {}
[HTTP] <-- GET /wd/hub/session/d78c741f-be7e-495d-8618-490324e609c6 200 4 ms - 1179 
[HTTP] --> GET /wd/hub/session/d78c741f-be7e-495d-8618-490324e609c6 {}
[HTTP] <-- GET /wd/hub/session/d78c741f-be7e-495d-8618-490324e609c6 200 5 ms - 1179 
[HTTP] --> GET /wd/hub/session/d78c741f-be7e-495d-8618-490324e609c6 {}
[HTTP] <-- GET /wd/hub/session/d78c741f-be7e-495d-8618-490324e609c6 200 5 ms - 1179 
[HTTP] --> GET /wd/hub/session/d78c741f-be7e-495d-8618-490324e609c6 {}
[HTTP] <-- GET /wd/hub/session/d78c741f-be7e-495d-8618-490324e609c6 200 3 ms - 1179 
[HTTP] --> GET /wd/hub/session/d78c741f-be7e-495d-8618-490324e609c6 {}
[HTTP] <-- GET /wd/hub/session/d78c741f-be7e-495d-8618-490324e609c6 200 3 ms - 1179 
[HTTP] --> GET /wd/hub/session/d78c741f-be7e-495d-8618-490324e609c6 {}
[HTTP] <-- GET /wd/hub/session/d78c741f-be7e-495d-8618-490324e609c6 200 4 ms - 1179 
[HTTP] --> GET /wd/hub/session/d78c741f-be7e-495d-8618-490324e609c6 {}
[HTTP] <-- GET /wd/hub/session/d78c741f-be7e-495d-8618-490324e609c6 200 4 ms - 1179 
[HTTP] --> GET /wd/hub/session/d78c741f-be7e-495d-8618-490324e609c6 {}
[HTTP] <-- GET /wd/hub/session/d78c741f-be7e-495d-8618-490324e609c6 200 5 ms - 1179 
[HTTP] --> GET /wd/hub/session/d78c741f-be7e-495d-8618-490324e609c6 {}
[HTTP] <-- GET /wd/hub/session/d78c741f-be7e-495d-8618-490324e609c6 200 4 ms - 1179 
[HTTP] --> GET /wd/hub/session/d78c741f-be7e-495d-8618-490324e609c6 {}
[HTTP] <-- GET /wd/hub/session/d78c741f-be7e-495d-8618-490324e609c6 200 4 ms - 1179 
[HTTP] --> GET /wd/hub/session/d78c741f-be7e-495d-8618-490324e609c6 {}
[HTTP] <-- GET /wd/hub/session/d78c741f-be7e-495d-8618-490324e609c6 200 4 ms - 1179 
[HTTP] --> GET /wd/hub/session/d78c741f-be7e-495d-8618-490324e609c6 {}
[HTTP] <-- GET /wd/hub/session/d78c741f-be7e-495d-8618-490324e609c6 200 4 ms - 1179 
[HTTP] --> GET /wd/hub/session/d78c741f-be7e-495d-8618-490324e609c6 {}
[HTTP] <-- GET /wd/hub/session/d78c741f-be7e-495d-8618-490324e609c6 200 4 ms - 1179 
[HTTP] --> GET /wd/hub/session/d78c741f-be7e-495d-8618-490324e609c6 {}
[HTTP] <-- GET /wd/hub/session/d78c741f-be7e-495d-8618-490324e609c6 200 5 ms - 1179 
[HTTP] --> GET /wd/hub/session/d78c741f-be7e-495d-8618-490324e609c6 {}
[HTTP] <-- GET /wd/hub/session/d78c741f-be7e-495d-8618-490324e609c6 200 4 ms - 1179 
[HTTP] --> GET /wd/hub/session/d78c741f-be7e-495d-8618-490324e609c6 {}
[HTTP] <-- GET /wd/hub/session/d78c741f-be7e-495d-8618-490324e609c6 200 4 ms - 1179 
[HTTP] --> GET /wd/hub/session/d78c741f-be7e-495d-8618-490324e609c6 {}
[HTTP] <-- GET /wd/hub/session/d78c741f-be7e-495d-8618-490324e609c6 200 3 ms - 1179 
[HTTP] --> GET /wd/hub/session/d78c741f-be7e-495d-8618-490324e609c6 {}
[HTTP] <-- GET /wd/hub/session/d78c741f-be7e-495d-8618-490324e609c6 200 4 ms - 1179 
[HTTP] --> GET /wd/hub/session/d78c741f-be7e-495d-8618-490324e609c6 {}
[HTTP] <-- GET /wd/hub/session/d78c741f-be7e-495d-8618-490324e609c6 200 3 ms - 1179 
[HTTP] --> GET /wd/hub/session/d78c741f-be7e-495d-8618-490324e609c6 {}
[HTTP] <-- GET /wd/hub/session/d78c741f-be7e-495d-8618-490324e609c6 200 4 ms - 1179 
[HTTP] --> GET /wd/hub/session/d78c741f-be7e-495d-8618-490324e609c6 {}
[HTTP] <-- GET /wd/hub/session/d78c741f-be7e-495d-8618-490324e609c6 200 3 ms - 1179 
[HTTP] --> GET /wd/hub/session/d78c741f-be7e-495d-8618-490324e609c6 {}
[HTTP] <-- GET /wd/hub/session/d78c741f-be7e-495d-8618-490324e609c6 200 3 ms - 1179 
[HTTP] --> GET /wd/hub/session/d78c741f-be7e-495d-8618-490324e609c6 {}
[HTTP] <-- GET /wd/hub/session/d78c741f-be7e-495d-8618-490324e609c6 200 2 ms - 1179 
[HTTP] --> GET /wd/hub/session/d78c741f-be7e-495d-8618-490324e609c6 {}
[HTTP] <-- GET /wd/hub/session/d78c741f-be7e-495d-8618-490324e609c6 200 4 ms - 1179 
[HTTP] --> GET /wd/hub/session/d78c741f-be7e-495d-8618-490324e609c6 {}
[HTTP] <-- GET /wd/hub/session/d78c741f-be7e-495d-8618-490324e609c6 200 2 ms - 1179 
[HTTP] --> GET /wd/hub/session/d78c741f-be7e-495d-8618-490324e609c6 {}
[HTTP] <-- GET /wd/hub/session/d78c741f-be7e-495d-8618-490324e609c6 200 5 ms - 1179 
[HTTP] --> GET /wd/hub/session/d78c741f-be7e-495d-8618-490324e609c6 {}
[HTTP] <-- GET /wd/hub/session/d78c741f-be7e-495d-8618-490324e609c6 200 3 ms - 1179 
[HTTP] --> GET /wd/hub/session/d78c741f-be7e-495d-8618-490324e609c6 {}
[HTTP] <-- GET /wd/hub/session/d78c741f-be7e-495d-8618-490324e609c6 200 5 ms - 1179 
[HTTP] --> GET /wd/hub/session/d78c741f-be7e-495d-8618-490324e609c6 {}
[HTTP] <-- GET /wd/hub/session/d78c741f-be7e-495d-8618-490324e609c6 200 2 ms - 1179 
[HTTP] --> GET /wd/hub/session/d78c741f-be7e-495d-8618-490324e609c6 {}
[HTTP] <-- GET /wd/hub/session/d78c741f-be7e-495d-8618-490324e609c6 200 6 ms - 1179 
[HTTP] --> GET /wd/hub/session/d78c741f-be7e-495d-8618-490324e609c6 {}
[HTTP] <-- GET /wd/hub/session/d78c741f-be7e-495d-8618-490324e609c6 200 3 ms - 1179 
[HTTP] --> GET /wd/hub/session/d78c741f-be7e-495d-8618-490324e609c6 {}
[HTTP] <-- GET /wd/hub/session/d78c741f-be7e-495d-8618-490324e609c6 200 4 ms - 1179 
[HTTP] --> GET /wd/hub/session/d78c741f-be7e-495d-8618-490324e609c6 {}
[HTTP] <-- GET /wd/hub/session/d78c741f-be7e-495d-8618-490324e609c6 200 4 ms - 1179 
[HTTP] --> GET /wd/hub/session/d78c741f-be7e-495d-8618-490324e609c6 {}
[HTTP] <-- GET /wd/hub/session/d78c741f-be7e-495d-8618-490324e609c6 200 3 ms - 1179 
[HTTP] --> GET /wd/hub/session/d78c741f-be7e-495d-8618-490324e609c6 {}
[HTTP] <-- GET /wd/hub/session/d78c741f-be7e-495d-8618-490324e609c6 200 3 ms - 1179 
[HTTP] --> GET /wd/hub/session/d78c741f-be7e-495d-8618-490324e609c6 {}
[HTTP] <-- GET /wd/hub/session/d78c741f-be7e-495d-8618-490324e609c6 200 3 ms - 1179 
[HTTP] --> GET /wd/hub/session/d78c741f-be7e-495d-8618-490324e609c6 {}
[HTTP] <-- GET /wd/hub/session/d78c741f-be7e-495d-8618-490324e609c6 200 3 ms - 1179 
[HTTP] --> GET /wd/hub/session/d78c741f-be7e-495d-8618-490324e609c6 {}
[HTTP] <-- GET /wd/hub/session/d78c741f-be7e-495d-8618-490324e609c6 200 7 ms - 1179 
[HTTP] --> GET /wd/hub/session/d78c741f-be7e-495d-8618-490324e609c6 {}
[HTTP] <-- GET /wd/hub/session/d78c741f-be7e-495d-8618-490324e609c6 200 2 ms - 1179 
[HTTP] --> GET /wd/hub/session/d78c741f-be7e-495d-8618-490324e609c6 {}
[HTTP] <-- GET /wd/hub/session/d78c741f-be7e-495d-8618-490324e609c6 200 4 ms - 1179 
[HTTP] --> GET /wd/hub/session/d78c741f-be7e-495d-8618-490324e609c6/element/14/location {}
[HTTP] <-- GET /wd/hub/session/d78c741f-be7e-495d-8618-490324e609c6/element/14/location 200 38 ms - 87 
[HTTP] --> POST /wd/hub/session/d78c741f-be7e-495d-8618-490324e609c6/touch/perform {"actions":[{"action":"tap","options":{"element":"14","x":1,"y":1}}]}
[HTTP] <-- POST /wd/hub/session/d78c741f-be7e-495d-8618-490324e609c6/touch/perform 200 3234 ms - 76 
[HTTP] --> GET /wd/hub/session/d78c741f-be7e-495d-8618-490324e609c6/window/current/size {}
[HTTP] <-- GET /wd/hub/session/d78c741f-be7e-495d-8618-490324e609c6/window/current/size 200 7 ms - 100 
[HTTP] --> POST /wd/hub/session/d78c741f-be7e-495d-8618-490324e609c6/elements {"using":"-android uiautomator","value":"new UiSelector().className(\"android.widget.ImageButton\").instance(0)"}
[HTTP] <-- POST /wd/hub/session/d78c741f-be7e-495d-8618-490324e609c6/elements 200 75 ms - 90 
[HTTP] --> GET /wd/hub/session/d78c741f-be7e-495d-8618-490324e609c6 {}
[HTTP] <-- GET /wd/hub/session/d78c741f-be7e-495d-8618-490324e609c6 200 2 ms - 1179 
[HTTP] --> GET /wd/hub/session/d78c741f-be7e-495d-8618-490324e609c6 {}
[HTTP] <-- GET /wd/hub/session/d78c741f-be7e-495d-8618-490324e609c6 200 3 ms - 1179 
[HTTP] --> GET /wd/hub/session/d78c741f-be7e-495d-8618-490324e609c6 {}
[HTTP] <-- GET /wd/hub/session/d78c741f-be7e-495d-8618-490324e609c6 200 3 ms - 1179 
[HTTP] --> GET /wd/hub/session/d78c741f-be7e-495d-8618-490324e609c6 {}
[HTTP] <-- GET /wd/hub/session/d78c741f-be7e-495d-8618-490324e609c6 200 3 ms - 1179 
[HTTP] --> GET /wd/hub/session/d78c741f-be7e-495d-8618-490324e609c6/element/49/location {}
[HTTP] <-- GET /wd/hub/session/d78c741f-be7e-495d-8618-490324e609c6/element/49/location 200 38 ms - 86 
[HTTP] --> POST /wd/hub/session/d78c741f-be7e-495d-8618-490324e609c6/touch/perform {"actions":[{"action":"tap","options":{"element":"49","x":1,"y":1}}]}
[HTTP] <-- POST /wd/hub/session/d78c741f-be7e-495d-8618-490324e609c6/touch/perform 200 439 ms - 76 
[HTTP] --> GET /wd/hub/session/d78c741f-be7e-495d-8618-490324e609c6/window/current/size {}
[HTTP] <-- GET /wd/hub/session/d78c741f-be7e-495d-8618-490324e609c6/window/current/size 200 11 ms - 100 
[HTTP] --> POST /wd/hub/session/d78c741f-be7e-495d-8618-490324e609c6/elements {"using":"xpath","value":"//hierarchy/android.widget.FrameLayout[1]/android.widget.LinearLayout[1]/android.widget.FrameLayout[1]/android.widget.FrameLayout[1]/android.widget.FrameLayout[1]/android.support.v4.widget.DrawerLayout[1]/android.view.View[1]/android.widget.LinearLayout[1]/android.widget.FrameLayout[1]/android.view.View[1]/android.widget.ImageButton[1]"}
[HTTP] <-- POST /wd/hub/session/d78c741f-be7e-495d-8618-490324e609c6/elements 200 195 ms - 90 
[HTTP] --> GET /wd/hub/session/d78c741f-be7e-495d-8618-490324e609c6 {}
[HTTP] <-- GET /wd/hub/session/d78c741f-be7e-495d-8618-490324e609c6 200 2 ms - 1179 
[HTTP] --> GET /wd/hub/session/d78c741f-be7e-495d-8618-490324e609c6 {}
[HTTP] <-- GET /wd/hub/session/d78c741f-be7e-495d-8618-490324e609c6 200 2 ms - 1179 
[HTTP] --> GET /wd/hub/session/d78c741f-be7e-495d-8618-490324e609c6 {}
[HTTP] <-- GET /wd/hub/session/d78c741f-be7e-495d-8618-490324e609c6 200 3 ms - 1179 
[HTTP] --> GET /wd/hub/session/d78c741f-be7e-495d-8618-490324e609c6 {}
[HTTP] <-- GET /wd/hub/session/d78c741f-be7e-495d-8618-490324e609c6 200 5 ms - 1179 
[HTTP] --> GET /wd/hub/session/d78c741f-be7e-495d-8618-490324e609c6/element/50/location {}
[HTTP] <-- GET /wd/hub/session/d78c741f-be7e-495d-8618-490324e609c6/element/50/location 200 17 ms - 86 
[HTTP] --> POST /wd/hub/session/d78c741f-be7e-495d-8618-490324e609c6/touch/perform {"actions":[{"action":"tap","options":{"element":"50","x":1,"y":1}}]}
[HTTP] <-- POST /wd/hub/session/d78c741f-be7e-495d-8618-490324e609c6/touch/perform 200 187 ms - 76 
[HTTP] --> GET /wd/hub/session/d78c741f-be7e-495d-8618-490324e609c6/window/current/size {}
[HTTP] <-- GET /wd/hub/session/d78c741f-be7e-495d-8618-490324e609c6/window/current/size 200 11 ms - 100 
[HTTP] --> POST /wd/hub/session/d78c741f-be7e-495d-8618-490324e609c6/elements {"using":"-android uiautomator","value":"new UiSelector().className(\"android.widget.LinearLayout\").instance(6)"}
[HTTP] <-- POST /wd/hub/session/d78c741f-be7e-495d-8618-490324e609c6/elements 200 1001 ms - 90 
[HTTP] --> GET /wd/hub/session/d78c741f-be7e-495d-8618-490324e609c6 {}
[HTTP] <-- GET /wd/hub/session/d78c741f-be7e-495d-8618-490324e609c6 200 2 ms - 1179 
[HTTP] --> GET /wd/hub/session/d78c741f-be7e-495d-8618-490324e609c6 {}
[HTTP] <-- GET /wd/hub/session/d78c741f-be7e-495d-8618-490324e609c6 200 2 ms - 1179 
[HTTP] --> GET /wd/hub/session/d78c741f-be7e-495d-8618-490324e609c6 {}
[HTTP] <-- GET /wd/hub/session/d78c741f-be7e-495d-8618-490324e609c6 200 2 ms - 1179 
[HTTP] --> GET /wd/hub/session/d78c741f-be7e-495d-8618-490324e609c6 {}
[HTTP] <-- GET /wd/hub/session/d78c741f-be7e-495d-8618-490324e609c6 200 4 ms - 1179 
[HTTP] --> GET /wd/hub/session/d78c741f-be7e-495d-8618-490324e609c6/element/51/location {}
[HTTP] <-- GET /wd/hub/session/d78c741f-be7e-495d-8618-490324e609c6/element/51/location 200 17 ms - 88 
[HTTP] --> POST /wd/hub/session/d78c741f-be7e-495d-8618-490324e609c6/touch/perform {"actions":[{"action":"tap","options":{"element":"51","x":1,"y":1}}]}
[HTTP] <-- POST /wd/hub/session/d78c741f-be7e-495d-8618-490324e609c6/touch/perform 200 146 ms - 76 
[HTTP] --> GET /wd/hub/session/d78c741f-be7e-495d-8618-490324e609c6/window/current/size {}
[HTTP] <-- GET /wd/hub/session/d78c741f-be7e-495d-8618-490324e609c6/window/current/size 200 9 ms - 100 
[HTTP] --> POST /wd/hub/session/d78c741f-be7e-495d-8618-490324e609c6/elements {"using":"-android uiautomator","value":"new UiSelector().className(\"android.widget.TextView\").text(\"~\").resourceId(\"com.next.nlp:id/expand_image\").instance(6)"}
[HTTP] <-- POST /wd/hub/session/d78c741f-be7e-495d-8618-490324e609c6/elements 200 3300 ms - 90 
[HTTP] --> GET /wd/hub/session/d78c741f-be7e-495d-8618-490324e609c6 {}
[HTTP] <-- GET /wd/hub/session/d78c741f-be7e-495d-8618-490324e609c6 200 2 ms - 1179 
[HTTP] --> GET /wd/hub/session/d78c741f-be7e-495d-8618-490324e609c6 {}
[HTTP] <-- GET /wd/hub/session/d78c741f-be7e-495d-8618-490324e609c6 200 1 ms - 1179 
[HTTP] --> GET /wd/hub/session/d78c741f-be7e-495d-8618-490324e609c6 {}
[HTTP] <-- GET /wd/hub/session/d78c741f-be7e-495d-8618-490324e609c6 200 1 ms - 1179 
[HTTP] --> GET /wd/hub/session/d78c741f-be7e-495d-8618-490324e609c6 {}
[HTTP] <-- GET /wd/hub/session/d78c741f-be7e-495d-8618-490324e609c6 200 1 ms - 1179 
[HTTP] --> GET /wd/hub/session/d78c741f-be7e-495d-8618-490324e609c6/element/52/location {}
[HTTP] <-- GET /wd/hub/session/d78c741f-be7e-495d-8618-490324e609c6/element/52/location 200 31 ms - 89 
[HTTP] --> POST /wd/hub/session/d78c741f-be7e-495d-8618-490324e609c6/touch/perform {"actions":[{"action":"tap","options":{"element":"52","x":1,"y":1}}]}
[HTTP] <-- POST /wd/hub/session/d78c741f-be7e-495d-8618-490324e609c6/touch/perform 200 272 ms - 76 
[HTTP] --> GET /wd/hub/session/d78c741f-be7e-495d-8618-490324e609c6/window/current/size {}
[HTTP] <-- GET /wd/hub/session/d78c741f-be7e-495d-8618-490324e609c6/window/current/size 200 6 ms - 100 
[HTTP] --> POST /wd/hub/session/d78c741f-be7e-495d-8618-490324e609c6/elements {"using":"-android uiautomator","value":"new UiSelector().className(\"android.support.v7.app.ActionBar$Tab\").instance(1)"}
[HTTP] <-- POST /wd/hub/session/d78c741f-be7e-495d-8618-490324e609c6/elements 200 501 ms - 90 
[HTTP] --> GET /wd/hub/session/d78c741f-be7e-495d-8618-490324e609c6 {}
[HTTP] <-- GET /wd/hub/session/d78c741f-be7e-495d-8618-490324e609c6 200 1 ms - 1179 
[HTTP] --> GET /wd/hub/session/d78c741f-be7e-495d-8618-490324e609c6 {}
[HTTP] <-- GET /wd/hub/session/d78c741f-be7e-495d-8618-490324e609c6 200 1 ms - 1179 
[HTTP] --> GET /wd/hub/session/d78c741f-be7e-495d-8618-490324e609c6 {}
[HTTP] <-- GET /wd/hub/session/d78c741f-be7e-495d-8618-490324e609c6 200 2 ms - 1179 
[HTTP] --> GET /wd/hub/session/d78c741f-be7e-495d-8618-490324e609c6 {}
[HTTP] <-- GET /wd/hub/session/d78c741f-be7e-495d-8618-490324e609c6 200 1 ms - 1179 
[HTTP] --> GET /wd/hub/session/d78c741f-be7e-495d-8618-490324e609c6/element/53/location {}
[HTTP] <-- GET /wd/hub/session/d78c741f-be7e-495d-8618-490324e609c6/element/53/location 200 37 ms - 89 
[HTTP] --> POST /wd/hub/session/d78c741f-be7e-495d-8618-490324e609c6/touch/perform {"actions":[{"action":"tap","options":{"element":"53","x":1,"y":1}}]}
[HTTP] <-- POST /wd/hub/session/d78c741f-be7e-495d-8618-490324e609c6/touch/perform 200 354 ms - 76 
[HTTP] --> GET /wd/hub/session/d78c741f-be7e-495d-8618-490324e609c6/window/current/size {}
[HTTP] <-- GET /wd/hub/session/d78c741f-be7e-495d-8618-490324e609c6/window/current/size 200 10 ms - 100 
[HTTP] --> POST /wd/hub/session/d78c741f-be7e-495d-8618-490324e609c6/elements {"using":"-android uiautomator","value":"new UiSelector().className(\"android.widget.TextView\").text(\"~\").resourceId(\"com.next.nlp:id/expand_image\").instance(6)"}
[HTTP] <-- POST /wd/hub/session/d78c741f-be7e-495d-8618-490324e609c6/elements 200 952 ms - 90 
[HTTP] --> GET /wd/hub/session/d78c741f-be7e-495d-8618-490324e609c6 {}
[HTTP] <-- GET /wd/hub/session/d78c741f-be7e-495d-8618-490324e609c6 200 1 ms - 1179 
[HTTP] --> GET /wd/hub/session/d78c741f-be7e-495d-8618-490324e609c6 {}
[HTTP] <-- GET /wd/hub/session/d78c741f-be7e-495d-8618-490324e609c6 200 3 ms - 1179 
[HTTP] --> GET /wd/hub/session/d78c741f-be7e-495d-8618-490324e609c6 {}
[HTTP] <-- GET /wd/hub/session/d78c741f-be7e-495d-8618-490324e609c6 200 4 ms - 1179 
[HTTP] --> GET /wd/hub/session/d78c741f-be7e-495d-8618-490324e609c6 {}
[HTTP] <-- GET /wd/hub/session/d78c741f-be7e-495d-8618-490324e609c6 200 5 ms - 1179 
[HTTP] --> GET /wd/hub/session/d78c741f-be7e-495d-8618-490324e609c6/element/54/location {}
[HTTP] <-- GET /wd/hub/session/d78c741f-be7e-495d-8618-490324e609c6/element/54/location 200 56 ms - 89 
[HTTP] --> POST /wd/hub/session/d78c741f-be7e-495d-8618-490324e609c6/touch/perform {"actions":[{"action":"tap","options":{"element":"54","x":1,"y":1}}]}
[HTTP] <-- POST /wd/hub/session/d78c741f-be7e-495d-8618-490324e609c6/touch/perform 200 244 ms - 76 
[HTTP] --> GET /wd/hub/session/d78c741f-be7e-495d-8618-490324e609c6/window/current/size {}
[HTTP] <-- GET /wd/hub/session/d78c741f-be7e-495d-8618-490324e609c6/window/current/size 200 13 ms - 100 
[HTTP] --> POST /wd/hub/session/d78c741f-be7e-495d-8618-490324e609c6/elements {"using":"-android uiautomator","value":"new UiSelector().className(\"android.support.v7.app.ActionBar$Tab\").instance(2)"}
[HTTP] <-- POST /wd/hub/session/d78c741f-be7e-495d-8618-490324e609c6/elements 200 473 ms - 90 
[HTTP] --> GET /wd/hub/session/d78c741f-be7e-495d-8618-490324e609c6 {}
[HTTP] <-- GET /wd/hub/session/d78c741f-be7e-495d-8618-490324e609c6 200 2 ms - 1179 
[HTTP] --> GET /wd/hub/session/d78c741f-be7e-495d-8618-490324e609c6 {}
[HTTP] <-- GET /wd/hub/session/d78c741f-be7e-495d-8618-490324e609c6 200 1 ms - 1179 
[HTTP] --> GET /wd/hub/session/d78c741f-be7e-495d-8618-490324e609c6 {}
[HTTP] <-- GET /wd/hub/session/d78c741f-be7e-495d-8618-490324e609c6 200 1 ms - 1179 
[HTTP] --> GET /wd/hub/session/d78c741f-be7e-495d-8618-490324e609c6 {}
[HTTP] <-- GET /wd/hub/session/d78c741f-be7e-495d-8618-490324e609c6 200 1 ms - 1179 
[HTTP] --> GET /wd/hub/session/d78c741f-be7e-495d-8618-490324e609c6/element/55/location {}
[HTTP] <-- GET /wd/hub/session/d78c741f-be7e-495d-8618-490324e609c6/element/55/location 200 58 ms - 89 
[HTTP] --> POST /wd/hub/session/d78c741f-be7e-495d-8618-490324e609c6/touch/perform {"actions":[{"action":"tap","options":{"element":"55","x":1,"y":1}}]}
[HTTP] <-- POST /wd/hub/session/d78c741f-be7e-495d-8618-490324e609c6/touch/perform 200 327 ms - 76 
[HTTP] --> GET /wd/hub/session/d78c741f-be7e-495d-8618-490324e609c6/window/current/size {}
[HTTP] <-- GET /wd/hub/session/d78c741f-be7e-495d-8618-490324e609c6/window/current/size 200 17 ms - 100 
[HTTP] --> POST /wd/hub/session/d78c741f-be7e-495d-8618-490324e609c6/elements {"using":"-android uiautomator","value":"new UiSelector().className(\"android.widget.TextView\").text(\"~\").resourceId(\"com.next.nlp:id/expand_image\").instance(6)"}
[HTTP] <-- POST /wd/hub/session/d78c741f-be7e-495d-8618-490324e609c6/elements 200 1227 ms - 107 
[HTTP] --> GET /wd/hub/session/d78c741f-be7e-495d-8618-490324e609c6 {}
[HTTP] <-- GET /wd/hub/session/d78c741f-be7e-495d-8618-490324e609c6 200 1 ms - 1179 
[HTTP] --> GET /wd/hub/session/d78c741f-be7e-495d-8618-490324e609c6 {}
[HTTP] <-- GET /wd/hub/session/d78c741f-be7e-495d-8618-490324e609c6 200 1 ms - 1179 
[HTTP] --> GET /wd/hub/session/d78c741f-be7e-495d-8618-490324e609c6 {}
[HTTP] <-- GET /wd/hub/session/d78c741f-be7e-495d-8618-490324e609c6 200 1 ms - 1179 
[HTTP] --> GET /wd/hub/session/d78c741f-be7e-495d-8618-490324e609c6 {}
[HTTP] <-- GET /wd/hub/session/d78c741f-be7e-495d-8618-490324e609c6 200 2 ms - 1179 
[HTTP] --> GET /wd/hub/session/d78c741f-be7e-495d-8618-490324e609c6 {}
[HTTP] <-- GET /wd/hub/session/d78c741f-be7e-495d-8618-490324e609c6 200 2 ms - 1179 
[HTTP] --> GET /wd/hub/session/d78c741f-be7e-495d-8618-490324e609c6 {}
[HTTP] <-- GET /wd/hub/session/d78c741f-be7e-495d-8618-490324e609c6 200 2 ms - 1179 
[HTTP] --> GET /wd/hub/session/d78c741f-be7e-495d-8618-490324e609c6 {}
[HTTP] <-- GET /wd/hub/session/d78c741f-be7e-495d-8618-490324e609c6 200 1 ms - 1179 
[HTTP] --> GET /wd/hub/session/d78c741f-be7e-495d-8618-490324e609c6 {}
[HTTP] <-- GET /wd/hub/session/d78c741f-be7e-495d-8618-490324e609c6 200 1 ms - 1179 
[HTTP] --> GET /wd/hub/session/d78c741f-be7e-495d-8618-490324e609c6/element/56/location {}
[HTTP] <-- GET /wd/hub/session/d78c741f-be7e-495d-8618-490324e609c6/element/56/location 200 43 ms - 89 
[HTTP] --> POST /wd/hub/session/d78c741f-be7e-495d-8618-490324e609c6/touch/perform {"actions":[{"action":"tap","options":{"element":"56","x":1,"y":1}}]}
[HTTP] <-- POST /wd/hub/session/d78c741f-be7e-495d-8618-490324e609c6/touch/perform 200 210 ms - 76 
[HTTP] --> GET /wd/hub/session/d78c741f-be7e-495d-8618-490324e609c6/window/current/size {}
[HTTP] <-- GET /wd/hub/session/d78c741f-be7e-495d-8618-490324e609c6/window/current/size 200 6 ms - 100 
[HTTP] --> POST /wd/hub/session/d78c741f-be7e-495d-8618-490324e609c6/elements {"using":"-android uiautomator","value":"new UiSelector().className(\"android.widget.ImageButton\").instance(0)"}
[HTTP] <-- POST /wd/hub/session/d78c741f-be7e-495d-8618-490324e609c6/elements 200 1037 ms - 90 
[HTTP] --> GET /wd/hub/session/d78c741f-be7e-495d-8618-490324e609c6 {}
[HTTP] <-- GET /wd/hub/session/d78c741f-be7e-495d-8618-490324e609c6 200 3 ms - 1179 
[HTTP] --> GET /wd/hub/session/d78c741f-be7e-495d-8618-490324e609c6 {}
[HTTP] <-- GET /wd/hub/session/d78c741f-be7e-495d-8618-490324e609c6 200 2 ms - 1179 
[HTTP] --> GET /wd/hub/session/d78c741f-be7e-495d-8618-490324e609c6 {}
[HTTP] <-- GET /wd/hub/session/d78c741f-be7e-495d-8618-490324e609c6 200 1 ms - 1179 
[HTTP] --> GET /wd/hub/session/d78c741f-be7e-495d-8618-490324e609c6 {}
[HTTP] <-- GET /wd/hub/session/d78c741f-be7e-495d-8618-490324e609c6 200 1 ms - 1179 
[HTTP] --> GET /wd/hub/session/d78c741f-be7e-495d-8618-490324e609c6/element/58/location {}
[HTTP] <-- GET /wd/hub/session/d78c741f-be7e-495d-8618-490324e609c6/element/58/location 200 39 ms - 86 
[HTTP] --> POST /wd/hub/session/d78c741f-be7e-495d-8618-490324e609c6/touch/perform {"actions":[{"action":"tap","options":{"element":"58","x":1,"y":1}}]}
[HTTP] <-- POST /wd/hub/session/d78c741f-be7e-495d-8618-490324e609c6/touch/perform 200 263 ms - 76 
[HTTP] --> GET /wd/hub/session/d78c741f-be7e-495d-8618-490324e609c6/window/current/size {}
[HTTP] <-- GET /wd/hub/session/d78c741f-be7e-495d-8618-490324e609c6/window/current/size 200 9 ms - 100 
[HTTP] --> POST /wd/hub/session/d78c741f-be7e-495d-8618-490324e609c6/elements {"using":"xpath","value":"//hierarchy/android.widget.FrameLayout[1]/android.widget.LinearLayout[1]/android.widget.FrameLayout[1]/android.widget.FrameLayout[1]/android.widget.FrameLayout[1]/android.support.v4.widget.DrawerLayout[1]/android.view.View[1]/android.widget.LinearLayout[1]/android.widget.FrameLayout[1]/android.view.View[1]/android.widget.ImageButton[1]"}
[HTTP] <-- POST /wd/hub/session/d78c741f-be7e-495d-8618-490324e609c6/elements 200 554 ms - 90 
[HTTP] --> GET /wd/hub/session/d78c741f-be7e-495d-8618-490324e609c6 {}
[HTTP] <-- GET /wd/hub/session/d78c741f-be7e-495d-8618-490324e609c6 200 1 ms - 1179 
[HTTP] --> GET /wd/hub/session/d78c741f-be7e-495d-8618-490324e609c6 {}
[HTTP] <-- GET /wd/hub/session/d78c741f-be7e-495d-8618-490324e609c6 200 2 ms - 1179 
[HTTP] --> GET /wd/hub/session/d78c741f-be7e-495d-8618-490324e609c6 {}
[HTTP] <-- GET /wd/hub/session/d78c741f-be7e-495d-8618-490324e609c6 200 1 ms - 1179 
[HTTP] --> GET /wd/hub/session/d78c741f-be7e-495d-8618-490324e609c6 {}
[HTTP] <-- GET /wd/hub/session/d78c741f-be7e-495d-8618-490324e609c6 200 2 ms - 1179 
[HTTP] --> GET /wd/hub/session/d78c741f-be7e-495d-8618-490324e609c6/element/59/location {}
[HTTP] <-- GET /wd/hub/session/d78c741f-be7e-495d-8618-490324e609c6/element/59/location 200 61 ms - 86 
[HTTP] --> POST /wd/hub/session/d78c741f-be7e-495d-8618-490324e609c6/touch/perform {"actions":[{"action":"tap","options":{"element":"59","x":1,"y":1}}]}
[HTTP] <-- POST /wd/hub/session/d78c741f-be7e-495d-8618-490324e609c6/touch/perform 200 209 ms - 76 
[HTTP] --> GET /wd/hub/session/d78c741f-be7e-495d-8618-490324e609c6/window/current/size {}
[HTTP] <-- GET /wd/hub/session/d78c741f-be7e-495d-8618-490324e609c6/window/current/size 200 7 ms - 100 
[HTTP] --> POST /wd/hub/session/d78c741f-be7e-495d-8618-490324e609c6/elements {"using":"-android uiautomator","value":"new UiSelector().className(\"android.widget.LinearLayout\").instance(8)"}
[HTTP] <-- POST /wd/hub/session/d78c741f-be7e-495d-8618-490324e609c6/elements 200 1150 ms - 90 
[HTTP] --> GET /wd/hub/session/d78c741f-be7e-495d-8618-490324e609c6 {}
[HTTP] <-- GET /wd/hub/session/d78c741f-be7e-495d-8618-490324e609c6 200 3 ms - 1179 
[HTTP] --> GET /wd/hub/session/d78c741f-be7e-495d-8618-490324e609c6 {}
[HTTP] <-- GET /wd/hub/session/d78c741f-be7e-495d-8618-490324e609c6 200 3 ms - 1179 
[HTTP] --> GET /wd/hub/session/d78c741f-be7e-495d-8618-490324e609c6 {}
[HTTP] <-- GET /wd/hub/session/d78c741f-be7e-495d-8618-490324e609c6 200 3 ms - 1179 
[HTTP] --> GET /wd/hub/session/d78c741f-be7e-495d-8618-490324e609c6 {}
[HTTP] <-- GET /wd/hub/session/d78c741f-be7e-495d-8618-490324e609c6 200 3 ms - 1179 
[HTTP] --> GET /wd/hub/session/d78c741f-be7e-495d-8618-490324e609c6/element/60/location {}
[HTTP] <-- GET /wd/hub/session/d78c741f-be7e-495d-8618-490324e609c6/element/60/location 200 51 ms - 89 
[HTTP] --> POST /wd/hub/session/d78c741f-be7e-495d-8618-490324e609c6/touch/perform {"actions":[{"action":"tap","options":{"element":"60","x":1,"y":1}}]}
[HTTP] <-- POST /wd/hub/session/d78c741f-be7e-495d-8618-490324e609c6/touch/perform 200 209 ms - 76 
[HTTP] --> GET /wd/hub/session/d78c741f-be7e-495d-8618-490324e609c6/window/current/size {}
[HTTP] <-- GET /wd/hub/session/d78c741f-be7e-495d-8618-490324e609c6/window/current/size 200 13 ms - 100 
[HTTP] --> POST /wd/hub/session/d78c741f-be7e-495d-8618-490324e609c6/elements {"using":"-android uiautomator","value":"new UiSelector().className(\"android.widget.LinearLayout\").instance(3)"}
[HTTP] <-- POST /wd/hub/session/d78c741f-be7e-495d-8618-490324e609c6/elements 200 158 ms - 90 
[HTTP] --> GET /wd/hub/session/d78c741f-be7e-495d-8618-490324e609c6 {}
[HTTP] <-- GET /wd/hub/session/d78c741f-be7e-495d-8618-490324e609c6 200 4 ms - 1179 
[HTTP] --> GET /wd/hub/session/d78c741f-be7e-495d-8618-490324e609c6 {}
[HTTP] <-- GET /wd/hub/session/d78c741f-be7e-495d-8618-490324e609c6 200 6 ms - 1179 
[HTTP] --> GET /wd/hub/session/d78c741f-be7e-495d-8618-490324e609c6 {}
[HTTP] <-- GET /wd/hub/session/d78c741f-be7e-495d-8618-490324e609c6 200 3 ms - 1179 
[HTTP] --> GET /wd/hub/session/d78c741f-be7e-495d-8618-490324e609c6 {}
[HTTP] <-- GET /wd/hub/session/d78c741f-be7e-495d-8618-490324e609c6 200 4 ms - 1179 
[HTTP] --> GET /wd/hub/session/d78c741f-be7e-495d-8618-490324e609c6/element/61/location {}
[HTTP] <-- GET /wd/hub/session/d78c741f-be7e-495d-8618-490324e609c6/element/61/location 200 39 ms - 88 
[HTTP] --> POST /wd/hub/session/d78c741f-be7e-495d-8618-490324e609c6/touch/perform {"actions":[{"action":"tap","options":{"element":"61","x":1,"y":1}}]}
[HTTP] <-- POST /wd/hub/session/d78c741f-be7e-495d-8618-490324e609c6/touch/perform 200 176 ms - 76 
[HTTP] --> GET /wd/hub/session/d78c741f-be7e-495d-8618-490324e609c6/window/current/size {}
[HTTP] <-- GET /wd/hub/session/d78c741f-be7e-495d-8618-490324e609c6/window/current/size 200 11 ms - 100 
[HTTP] --> POST /wd/hub/session/d78c741f-be7e-495d-8618-490324e609c6/elements {"using":"-android uiautomator","value":"new UiSelector().className(\"android.widget.ImageView\").resourceId(\"com.next.nlp:id/arrow_image\").instance(0)"}
[HTTP] <-- POST /wd/hub/session/d78c741f-be7e-495d-8618-490324e609c6/elements 200 3274 ms - 107 
[HTTP] --> GET /wd/hub/session/d78c741f-be7e-495d-8618-490324e609c6 {}
[HTTP] <-- GET /wd/hub/session/d78c741f-be7e-495d-8618-490324e609c6 200 4 ms - 1179 
[HTTP] --> GET /wd/hub/session/d78c741f-be7e-495d-8618-490324e609c6 {}
[HTTP] <-- GET /wd/hub/session/d78c741f-be7e-495d-8618-490324e609c6 200 4 ms - 1179 
[HTTP] --> GET /wd/hub/session/d78c741f-be7e-495d-8618-490324e609c6 {}
[HTTP] <-- GET /wd/hub/session/d78c741f-be7e-495d-8618-490324e609c6 200 3 ms - 1179 
[HTTP] --> GET /wd/hub/session/d78c741f-be7e-495d-8618-490324e609c6 {}
[HTTP] <-- GET /wd/hub/session/d78c741f-be7e-495d-8618-490324e609c6 200 3 ms - 1179 
[HTTP] --> GET /wd/hub/session/d78c741f-be7e-495d-8618-490324e609c6 {}
[HTTP] <-- GET /wd/hub/session/d78c741f-be7e-495d-8618-490324e609c6 200 6 ms - 1179 
[HTTP] --> GET /wd/hub/session/d78c741f-be7e-495d-8618-490324e609c6 {}
[HTTP] <-- GET /wd/hub/session/d78c741f-be7e-495d-8618-490324e609c6 200 2 ms - 1179 
[HTTP] --> GET /wd/hub/session/d78c741f-be7e-495d-8618-490324e609c6 {}
[HTTP] <-- GET /wd/hub/session/d78c741f-be7e-495d-8618-490324e609c6 200 4 ms - 1179 
[HTTP] --> GET /wd/hub/session/d78c741f-be7e-495d-8618-490324e609c6 {}
[HTTP] <-- GET /wd/hub/session/d78c741f-be7e-495d-8618-490324e609c6 200 3 ms - 1179 
[HTTP] --> GET /wd/hub/session/d78c741f-be7e-495d-8618-490324e609c6/element/62/location {}
[HTTP] <-- GET /wd/hub/session/d78c741f-be7e-495d-8618-490324e609c6/element/62/location 200 22 ms - 88 
[HTTP] --> POST /wd/hub/session/d78c741f-be7e-495d-8618-490324e609c6/touch/perform {"actions":[{"action":"tap","options":{"element":"62","x":1,"y":1}}]}
[HTTP] <-- POST /wd/hub/session/d78c741f-be7e-495d-8618-490324e609c6/touch/perform 200 214 ms - 76 
[HTTP] --> GET /wd/hub/session/d78c741f-be7e-495d-8618-490324e609c6/window/current/size {}
[HTTP] <-- GET /wd/hub/session/d78c741f-be7e-495d-8618-490324e609c6/window/current/size 200 11 ms - 100 
[HTTP] --> POST /wd/hub/session/d78c741f-be7e-495d-8618-490324e609c6/elements {"using":"-android uiautomator","value":"new UiSelector().className(\"android.widget.ImageView\").resourceId(\"com.next.nlp:id/arrow_image\").instance(2)"}
[HTTP] <-- POST /wd/hub/session/d78c741f-be7e-495d-8618-490324e609c6/elements 200 418 ms - 90 
[HTTP] --> GET /wd/hub/session/d78c741f-be7e-495d-8618-490324e609c6 {}
[HTTP] <-- GET /wd/hub/session/d78c741f-be7e-495d-8618-490324e609c6 200 2 ms - 1179 
[HTTP] --> GET /wd/hub/session/d78c741f-be7e-495d-8618-490324e609c6 {}
[HTTP] <-- GET /wd/hub/session/d78c741f-be7e-495d-8618-490324e609c6 200 2 ms - 1179 
[HTTP] --> GET /wd/hub/session/d78c741f-be7e-495d-8618-490324e609c6 {}
[HTTP] <-- GET /wd/hub/session/d78c741f-be7e-495d-8618-490324e609c6 200 2 ms - 1179 
[HTTP] --> GET /wd/hub/session/d78c741f-be7e-495d-8618-490324e609c6 {}
[HTTP] <-- GET /wd/hub/session/d78c741f-be7e-495d-8618-490324e609c6 200 2 ms - 1179 
[HTTP] --> GET /wd/hub/session/d78c741f-be7e-495d-8618-490324e609c6/element/64/location {}
[HTTP] <-- GET /wd/hub/session/d78c741f-be7e-495d-8618-490324e609c6/element/64/location 200 34 ms - 89 
[HTTP] --> POST /wd/hub/session/d78c741f-be7e-495d-8618-490324e609c6/touch/perform {"actions":[{"action":"tap","options":{"element":"64","x":1,"y":1}}]}
[HTTP] <-- POST /wd/hub/session/d78c741f-be7e-495d-8618-490324e609c6/touch/perform 200 309 ms - 76 
[HTTP] --> GET /wd/hub/session/d78c741f-be7e-495d-8618-490324e609c6/window/current/size {}
[HTTP] <-- GET /wd/hub/session/d78c741f-be7e-495d-8618-490324e609c6/window/current/size 200 12 ms - 100 
[HTTP] --> POST /wd/hub/session/d78c741f-be7e-495d-8618-490324e609c6/elements {"using":"-android uiautomator","value":"new UiSelector().className(\"android.support.v7.widget.LinearLayoutCompat\").instance(0)"}
[HTTP] <-- POST /wd/hub/session/d78c741f-be7e-495d-8618-490324e609c6/elements 200 297 ms - 90 
[HTTP] --> GET /wd/hub/session/d78c741f-be7e-495d-8618-490324e609c6 {}
[HTTP] <-- GET /wd/hub/session/d78c741f-be7e-495d-8618-490324e609c6 200 3 ms - 1179 
[HTTP] --> GET /wd/hub/session/d78c741f-be7e-495d-8618-490324e609c6 {}
[HTTP] <-- GET /wd/hub/session/d78c741f-be7e-495d-8618-490324e609c6 200 2 ms - 1179 
[HTTP] --> GET /wd/hub/session/d78c741f-be7e-495d-8618-490324e609c6 {}
[HTTP] <-- GET /wd/hub/session/d78c741f-be7e-495d-8618-490324e609c6 200 3 ms - 1179 
[HTTP] --> GET /wd/hub/session/d78c741f-be7e-495d-8618-490324e609c6 {}
[HTTP] <-- GET /wd/hub/session/d78c741f-be7e-495d-8618-490324e609c6 200 2 ms - 1179 
[HTTP] --> GET /wd/hub/session/d78c741f-be7e-495d-8618-490324e609c6/element/65/location {}
[HTTP] <-- GET /wd/hub/session/d78c741f-be7e-495d-8618-490324e609c6/element/65/location 200 81 ms - 88 
[HTTP] --> POST /wd/hub/session/d78c741f-be7e-495d-8618-490324e609c6/touch/perform {"actions":[{"action":"tap","options":{"element":"65","x":1,"y":1}}]}
[HTTP] <-- POST /wd/hub/session/d78c741f-be7e-495d-8618-490324e609c6/touch/perform 200 428 ms - 76 
[HTTP] --> GET /wd/hub/session/d78c741f-be7e-495d-8618-490324e609c6/window/current/size {}
[HTTP] <-- GET /wd/hub/session/d78c741f-be7e-495d-8618-490324e609c6/window/current/size 200 10 ms - 100 
[HTTP] --> POST /wd/hub/session/d78c741f-be7e-495d-8618-490324e609c6/elements {"using":"-android uiautomator","value":"new UiSelector().className(\"android.view.View\").instance(0)"}
[HTTP] <-- POST /wd/hub/session/d78c741f-be7e-495d-8618-490324e609c6/elements 200 1195 ms - 90 
[HTTP] --> GET /wd/hub/session/d78c741f-be7e-495d-8618-490324e609c6 {}
[HTTP] <-- GET /wd/hub/session/d78c741f-be7e-495d-8618-490324e609c6 200 2 ms - 1179 
[HTTP] --> GET /wd/hub/session/d78c741f-be7e-495d-8618-490324e609c6 {}
[HTTP] <-- GET /wd/hub/session/d78c741f-be7e-495d-8618-490324e609c6 200 2 ms - 1179 
[HTTP] --> GET /wd/hub/session/d78c741f-be7e-495d-8618-490324e609c6 {}
[HTTP] <-- GET /wd/hub/session/d78c741f-be7e-495d-8618-490324e609c6 200 3 ms - 1179 
[HTTP] --> GET /wd/hub/session/d78c741f-be7e-495d-8618-490324e609c6 {}
[HTTP] <-- GET /wd/hub/session/d78c741f-be7e-495d-8618-490324e609c6 200 2 ms - 1179 
[HTTP] --> GET /wd/hub/session/d78c741f-be7e-495d-8618-490324e609c6/element/66/location {}
[HTTP] <-- GET /wd/hub/session/d78c741f-be7e-495d-8618-490324e609c6/element/66/location 200 33 ms - 86 
[HTTP] --> POST /wd/hub/session/d78c741f-be7e-495d-8618-490324e609c6/touch/perform {"actions":[{"action":"tap","options":{"element":"66","x":1,"y":1}}]}
[HTTP] <-- POST /wd/hub/session/d78c741f-be7e-495d-8618-490324e609c6/touch/perform 200 3188 ms - 76 
[HTTP] --> GET /wd/hub/session/d78c741f-be7e-495d-8618-490324e609c6/window/current/size {}
[HTTP] <-- GET /wd/hub/session/d78c741f-be7e-495d-8618-490324e609c6/window/current/size 200 11 ms - 100 
[HTTP] --> POST /wd/hub/session/d78c741f-be7e-495d-8618-490324e609c6/elements {"using":"-android uiautomator","value":"new UiSelector().className(\"android.widget.ImageButton\").instance(0)"}
[HTTP] <-- POST /wd/hub/session/d78c741f-be7e-495d-8618-490324e609c6/elements 200 54 ms - 90 
[HTTP] --> GET /wd/hub/session/d78c741f-be7e-495d-8618-490324e609c6 {}
[HTTP] <-- GET /wd/hub/session/d78c741f-be7e-495d-8618-490324e609c6 200 2 ms - 1179 
[HTTP] --> GET /wd/hub/session/d78c741f-be7e-495d-8618-490324e609c6 {}
[HTTP] <-- GET /wd/hub/session/d78c741f-be7e-495d-8618-490324e609c6 200 2 ms - 1179 
[HTTP] --> GET /wd/hub/session/d78c741f-be7e-495d-8618-490324e609c6 {}
[HTTP] <-- GET /wd/hub/session/d78c741f-be7e-495d-8618-490324e609c6 200 2 ms - 1179 
[HTTP] --> GET /wd/hub/session/d78c741f-be7e-495d-8618-490324e609c6 {}
[HTTP] <-- GET /wd/hub/session/d78c741f-be7e-495d-8618-490324e609c6 200 2 ms - 1179 
[HTTP] --> GET /wd/hub/session/d78c741f-be7e-495d-8618-490324e609c6/element/67/location {}
[HTTP] <-- GET /wd/hub/session/d78c741f-be7e-495d-8618-490324e609c6/element/67/location 200 30 ms - 86 
[HTTP] --> POST /wd/hub/session/d78c741f-be7e-495d-8618-490324e609c6/touch/perform {"actions":[{"action":"tap","options":{"element":"67","x":1,"y":1}}]}
[HTTP] <-- POST /wd/hub/session/d78c741f-be7e-495d-8618-490324e609c6/touch/perform 200 213 ms - 76 
[HTTP] --> GET /wd/hub/session/d78c741f-be7e-495d-8618-490324e609c6/window/current/size {}
[HTTP] <-- GET /wd/hub/session/d78c741f-be7e-495d-8618-490324e609c6/window/current/size 200 19 ms - 100 
[HTTP] --> POST /wd/hub/session/d78c741f-be7e-495d-8618-490324e609c6/elements {"using":"-android uiautomator","value":"new UiSelector().className(\"android.widget.ImageButton\").instance(0)"}
[HTTP] <-- POST /wd/hub/session/d78c741f-be7e-495d-8618-490324e609c6/elements 200 927 ms - 90 
[HTTP] --> GET /wd/hub/session/d78c741f-be7e-495d-8618-490324e609c6 {}
[HTTP] <-- GET /wd/hub/session/d78c741f-be7e-495d-8618-490324e609c6 200 2 ms - 1179 
[HTTP] --> GET /wd/hub/session/d78c741f-be7e-495d-8618-490324e609c6 {}
[HTTP] <-- GET /wd/hub/session/d78c741f-be7e-495d-8618-490324e609c6 200 1 ms - 1179 
[HTTP] --> GET /wd/hub/session/d78c741f-be7e-495d-8618-490324e609c6 {}
[HTTP] <-- GET /wd/hub/session/d78c741f-be7e-495d-8618-490324e609c6 200 1 ms - 1179 
[HTTP] --> GET /wd/hub/session/d78c741f-be7e-495d-8618-490324e609c6 {}
[HTTP] <-- GET /wd/hub/session/d78c741f-be7e-495d-8618-490324e609c6 200 1 ms - 1179 
[HTTP] --> GET /wd/hub/session/d78c741f-be7e-495d-8618-490324e609c6/element/68/location {}
[HTTP] <-- GET /wd/hub/session/d78c741f-be7e-495d-8618-490324e609c6/element/68/location 200 20 ms - 86 
[HTTP] --> POST /wd/hub/session/d78c741f-be7e-495d-8618-490324e609c6/touch/perform {"actions":[{"action":"tap","options":{"element":"68","x":1,"y":1}}]}
[HTTP] <-- POST /wd/hub/session/d78c741f-be7e-495d-8618-490324e609c6/touch/perform 200 192 ms - 76 
[HTTP] --> GET /wd/hub/session/d78c741f-be7e-495d-8618-490324e609c6/window/current/size {}
[HTTP] <-- GET /wd/hub/session/d78c741f-be7e-495d-8618-490324e609c6/window/current/size 200 8 ms - 100 
[HTTP] --> POST /wd/hub/session/d78c741f-be7e-495d-8618-490324e609c6/elements {"using":"-android uiautomator","value":"new UiSelector().className(\"android.widget.LinearLayout\").instance(11)"}
[HTTP] <-- POST /wd/hub/session/d78c741f-be7e-495d-8618-490324e609c6/elements 200 595 ms - 90 
[HTTP] --> GET /wd/hub/session/d78c741f-be7e-495d-8618-490324e609c6 {}
[HTTP] <-- GET /wd/hub/session/d78c741f-be7e-495d-8618-490324e609c6 200 1 ms - 1179 
[HTTP] --> GET /wd/hub/session/d78c741f-be7e-495d-8618-490324e609c6 {}
[HTTP] <-- GET /wd/hub/session/d78c741f-be7e-495d-8618-490324e609c6 200 3 ms - 1179 
[HTTP] --> GET /wd/hub/session/d78c741f-be7e-495d-8618-490324e609c6 {}
[HTTP] <-- GET /wd/hub/session/d78c741f-be7e-495d-8618-490324e609c6 200 1 ms - 1179 
[HTTP] --> GET /wd/hub/session/d78c741f-be7e-495d-8618-490324e609c6 {}
[HTTP] <-- GET /wd/hub/session/d78c741f-be7e-495d-8618-490324e609c6 200 2 ms - 1179 
[HTTP] --> GET /wd/hub/session/d78c741f-be7e-495d-8618-490324e609c6/element/69/location {}
[HTTP] <-- GET /wd/hub/session/d78c741f-be7e-495d-8618-490324e609c6/element/69/location 200 11 ms - 89 
[HTTP] --> POST /wd/hub/session/d78c741f-be7e-495d-8618-490324e609c6/touch/perform {"actions":[{"action":"tap","options":{"element":"69","x":1,"y":1}}]}
[HTTP] <-- POST /wd/hub/session/d78c741f-be7e-495d-8618-490324e609c6/touch/perform 200 169 ms - 76 
[HTTP] --> GET /wd/hub/session/d78c741f-be7e-495d-8618-490324e609c6/window/current/size {}
[HTTP] <-- GET /wd/hub/session/d78c741f-be7e-495d-8618-490324e609c6/window/current/size 200 7 ms - 100 
[HTTP] --> POST /wd/hub/session/d78c741f-be7e-495d-8618-490324e609c6/elements {"using":"-android uiautomator","value":"new UiSelector().className(\"android.widget.ImageButton\").instance(0)"}
[HTTP] <-- POST /wd/hub/session/d78c741f-be7e-495d-8618-490324e609c6/elements 200 476 ms - 90 
[HTTP] --> GET /wd/hub/session/d78c741f-be7e-495d-8618-490324e609c6 {}
[HTTP] <-- GET /wd/hub/session/d78c741f-be7e-495d-8618-490324e609c6 200 4 ms - 1179 
[HTTP] --> GET /wd/hub/session/d78c741f-be7e-495d-8618-490324e609c6 {}
[HTTP] <-- GET /wd/hub/session/d78c741f-be7e-495d-8618-490324e609c6 200 4 ms - 1179 
[HTTP] --> GET /wd/hub/session/d78c741f-be7e-495d-8618-490324e609c6 {}
[HTTP] <-- GET /wd/hub/session/d78c741f-be7e-495d-8618-490324e609c6 200 4 ms - 1179 
[HTTP] --> GET /wd/hub/session/d78c741f-be7e-495d-8618-490324e609c6 {}
[HTTP] <-- GET /wd/hub/session/d78c741f-be7e-495d-8618-490324e609c6 200 4 ms - 1179 
[HTTP] --> GET /wd/hub/session/d78c741f-be7e-495d-8618-490324e609c6/element/70/location {}
[HTTP] <-- GET /wd/hub/session/d78c741f-be7e-495d-8618-490324e609c6/element/70/location 200 15 ms - 86 
[HTTP] --> POST /wd/hub/session/d78c741f-be7e-495d-8618-490324e609c6/touch/perform {"actions":[{"action":"tap","options":{"element":"70","x":1,"y":1}}]}
[HTTP] <-- POST /wd/hub/session/d78c741f-be7e-495d-8618-490324e609c6/touch/perform 200 315 ms - 76 
[HTTP] --> GET /wd/hub/session/d78c741f-be7e-495d-8618-490324e609c6/window/current/size {}
[HTTP] <-- GET /wd/hub/session/d78c741f-be7e-495d-8618-490324e609c6/window/current/size 200 11 ms - 100 
[HTTP] --> POST /wd/hub/session/d78c741f-be7e-495d-8618-490324e609c6/elements {"using":"-android uiautomator","value":"new UiSelector().className(\"android.widget.TextView\").text(\"$\").resourceId(\"com.next.nlp:id/back_btn\").instance(0)"}
[HTTP] <-- POST /wd/hub/session/d78c741f-be7e-495d-8618-490324e609c6/elements 200 547 ms - 90 
[HTTP] --> GET /wd/hub/session/d78c741f-be7e-495d-8618-490324e609c6 {}
[HTTP] <-- GET /wd/hub/session/d78c741f-be7e-495d-8618-490324e609c6 200 3 ms - 1179 
[HTTP] --> GET /wd/hub/session/d78c741f-be7e-495d-8618-490324e609c6 {}
[HTTP] <-- GET /wd/hub/session/d78c741f-be7e-495d-8618-490324e609c6 200 3 ms - 1179 
[HTTP] --> GET /wd/hub/session/d78c741f-be7e-495d-8618-490324e609c6 {}
[HTTP] <-- GET /wd/hub/session/d78c741f-be7e-495d-8618-490324e609c6 200 4 ms - 1179 
[HTTP] --> GET /wd/hub/session/d78c741f-be7e-495d-8618-490324e609c6 {}
[HTTP] <-- GET /wd/hub/session/d78c741f-be7e-495d-8618-490324e609c6 200 3 ms - 1179 
[HTTP] --> GET /wd/hub/session/d78c741f-be7e-495d-8618-490324e609c6/element/71/location {}
[HTTP] <-- GET /wd/hub/session/d78c741f-be7e-495d-8618-490324e609c6/element/71/location 200 25 ms - 88 
[HTTP] --> POST /wd/hub/session/d78c741f-be7e-495d-8618-490324e609c6/touch/perform {"actions":[{"action":"tap","options":{"element":"71","x":1,"y":1}}]}
[HTTP] <-- POST /wd/hub/session/d78c741f-be7e-495d-8618-490324e609c6/touch/perform 200 242 ms - 76 
[HTTP] --> GET /wd/hub/session/d78c741f-be7e-495d-8618-490324e609c6/window/current/size {}
[HTTP] <-- GET /wd/hub/session/d78c741f-be7e-495d-8618-490324e609c6/window/current/size 200 13 ms - 100 
[HTTP] --> POST /wd/hub/session/d78c741f-be7e-495d-8618-490324e609c6/elements {"using":"-android uiautomator","value":"new UiSelector().className(\"android.widget.TextView\").text(\"Class - Section\").resourceId(\"com.next.nlp:id/sort_by_txt\").instance(4)"}
[HTTP] <-- POST /wd/hub/session/d78c741f-be7e-495d-8618-490324e609c6/elements 200 30212 ms - 74 
[HTTP] --> GET /wd/hub/session/d78c741f-be7e-495d-8618-490324e609c6/context {}
[HTTP] <-- GET /wd/hub/session/d78c741f-be7e-495d-8618-490324e609c6/context 200 7 ms - 84 
[HTTP] --> GET /wd/hub/session/d78c741f-be7e-495d-8618-490324e609c6/contexts {}
[HTTP] <-- GET /wd/hub/session/d78c741f-be7e-495d-8618-490324e609c6/contexts 200 158 ms - 86 
[HTTP] --> POST /wd/hub/session/d78c741f-be7e-495d-8618-490324e609c6/context {"name":"NATIVE_APP"}
[HTTP] <-- POST /wd/hub/session/d78c741f-be7e-495d-8618-490324e609c6/context 200 106 ms - 76 
[HTTP] --> GET /wd/hub/session/d78c741f-be7e-495d-8618-490324e609c6/screenshot {}
[HTTP] <-- GET /wd/hub/session/d78c741f-be7e-495d-8618-490324e609c6/screenshot 200 3567 ms - 146738 
[HTTP] --> POST /wd/hub/session/d78c741f-be7e-495d-8618-490324e609c6/context {"name":"NATIVE_APP"}
[HTTP] <-- POST /wd/hub/session/d78c741f-be7e-495d-8618-490324e609c6/context 200 111 ms - 76 
[HTTP] --> GET /wd/hub/session/d78c741f-be7e-495d-8618-490324e609c6/window/current/size {}
[HTTP] <-- GET /wd/hub/session/d78c741f-be7e-495d-8618-490324e609c6/window/current/size 200 15 ms - 100 
[HTTP] --> POST /wd/hub/session/d78c741f-be7e-495d-8618-490324e609c6/elements {"using":"-android uiautomator","value":"new UiSelector().className(\"android.widget.TextView\").text(\"Name\").resourceId(\"com.next.nlp:id/text1\").instance(4)"}
[HTTP] <-- POST /wd/hub/session/d78c741f-be7e-495d-8618-490324e609c6/elements - - ms - - 
