Suite/Test/Step Name,Browser,Description,Start time,End time,Duration,Status
Parent Execution,,,2019-04-16 16:10:40,2019-04-16 16:14:24,3m - 43.686s,FAILED
,,,,,,
Test Cases/Parent Login/Login/Verify if able to launch the application successfully,,,2019-04-16 16:10:40,2019-04-16 16:12:17,1m - 36.861s,PASSED
"startApplication(""D:\NLP_Prod.apk"", true)",,Browse the applciation in computer,2019-04-16 16:10:41,2019-04-16 16:12:12,1m - 31.462s,PASSED
delay(5),,,2019-04-16 16:12:12,2019-04-16 16:12:17,5.027s,PASSED
,,,,,,
Test Cases/Parent Login/Login/Verify if able to enter school code,,,2019-04-16 16:12:17,2019-04-16 16:12:30,13.365s,PASSED
"setText(findTestObject(""Parent Login/Login/School CodeDomain""), ""DS"", 2)",,,2019-04-16 16:12:17,2019-04-16 16:12:30,13.163s,PASSED
,,,,,,
Test Cases/Parent Login/Login/Verify if able see G Login screen after clicking on proceed with valid school code,,,2019-04-16 16:12:30,2019-04-16 16:12:31,1.018s,PASSED
"tap(findTestObject(""Parent Login/Login/Proceed""), 2)",,,2019-04-16 16:12:31,2019-04-16 16:12:31,0.828s,PASSED
,,,,,,
Test Cases/Parent Login/Google Login selection/Verify if able to sucessfully click on Login with Google button,,,2019-04-16 16:12:31,2019-04-16 16:12:39,7.960s,PASSED
"tap(findTestObject(""Parent Login/Login Details/Login with Google""), 2)",,,2019-04-16 16:12:32,2019-04-16 16:12:39,7.773s,PASSED
,,,,,,
Test Cases/Parent Login/Google Login selection/Verify if able to choose parent email id from the list,,,2019-04-16 16:12:39,2019-04-16 16:12:47,7.266s,PASSED
"tap(findTestObject(""Parent Login/Gmail Account Selection/2268klkreddygmail.com""), 2)",,,2019-04-16 16:12:40,2019-04-16 16:12:47,7.072s,PASSED
,,,,,,
Test Cases/Parent Login/Login/Push Notifications/Verify if able to click on Yes in the Push Notifications popup screen,,,2019-04-16 16:12:47,2019-04-16 16:12:50,3.308s,PASSED
"tap(findTestObject(""Parent Login/Push Notification/Push Notification-Yes""), 0)",,,2019-04-16 16:12:47,2019-04-16 16:12:50,3.099s,PASSED
,,,,,,
Test Cases/Parent Login/Main Menu after Login/Attendance/Verify if Attendance Menu is clickable or not,,,2019-04-16 16:12:50,2019-04-16 16:12:52,1.776s,PASSED
"tap(findTestObject(""Parent Login/Main Menu after Login/Attendance/Attendance""), 0)",,,2019-04-16 16:12:50,2019-04-16 16:12:52,1.580s,PASSED
,,,,,,
Test Cases/Parent Login/Main Menu after Login/Attendance/Verify if able to view all leave types of attendance,,,2019-04-16 16:12:52,2019-04-16 16:12:52,0.185s,PASSED
return null,,,2019-04-16 16:12:52,2019-04-16 16:12:52,0.000s,PASSED
,,,,,,
Test Cases/Parent Login/Main Menu after Login/Attendance/Verify if able to click on back button to view other months details or not,,,2019-04-16 16:12:52,2019-04-16 16:13:02,10.227s,PASSED
"tap(findTestObject(""Parent Login/Main Menu after Login/Attendance/Back button Month View""), 0)",,,2019-04-16 16:12:52,2019-04-16 16:13:02,10.049s,PASSED
,,,,,,
Test Cases/Parent Login/Main Menu after Login/Attendance/Verify if able to view attendance status for the selected date,,,2019-04-16 16:13:02,2019-04-16 16:13:10,8.009s,PASSED
"tap(findTestObject(""Parent Login/Main Menu after Login/Attendance/Status of Attendance""), 0)",,,2019-04-16 16:13:02,2019-04-16 16:13:10,7.807s,PASSED
,,,,,,
Test Cases/Parent Login/Main Menu after Login/Attendance/Verify if able to click on attendance status for other day status,,,2019-04-16 16:13:10,2019-04-16 16:13:17,7.076s,PASSED
"tap(findTestObject(""Parent Login/Main Menu after Login/Attendance/Status of Attendance for other day""), 0)",,,2019-04-16 16:13:10,2019-04-16 16:13:17,6.883s,PASSED
,,,,,,
Test Cases/Parent Login/Main Menu after Login/Attendance/Verify if able to click on Next button to view other months,,,2019-04-16 16:13:17,2019-04-16 16:13:18,0.698s,PASSED
"tap(findTestObject(""Parent Login/Main Menu after Login/Attendance/Next Button for Month View""), 0)",,,2019-04-16 16:13:18,2019-04-16 16:13:18,0.494s,PASSED
,,,,,,
Test Cases/Parent Login/Main Menu after Login/Attendance/History Button/Verify if able to click on Attendance History button,,,2019-04-16 16:13:18,2019-04-16 16:13:19,1.251s,PASSED
"tap(findTestObject(""Parent Login/Main Menu after Login/Attendance/Attendance History/Attendance History""), 0)",,,2019-04-16 16:13:18,2019-04-16 16:13:19,1.068s,PASSED
,,,,,,
Test Cases/Parent Login/Main Menu after Login/Attendance/History Button/Verify if able to click on month to view attendance,,,2019-04-16 16:13:19,2019-04-16 16:13:21,1.694s,PASSED
"tap(findTestObject(""Parent Login/Main Menu after Login/Attendance/Attendance History/Month to view Attendance""), 0)",,,2019-04-16 16:13:19,2019-04-16 16:13:21,1.512s,PASSED
,,,,,,
Test Cases/Parent Login/Main Menu after Login/Attendance/History Button/Verify if able to view attendance status of the selected date,,,2019-04-16 16:13:21,2019-04-16 16:13:36,15.369s,PASSED
"tap(findTestObject(""Parent Login/Main Menu after Login/Attendance/Attendance History/Attendance Status""), 0)",,,2019-04-16 16:13:21,2019-04-16 16:13:36,15.177s,PASSED
,,,,,,
Test Cases/Parent Login/Main Menu after Login/Attendance/History Button/Verify if able to view attendance types,,,2019-04-16 16:13:36,2019-04-16 16:14:12,35.571s,FAILED
"scrollToText(""Workings Days"")",,,2019-04-16 16:13:37,2019-04-16 16:14:11,34.696s,FAILED
"tap(findTestObject(""Parent Login/Main Menu after Login/Attendance/Attendance History/view attendance types""), 0)",,,2019-04-16 16:14:11,2019-04-16 16:14:12,0.684s,FAILED
,,,,,,
Test Cases/Parent Login/Main Menu after Login/Attendance/History Button/Verify if able to view next month attendance,,,2019-04-16 16:14:12,2019-04-16 16:14:13,1.233s,PASSED
"tap(findTestObject(""Parent Login/Main Menu after Login/Attendance/Attendance History/Next Button""), 0)",,,2019-04-16 16:14:12,2019-04-16 16:14:13,1.038s,PASSED
,,,,,,
Test Cases/Parent Login/Main Menu after Login/Attendance/History Button/Verify if able to view back button for the other months,,,2019-04-16 16:14:13,2019-04-16 16:14:17,4.113s,PASSED
"tap(findTestObject(""Parent Login/Main Menu after Login/Attendance/Attendance History/Previous Button""), 0)",,,2019-04-16 16:14:13,2019-04-16 16:14:17,3.922s,PASSED
