Suite/Test/Step Name,Browser,Description,Start time,End time,Duration,Status
Login,,,2018-08-28 17:40:57,2018-08-28 17:43:14,2m - 17.137s,FAILED
,,,,,,
Test Cases/GLogin,,,2018-08-28 17:40:57,2018-08-28 17:42:50,1m - 53.309s,PASSED
startApplication,,Launch Application,2018-08-28 17:40:58,2018-08-28 17:42:10,1m - 12.538s,PASSED
setText,,Enter SchoolCode,2018-08-28 17:42:10,2018-08-28 17:42:29,18.698s,PASSED
tap,,"Click on ""Proceed"" button
",2018-08-28 17:42:29,2018-08-28 17:42:31,1.617s,PASSED
tap,,"Click on ""Login with Google"" Button",2018-08-28 17:42:31,2018-08-28 17:42:36,5.145s,PASSED
tap,,Choose the desired Gmail login which is registered with NLP,2018-08-28 17:42:36,2018-08-28 17:42:40,3.864s,PASSED
tap,,"Choose ""Yes"" from the Push Notifications Popup",2018-08-28 17:42:40,2018-08-28 17:42:45,5.677s,PASSED
delay,,,2018-08-28 17:42:45,2018-08-28 17:42:50,5.076s,PASSED
"Statement - com.kms.katalon.core.configuration.RunConfiguration.getProjectDir() + 0 == ""Users\lakshmikanthk\Downloads\app-nlp-debug.apk""",,,2018-08-28 17:42:50,2018-08-28 17:42:50,0.006s,NOT_RUN
startApplication,,,2018-08-28 17:42:50,2018-08-28 17:42:50,0.002s,NOT_RUN
waitForElementPresent,,,2018-08-28 17:42:50,2018-08-28 17:42:50,0.002s,NOT_RUN
,,,,,,
Test Cases/Personal Info,,,2018-08-28 17:42:50,2018-08-28 17:43:07,16.453s,FAILED
tap,,"Click on ""Personal Info"" tab to view logged in Staff details",2018-08-28 17:42:51,2018-08-28 17:42:52,1.060s,PASSED
delay,,,2018-08-28 17:42:52,2018-08-28 17:42:57,5.002s,PASSED
tap,,"Click on ""Personal Details"" tab to view details",2018-08-28 17:42:57,2018-08-28 17:42:58,0.876s,PASSED
verifyElementText,,,2018-08-28 17:42:58,2018-08-28 17:43:07,8.568s,FAILED
