Suite/Test/Step Name,Browser,Description,Start time,End time,Duration,Status
Execution with Checkpoints,,,2018-09-03 12:15:29,2018-09-03 12:17:52,2m - 22.922s,FAILED
,,,,,,
Test Cases/GLogin,,,2018-09-03 12:15:30,2018-09-03 12:17:37,2m - 6.871s,PASSED
startApplication,,,2018-09-03 12:15:30,2018-09-03 12:16:34,1m - 3.283s,PASSED
"Comment - ""Launch Application""",,,2018-09-03 12:16:34,2018-09-03 12:16:34,0.004s,PASSED
setText,,Enter SchoolCode,2018-09-03 12:16:34,2018-09-03 12:16:53,19.852s,PASSED
tap,,"Click on ""Proceed"" button
",2018-09-03 12:16:53,2018-09-03 12:16:55,1.169s,PASSED
tap,,"Click on ""Login with Google"" Button",2018-09-03 12:16:55,2018-09-03 12:16:58,3.598s,PASSED
waitForElementPresent,,,2018-09-03 12:16:58,2018-09-03 12:16:58,0.004s,NOT_RUN
setText,,Enter Gmail ,2018-09-03 12:16:58,2018-09-03 12:16:58,0.004s,NOT_RUN
tap,,Click on Next,2018-09-03 12:16:58,2018-09-03 12:16:58,0.004s,NOT_RUN
setText,,Enter Password for gmail account,2018-09-03 12:16:58,2018-09-03 12:16:58,0.004s,NOT_RUN
tap,,Click on Next,2018-09-03 12:16:58,2018-09-03 12:16:58,0.003s,NOT_RUN
tap,,Accept Terms and Services,2018-09-03 12:16:58,2018-09-03 12:16:58,0.002s,NOT_RUN
tap,,Scroll to text for Accept button to be enabled,2018-09-03 12:16:58,2018-09-03 12:16:58,0.002s,NOT_RUN
tap,,Click on Accept,2018-09-03 12:16:58,2018-09-03 12:16:58,0.003s,NOT_RUN
tap,,Choose the desired Gmail login which is registered with NLP,2018-09-03 12:16:58,2018-09-03 12:17:03,5.033s,PASSED
tap,,"Choose ""Yes"" from the Push Notifications Popup",2018-09-03 12:17:03,2018-09-03 12:17:07,3.292s,PASSED
delay,,,2018-09-03 12:17:07,2018-09-03 12:17:37,30.071s,PASSED
"Statement - com.kms.katalon.core.configuration.RunConfiguration.getProjectDir() + 0 == ""Users\lakshmikanthk\Downloads\app-nlp-debug.apk""",,,2018-09-03 12:17:37,2018-09-03 12:17:37,0.006s,NOT_RUN
startApplication,,,2018-09-03 12:17:37,2018-09-03 12:17:37,0.003s,NOT_RUN
waitForElementPresent,,,2018-09-03 12:17:37,2018-09-03 12:17:37,0.002s,NOT_RUN
,,,,,,
Test Cases/Verification with Checkpoints/Personal Info with check points,,,2018-09-03 12:17:37,2018-09-03 12:17:46,8.931s,FAILED
tap,,"Click on ""Personal Info"" tab to view logged in Staff details",2018-09-03 12:17:38,2018-09-03 12:17:39,1.084s,PASSED
delay,,,2018-09-03 12:17:39,2018-09-03 12:17:44,5.007s,PASSED
tap,,"Click on ""Personal Details"" tab to view details",2018-09-03 12:17:44,2018-09-03 12:17:44,0.802s,PASSED
verifyElementText,,,2018-09-03 12:17:44,2018-09-03 12:17:46,1.182s,PASSED
verifyMatch,,,2018-09-03 12:17:46,2018-09-03 12:17:46,0.020s,FAILED
