Suite/Test/Step Name,Browser,Description,Start time,End time,Duration,Status
Parent Execution,,,2019-04-26 15:09:22,2019-04-26 15:14:42,5m - 20.010s,FAILED
,,,,,,
Test Cases/Parent Login/Login/Verify if able to launch the application successfully,,,2019-04-26 15:09:23,2019-04-26 15:11:08,1m - 45.025s,PASSED
"startApplication(""D:\NLP_Prod.apk"", true)",,Browse the applciation in computer,2019-04-26 15:09:23,2019-04-26 15:11:03,1m - 39.643s,PASSED
delay(5),,,2019-04-26 15:11:03,2019-04-26 15:11:08,5.025s,PASSED
,,,,,,
Test Cases/Parent Login/Login/Verify if able to enter school code,,,2019-04-26 15:11:08,2019-04-26 15:11:29,21.569s,PASSED
"setText(findTestObject(""Parent Login/Login/School CodeDomain""), ""DS"", 2)",,,2019-04-26 15:11:08,2019-04-26 15:11:29,21.366s,PASSED
,,,,,,
Test Cases/Parent Login/Login/Verify if able see G Login screen after clicking on proceed with valid school code,,,2019-04-26 15:11:29,2019-04-26 15:11:30,1.086s,PASSED
"tap(findTestObject(""Parent Login/Login/Proceed""), 2)",,,2019-04-26 15:11:29,2019-04-26 15:11:30,0.901s,PASSED
,,,,,,
Test Cases/Parent Login/Google Login selection/Verify if able to sucessfully click on Login with Google button,,,2019-04-26 15:11:30,2019-04-26 15:11:35,5.176s,PASSED
"tap(findTestObject(""Parent Login/Login Details/Login with Google""), 2)",,,2019-04-26 15:11:31,2019-04-26 15:11:35,4.987s,PASSED
,,,,,,
Test Cases/Parent Login/Google Login selection/Verify if able to choose parent email id from the list,,,2019-04-26 15:11:35,2019-04-26 15:11:42,6.247s,PASSED
"tap(findTestObject(""Parent Login/Gmail Account Selection/2268klkreddygmail.com""), 2)",,,2019-04-26 15:11:36,2019-04-26 15:11:42,6.054s,PASSED
,,,,,,
Test Cases/Parent Login/Login/Push Notifications/Verify if able to click on Yes in the Push Notifications popup screen,,,2019-04-26 15:11:42,2019-04-26 15:11:51,9.364s,PASSED
"tap(findTestObject(""Parent Login/Push Notification/Push Notification-Yes""), 0)",,,2019-04-26 15:11:42,2019-04-26 15:11:51,9.147s,PASSED
,,,,,,
Test Cases/Parent Login/Main Menu after Login/Fee/Verify if able to click on Fee tab to view Fee details,,,2019-04-26 15:11:51,2019-04-26 15:11:53,2.220s,PASSED
"tap(findTestObject(""Parent Login/Main Menu after Login/Fee/Fee""), 0)",,,2019-04-26 15:11:51,2019-04-26 15:11:53,2.037s,PASSED
,,,,,,
Test Cases/Parent Login/Main Menu after Login/Fee/Fee Certificate/Verify if able to click on Fee Certificate to view details or not,,,2019-04-26 15:11:53,2019-04-26 15:11:57,3.946s,PASSED
"tap(findTestObject(""Parent Login/Main Menu after Login/Fee/Fee Certificate/Fee Certificate""), 2)",,,2019-04-26 15:11:54,2019-04-26 15:11:57,3.735s,PASSED
,,,,,,
Test Cases/Parent Login/Main Menu after Login/Fee/Fee Certificate/Verify if able to view paid fee certificate when clicked on download button or not,,v,2019-04-26 15:11:57,2019-04-26 15:12:07,9.496s,PASSED
"tap(findTestObject(""Parent Login/Main Menu after Login/Fee/Fee Certificate/Download Paid Fee Certificate""), 3)",,,2019-04-26 15:11:57,2019-04-26 15:12:05,7.500s,PASSED
pressBack(),,,2019-04-26 15:12:05,2019-04-26 15:12:07,1.809s,PASSED
,,,,,,
Test Cases/Parent Login/Main Menu after Login/Fee/Fee Certificate/Verify if able to click on Search button to search for specific Certificate or not,,,2019-04-26 15:12:07,2019-04-26 15:12:08,0.991s,PASSED
"tap(findTestObject(""Parent Login/Main Menu after Login/Fee/Fee Certificate/Search Certificate""), 3)",,,2019-04-26 15:12:07,2019-04-26 15:12:08,0.801s,PASSED
,,,,,,
Test Cases/Parent Login/Main Menu after Login/Fee/Fee Certificate/Verify if able to search enterd Certificate no to view details or not,,,2019-04-26 15:12:08,2019-04-26 15:12:16,8.481s,PASSED
"setText(findTestObject(""Parent Login/Main Menu after Login/Fee/Fee Certificate/Search by Certificate No.""), ""PFF2"", 0)",,,2019-04-26 15:12:08,2019-04-26 15:12:16,8.284s,PASSED
,,,,,,
Test Cases/Parent Login/Main Menu after Login/Fee/Fee Certificate/Verify if able to click on back button after searching the certificate no or not,,,2019-04-26 15:12:16,2019-04-26 15:12:18,1.223s,PASSED
"tap(findTestObject(""Parent Login/Main Menu after Login/Fee/Fee Certificate/Back Button in search""), 0)",,,2019-04-26 15:12:16,2019-04-26 15:12:18,1.006s,PASSED
,,,,,,
Test Cases/Parent Login/Main Menu after Login/Fee/Fee Certificate/Verify if able to click on Filter to view Academic Sessions or not,,,2019-04-26 15:12:18,2019-04-26 15:12:19,1.275s,PASSED
"tap(findTestObject(""Parent Login/Main Menu after Login/Fee/Fee Certificate/Filter in Fee Certificate""), 3)",,,2019-04-26 15:12:18,2019-04-26 15:12:19,1.091s,PASSED
,,,,,,
Test Cases/Parent Login/Main Menu after Login/Fee/Fee Certificate/Verify if able to click on First Academic session to view details or not,,,2019-04-26 15:12:19,2019-04-26 15:12:20,1.098s,PASSED
"tap(findTestObject(""Parent Login/Main Menu after Login/Fee/Fee Certificate/Select First Academic year""), 2)",,,2019-04-26 15:12:19,2019-04-26 15:12:20,0.918s,PASSED
,,,,,,
Test Cases/Parent Login/Main Menu after Login/Fee/Fee Certificate/Verify if able to click on Apply button for viewing selected academic session details or not,,,2019-04-26 15:12:20,2019-04-26 15:12:54,33.669s,FAILED
"tap(findTestObject(""Parent Login/Main Menu after Login/Fee/Fee Challan/Apply button for saving selected Academic Session""), 2)",,,2019-04-26 15:12:20,2019-04-26 15:12:54,33.485s,FAILED
,,,,,,
Test Cases/Parent Login/Main Menu after Login/Fee/Fee Certificate/Verify if able to click on Filter to view Academic Sessions or not,,,2019-04-26 15:12:54,2019-04-26 15:13:27,33.494s,FAILED
"tap(findTestObject(""Parent Login/Main Menu after Login/Fee/Fee Certificate/Filter in Fee Certificate""), 3)",,,2019-04-26 15:12:54,2019-04-26 15:13:27,33.478s,FAILED
,,,,,,
Test Cases/Parent Login/Main Menu after Login/Fee/Fee Certificate/Verify if able to reset the Academic session to current academic session or not,,,2019-04-26 15:13:27,2019-04-26 15:14:01,34.277s,FAILED
"tap(findTestObject(""Parent Login/Main Menu after Login/Fee/Fee Challan/Reset button in Fee Challan Filter""), 3)",,,2019-04-26 15:13:27,2019-04-26 15:14:01,33.937s,FAILED
,,,,,,
Test Cases/Parent Login/Main Menu after Login/Fee/Fee Certificate/Verify if able to click on Apply button for viewing selected academic session details or not,,,2019-04-26 15:14:01,2019-04-26 15:14:35,33.660s,FAILED
"tap(findTestObject(""Parent Login/Main Menu after Login/Fee/Fee Challan/Apply button for saving selected Academic Session""), 2)",,,2019-04-26 15:14:01,2019-04-26 15:14:35,33.640s,FAILED
