Suite/Test/Step Name,Browser,Description,Start time,End time,Duration,Status
Login,,,2018-08-28 18:01:37,2018-08-28 18:04:23,2m - 46.790s,FAILED
,,,,,,
Test Cases/GLogin,,,2018-08-28 18:01:37,2018-08-28 18:03:17,1m - 39.407s,PASSED
startApplication,,Launch Application,2018-08-28 18:01:38,2018-08-28 18:02:40,1m - 1.940s,PASSED
setText,,Enter SchoolCode,2018-08-28 18:02:40,2018-08-28 18:02:59,18.530s,PASSED
tap,,"Click on ""Proceed"" button
",2018-08-28 18:02:59,2018-08-28 18:03:00,1.198s,PASSED
tap,,"Click on ""Login with Google"" Button",2018-08-28 18:03:00,2018-08-28 18:03:03,3.675s,PASSED
tap,,Choose the desired Gmail login which is registered with NLP,2018-08-28 18:03:03,2018-08-28 18:03:06,2.493s,PASSED
tap,,"Choose ""Yes"" from the Push Notifications Popup",2018-08-28 18:03:06,2018-08-28 18:03:12,5.683s,PASSED
delay,,,2018-08-28 18:03:12,2018-08-28 18:03:17,5.150s,PASSED
"Statement - com.kms.katalon.core.configuration.RunConfiguration.getProjectDir() + 0 == ""Users\lakshmikanthk\Downloads\app-nlp-debug.apk""",,,2018-08-28 18:03:17,2018-08-28 18:03:17,0.010s,NOT_RUN
startApplication,,,2018-08-28 18:03:17,2018-08-28 18:03:17,0.010s,NOT_RUN
waitForElementPresent,,,2018-08-28 18:03:17,2018-08-28 18:03:17,0.000s,NOT_RUN
,,,,,,
Test Cases/Personal Info,,,2018-08-28 18:03:17,2018-08-28 18:04:17,1m - 0.142s,FAILED
tap,,"Click on ""Personal Info"" tab to view logged in Staff details",2018-08-28 18:03:18,2018-08-28 18:03:19,1.216s,PASSED
delay,,,2018-08-28 18:03:19,2018-08-28 18:03:24,5.005s,PASSED
tap,,"Click on ""Personal Details"" tab to view details",2018-08-28 18:03:24,2018-08-28 18:03:25,0.831s,PASSED
verifyElementText,,,2018-08-28 18:03:25,2018-08-28 18:03:26,1.648s,PASSED
tap,,"Minimize ""Personal details"" tab",2018-08-28 18:03:26,2018-08-28 18:03:27,0.721s,PASSED
tap,,"Maximise ""Contact Details"" tab",2018-08-28 18:03:27,2018-08-28 18:03:28,1.047s,PASSED
verifyElementText,,,2018-08-28 18:03:28,2018-08-28 18:03:29,1.013s,PASSED
tap,,"Minimise ""Contact Details"" tab",2018-08-28 18:03:29,2018-08-28 18:03:30,0.955s,PASSED
tap,,"Maximise ""Present Address"" details tab",2018-08-28 18:03:30,2018-08-28 18:03:31,1.017s,PASSED
verifyElementText,,,2018-08-28 18:03:31,2018-08-28 18:03:33,1.546s,PASSED
tap,,"Minimise ""Present Address"" details tab",2018-08-28 18:03:33,2018-08-28 18:03:33,0.661s,PASSED
tap,,"Maximise ""Permanent Address"" details tab",2018-08-28 18:03:33,2018-08-28 18:03:34,1.003s,PASSED
verifyElementText,,,2018-08-28 18:03:34,2018-08-28 18:03:36,1.538s,PASSED
tap,,"Click on ""back button"" in Personal details",2018-08-28 18:03:36,2018-08-28 18:03:36,0.531s,PASSED
tap,,"Click on ""Employemnt Details"" tab",2018-08-28 18:03:36,2018-08-28 18:03:38,1.435s,PASSED
verifyElementText,,,2018-08-28 18:03:38,2018-08-28 18:03:40,1.916s,PASSED
verifyElementText,,,2018-08-28 18:03:40,2018-08-28 18:04:17,37.182s,FAILED
