[Appium] Welcome to Appium v1.7.2
[Appium] Non-default server args:
[Appium]   port: 60578
[Appium]   loglevel: info
[Appium]   chromeDriverPort: 60581
[Appium]   tmpDir: C:\Users\LAKSHM~1\AppData\Local\Temp\\Katalon\Appium\Temp1554263066491
[Appium] Appium REST http interface listener started on 0.0.0.0:60578
[HTTP] --> GET /wd/hub/status {}
[HTTP] <-- GET /wd/hub/status 200 31 ms - 72 
[HTTP] --> POST /wd/hub/session {"desiredCapabilities":{"app":"C:\\Users\\lakshmikanthk\\Downloads\\NLP_1_3_9_(39)-3.apk","appWaitActivity":"*","autoGrantPermissions":true,"deviceId":"4d002db30eec21d9","deviceName":"samsung GT-I9500 (Android 5.0.1)","fullReset":true,"newCommandTimeout":1800,"noReset":false,"platform":"ANDROID","platformName":"Android","udid":"4d002db30eec21d9","unicodeKeyboard":true},"capabilities":{"desiredCapabilities":{"app":"C:\\Users\\lakshmikanthk\\Downloads\\NLP_1_3_9_(39)-3.apk","appWaitActivity":"*","autoGrantPermissions":true,"deviceId":"4d002db30eec21d9","deviceName":"samsung GT-I9500 (Android 5.0.1)","fullReset":true,"newCommandTimeout":1800,"noReset":false,"platform":"ANDROID","platformName":"Android","udid":"4d002db30eec21d9","unicodeKeyboard":true},"firstMatch":[{"platformName":"android"}]}}
[Appium] Merged W3C capabilities {"desiredCapabilities":{"app":"C:\\Users\\laksh... into desiredCapabilities object {"app":"C:\\Users\\lakshmikanthk\\Downloads\\NL...
[Appium] Creating new AndroidDriver (v1.37.0) session
[Appium] Capabilities:
[Appium]   app: C:\Users\lakshmikanthk\Downloads\NLP_1_3_9_(39)-3.apk
[Appium]   appWaitActivity: *
[Appium]   autoGrantPermissions: true
[Appium]   deviceId: 4d002db30eec21d9
[Appium]   deviceName: samsung GT-I9500 (Android 5.0.1)
[Appium]   fullReset: true
[Appium]   newCommandTimeout: 1800
[Appium]   noReset: false
[Appium]   platform: ANDROID
[Appium]   platformName: android
[Appium]   udid: 4d002db30eec21d9
[Appium]   unicodeKeyboard: true
[BaseDriver] The following capabilities were provided, but are not recognized by appium: deviceId, platform.
[BaseDriver] Session created with session id: 103996be-f084-4354-b87f-ada59c74be1a
[AndroidDriver] Java version is: 1.8.0_181
[ADB] Checking whether adb is present
[ADB] Using adb.exe from C:\Users\lakshmikanthk\.katalon\tools\android_sdk\platform-tools\adb.exe
[AndroidDriver] Retrieving device list
[AndroidDriver] Using device: 4d002db30eec21d9
[ADB] Checking whether adb is present
[BaseDriver] Using local app 'C:\Users\lakshmikanthk\Downloads\NLP_1_3_9_(39)-3.apk'
[AndroidDriver] Starting Android session
[AndroidDriver] setDeviceLanguageCountry requires language or country.
[AndroidDriver] Got language: 'null' and country: 'null'
[ADB] Checking whether aapt is present
[ADB] Using aapt.exe from C:\Users\lakshmikanthk\.katalon\tools\android_sdk\build-tools\27.0.3\aapt.exe
[ADB] Checking whether aapt is present
[ADB] Getting device platform version
[ADB] Checking whether aapt is present
[ADB] Extracting package and launch activity from manifest
[ADB] com.next.nlp was successfully uninstalled
[AndroidDriver] Remote apk path is /data/local/tmp/ae77e5bc59d1a64bcb3f50a56a882c0b.apk
[AndroidDriver] Apk is not yet installed
[AndroidDriver] installing apk from remote
[AndroidDriver] Clearing out any existing remote apks with the same hash
[ADB] com.next.nlp was not uninstalled, because it was not present on the device
[ADB] Checking whether aapt is present
[ADB] Extracting package and launch activity from manifest
[ADB] Cannot kill process 15721 in 1000 ms. Trying to force kill...
[AndroidBootstrap] Android bootstrap socket is now connected
[AndroidDriver] Screen already unlocked, doing nothing
[Appium] New AndroidDriver session created successfully, session 103996be-f084-4354-b87f-ada59c74be1a added to master session list
[HTTP] <-- POST /wd/hub/session 200 76513 ms - 1195 
[HTTP] --> GET /wd/hub/status {}
[HTTP] <-- GET /wd/hub/status 200 14 ms - 83 
[HTTP] --> POST /wd/hub/session/103996be-f084-4354-b87f-ada59c74be1a/timeouts {"type":"implicit","ms":30000}
[HTTP] <-- POST /wd/hub/session/103996be-f084-4354-b87f-ada59c74be1a/timeouts 200 15 ms - 76 
[HTTP] --> GET /wd/hub/session/103996be-f084-4354-b87f-ada59c74be1a/window/current/size {}
[HTTP] <-- GET /wd/hub/session/103996be-f084-4354-b87f-ada59c74be1a/window/current/size 200 30 ms - 100 
[HTTP] --> POST /wd/hub/session/103996be-f084-4354-b87f-ada59c74be1a/elements {"using":"-android uiautomator","value":"new UiSelector().className(\"android.widget.EditText\").resourceId(\"com.next.nlp:id/school_code_edit\").instance(0)"}
[HTTP] <-- POST /wd/hub/session/103996be-f084-4354-b87f-ada59c74be1a/elements 200 141 ms - 89 
[HTTP] --> GET /wd/hub/session/103996be-f084-4354-b87f-ada59c74be1a {}
[HTTP] <-- GET /wd/hub/session/103996be-f084-4354-b87f-ada59c74be1a 200 5 ms - 1195 
[HTTP] --> GET /wd/hub/session/103996be-f084-4354-b87f-ada59c74be1a {}
[HTTP] <-- GET /wd/hub/session/103996be-f084-4354-b87f-ada59c74be1a 200 4 ms - 1195 
[HTTP] --> GET /wd/hub/session/103996be-f084-4354-b87f-ada59c74be1a {}
[HTTP] <-- GET /wd/hub/session/103996be-f084-4354-b87f-ada59c74be1a 200 4 ms - 1195 
[HTTP] --> GET /wd/hub/session/103996be-f084-4354-b87f-ada59c74be1a {}
[HTTP] <-- GET /wd/hub/session/103996be-f084-4354-b87f-ada59c74be1a 200 4 ms - 1195 
[HTTP] --> GET /wd/hub/session/103996be-f084-4354-b87f-ada59c74be1a/element/1/location {}
[HTTP] <-- GET /wd/hub/session/103996be-f084-4354-b87f-ada59c74be1a/element/1/location 200 44 ms - 90 
[HTTP] --> POST /wd/hub/session/103996be-f084-4354-b87f-ada59c74be1a/element/1/clear {"id":"1"}
[HTTP] <-- POST /wd/hub/session/103996be-f084-4354-b87f-ada59c74be1a/element/1/clear 200 10853 ms - 76 
[HTTP] --> POST /wd/hub/session/103996be-f084-4354-b87f-ada59c74be1a/element/1/value {"id":"1","value":["DS"]}
[HTTP] <-- POST /wd/hub/session/103996be-f084-4354-b87f-ada59c74be1a/element/1/value 200 4962 ms - 76 
[HTTP] --> GET /wd/hub/session/103996be-f084-4354-b87f-ada59c74be1a/window/current/size {}
[HTTP] <-- GET /wd/hub/session/103996be-f084-4354-b87f-ada59c74be1a/window/current/size 200 9 ms - 100 
[HTTP] --> POST /wd/hub/session/103996be-f084-4354-b87f-ada59c74be1a/elements {"using":"-android uiautomator","value":"new UiSelector().className(\"android.widget.Button\").text(\"proceed\").resourceId(\"com.next.nlp:id/proceed_btn\").instance(0)"}
[HTTP] <-- POST /wd/hub/session/103996be-f084-4354-b87f-ada59c74be1a/elements 200 133 ms - 89 
[HTTP] --> GET /wd/hub/session/103996be-f084-4354-b87f-ada59c74be1a {}
[HTTP] <-- GET /wd/hub/session/103996be-f084-4354-b87f-ada59c74be1a 200 2 ms - 1195 
[HTTP] --> GET /wd/hub/session/103996be-f084-4354-b87f-ada59c74be1a {}
[HTTP] <-- GET /wd/hub/session/103996be-f084-4354-b87f-ada59c74be1a 200 3 ms - 1195 
[HTTP] --> GET /wd/hub/session/103996be-f084-4354-b87f-ada59c74be1a {}
[HTTP] <-- GET /wd/hub/session/103996be-f084-4354-b87f-ada59c74be1a 200 3 ms - 1195 
[HTTP] --> GET /wd/hub/session/103996be-f084-4354-b87f-ada59c74be1a {}
[HTTP] <-- GET /wd/hub/session/103996be-f084-4354-b87f-ada59c74be1a 200 3 ms - 1195 
[HTTP] --> GET /wd/hub/session/103996be-f084-4354-b87f-ada59c74be1a/element/2/location {}
[HTTP] <-- GET /wd/hub/session/103996be-f084-4354-b87f-ada59c74be1a/element/2/location 200 56 ms - 90 
[HTTP] --> POST /wd/hub/session/103996be-f084-4354-b87f-ada59c74be1a/touch/perform {"actions":[{"action":"tap","options":{"element":"2","x":1,"y":1}}]}
[HTTP] <-- POST /wd/hub/session/103996be-f084-4354-b87f-ada59c74be1a/touch/perform 200 364 ms - 76 
[HTTP] --> GET /wd/hub/session/103996be-f084-4354-b87f-ada59c74be1a/window/current/size {}
[HTTP] <-- GET /wd/hub/session/103996be-f084-4354-b87f-ada59c74be1a/window/current/size 200 9 ms - 100 
[HTTP] --> POST /wd/hub/session/103996be-f084-4354-b87f-ada59c74be1a/elements {"using":"xpath","value":"//hierarchy/android.widget.FrameLayout[1]/android.widget.LinearLayout[1]/android.widget.FrameLayout[1]/android.widget.FrameLayout[1]/android.widget.FrameLayout[1]/android.widget.RelativeLayout[1]/android.widget.FrameLayout[1]/android.widget.LinearLayout[1]/android.support.v4.view.ViewPager[1]/android.widget.RelativeLayout[1]/android.widget.ScrollView[1]/android.widget.RelativeLayout[1]/android.widget.LinearLayout[1]/android.widget.FrameLayout[1]"}
[HTTP] <-- POST /wd/hub/session/103996be-f084-4354-b87f-ada59c74be1a/elements 200 30111 ms - 74 
[HTTP] --> GET /wd/hub/session/103996be-f084-4354-b87f-ada59c74be1a/context {}
[HTTP] <-- GET /wd/hub/session/103996be-f084-4354-b87f-ada59c74be1a/context 200 5 ms - 84 
[HTTP] --> GET /wd/hub/session/103996be-f084-4354-b87f-ada59c74be1a/contexts {}
[HTTP] <-- GET /wd/hub/session/103996be-f084-4354-b87f-ada59c74be1a/contexts 200 107 ms - 86 
[HTTP] --> POST /wd/hub/session/103996be-f084-4354-b87f-ada59c74be1a/context {"name":"NATIVE_APP"}
[HTTP] <-- POST /wd/hub/session/103996be-f084-4354-b87f-ada59c74be1a/context 200 90 ms - 76 
[HTTP] --> GET /wd/hub/session/103996be-f084-4354-b87f-ada59c74be1a/screenshot {}
[HTTP] <-- GET /wd/hub/session/103996be-f084-4354-b87f-ada59c74be1a/screenshot 200 3851 ms - 1160718 
[HTTP] --> POST /wd/hub/session/103996be-f084-4354-b87f-ada59c74be1a/context {"name":"NATIVE_APP"}
[HTTP] <-- POST /wd/hub/session/103996be-f084-4354-b87f-ada59c74be1a/context 200 75 ms - 76 
[HTTP] --> GET /wd/hub/session/103996be-f084-4354-b87f-ada59c74be1a/window/current/size {}
[HTTP] <-- GET /wd/hub/session/103996be-f084-4354-b87f-ada59c74be1a/window/current/size 200 16 ms - 100 
[HTTP] --> POST /wd/hub/session/103996be-f084-4354-b87f-ada59c74be1a/elements {"using":"xpath","value":"//hierarchy/android.widget.FrameLayout[1]/android.widget.LinearLayout[1]/android.widget.FrameLayout[1]/android.widget.FrameLayout[1]/android.widget.FrameLayout[1]/android.widget.LinearLayout[1]/android.widget.ListView[1]/android.widget.LinearLayout[1]/android.widget.LinearLayout[1]/android.widget.TextView[2]"}
[HTTP] <-- POST /wd/hub/session/103996be-f084-4354-b87f-ada59c74be1a/elements 200 30146 ms - 74 
[HTTP] --> GET /wd/hub/session/103996be-f084-4354-b87f-ada59c74be1a/context {}
[HTTP] <-- GET /wd/hub/session/103996be-f084-4354-b87f-ada59c74be1a/context 200 10 ms - 84 
[HTTP] --> GET /wd/hub/session/103996be-f084-4354-b87f-ada59c74be1a/contexts {}
[HTTP] <-- GET /wd/hub/session/103996be-f084-4354-b87f-ada59c74be1a/contexts 200 117 ms - 86 
[HTTP] --> POST /wd/hub/session/103996be-f084-4354-b87f-ada59c74be1a/context {"name":"NATIVE_APP"}
[HTTP] <-- POST /wd/hub/session/103996be-f084-4354-b87f-ada59c74be1a/context 200 117 ms - 76 
[HTTP] --> GET /wd/hub/session/103996be-f084-4354-b87f-ada59c74be1a/screenshot {}
[HTTP] <-- GET /wd/hub/session/103996be-f084-4354-b87f-ada59c74be1a/screenshot 200 4733 ms - 1162442 
[HTTP] --> POST /wd/hub/session/103996be-f084-4354-b87f-ada59c74be1a/context {"name":"NATIVE_APP"}
[HTTP] <-- POST /wd/hub/session/103996be-f084-4354-b87f-ada59c74be1a/context 200 124 ms - 76 
[HTTP] --> GET /wd/hub/session/103996be-f084-4354-b87f-ada59c74be1a/window/current/size {}
[HTTP] <-- GET /wd/hub/session/103996be-f084-4354-b87f-ada59c74be1a/window/current/size 200 8 ms - 100 
[HTTP] --> POST /wd/hub/session/103996be-f084-4354-b87f-ada59c74be1a/elements {"using":"-android uiautomator","value":"new UiSelector().className(\"android.widget.Button\").text(\"Yes\").resourceId(\"android:id/button1\").instance(1)"}
[HTTP] <-- POST /wd/hub/session/103996be-f084-4354-b87f-ada59c74be1a/elements 200 30441 ms - 74 
[HTTP] --> GET /wd/hub/session/103996be-f084-4354-b87f-ada59c74be1a/context {}
[HTTP] <-- GET /wd/hub/session/103996be-f084-4354-b87f-ada59c74be1a/context 200 6 ms - 84 
[HTTP] --> GET /wd/hub/session/103996be-f084-4354-b87f-ada59c74be1a/contexts {}
[HTTP] <-- GET /wd/hub/session/103996be-f084-4354-b87f-ada59c74be1a/contexts 200 114 ms - 86 
[HTTP] --> POST /wd/hub/session/103996be-f084-4354-b87f-ada59c74be1a/context {"name":"NATIVE_APP"}
[HTTP] <-- POST /wd/hub/session/103996be-f084-4354-b87f-ada59c74be1a/context 200 105 ms - 76 
[HTTP] --> GET /wd/hub/session/103996be-f084-4354-b87f-ada59c74be1a/screenshot {}
[HTTP] <-- GET /wd/hub/session/103996be-f084-4354-b87f-ada59c74be1a/screenshot 200 4644 ms - 1162150 
[HTTP] --> POST /wd/hub/session/103996be-f084-4354-b87f-ada59c74be1a/context {"name":"NATIVE_APP"}
[HTTP] <-- POST /wd/hub/session/103996be-f084-4354-b87f-ada59c74be1a/context 200 84 ms - 76 
[HTTP] --> GET /wd/hub/session/103996be-f084-4354-b87f-ada59c74be1a/window/current/size {}
[HTTP] <-- GET /wd/hub/session/103996be-f084-4354-b87f-ada59c74be1a/window/current/size 200 9 ms - 100 
[HTTP] --> POST /wd/hub/session/103996be-f084-4354-b87f-ada59c74be1a/elements {"using":"xpath","value":"//hierarchy/android.widget.FrameLayout[1]/android.widget.LinearLayout[1]/android.widget.FrameLayout[1]/android.widget.FrameLayout[1]/android.widget.FrameLayout[1]/android.support.v4.widget.DrawerLayout[1]/android.view.View[1]/android.widget.FrameLayout[1]/android.widget.FrameLayout[1]/android.widget.RelativeLayout[1]/android.support.v7.widget.RecyclerView[1]/android.widget.LinearLayout[1]/android.widget.FrameLayout[1]/android.widget.LinearLayout[1]"}
[HTTP] <-- POST /wd/hub/session/103996be-f084-4354-b87f-ada59c74be1a/elements - - ms - - 
