Suite/Test/Step Name,Browser,Description,Start time,End time,Duration,Status
Login,,,2018-09-05 10:46:18,2018-09-05 10:48:40,2m - 21.210s,FAILED
,,,,,,
Test Cases/GLogin,,,2018-09-05 10:46:19,2018-09-05 10:48:37,2m - 18.240s,FAILED
startApplication,,,2018-09-05 10:46:20,2018-09-05 10:46:53,33.340s,PASSED
delay,,,2018-09-05 10:46:53,2018-09-05 10:47:53,1m - 0.062s,PASSED
verifyElementVisible,,,2018-09-05 10:47:53,2018-09-05 10:47:54,1.210s,PASSED
tap,,,2018-09-05 10:47:54,2018-09-05 10:47:55,0.755s,PASSED
setText,,Enter SchoolCode,2018-09-05 10:47:55,2018-09-05 10:48:37,42.221s,FAILED
