Suite/Test/Step Name,Browser,Description,Start time,End time,Duration,Status
Login,,,2018-08-30 12:46:28,2018-08-30 12:50:34,4m - 5.619s,PASSED
,,,,,,
Test Cases/GLogin,,,2018-08-30 12:46:29,2018-08-30 12:50:25,3m - 56.437s,PASSED
startApplication,,Launch Application,2018-08-30 12:46:29,2018-08-30 12:48:07,1m - 38.105s,PASSED
"Comment - ""Launch from Kobiton""",,,2018-08-30 12:48:07,2018-08-30 12:48:07,0.002s,PASSED
setText,,Enter SchoolCode,2018-08-30 12:48:07,2018-08-30 12:48:27,20.109s,PASSED
tap,,"Click on ""Proceed"" button
",2018-08-30 12:48:27,2018-08-30 12:48:29,1.521s,PASSED
tap,,"Click on ""Login with Google"" Button",2018-08-30 12:48:29,2018-08-30 12:48:33,4.461s,PASSED
setText,,Enter Gmail ,2018-08-30 12:48:33,2018-08-30 12:48:51,17.356s,PASSED
tap,,Click on Next,2018-08-30 12:48:51,2018-08-30 12:48:52,1.527s,PASSED
setText,,Enter Password for gmail account,2018-08-30 12:48:52,2018-08-30 12:49:04,11.332s,PASSED
tap,,Click on Next,2018-08-30 12:49:04,2018-08-30 12:49:05,1.146s,PASSED
tap,,Accept Terms and Services,2018-08-30 12:49:05,2018-08-30 12:49:07,2.610s,PASSED
tap,,Scroll to text for Accept button to be enabled,2018-08-30 12:49:07,2018-08-30 12:49:23,15.163s,PASSED
tap,,Click on Accept,2018-08-30 12:49:23,2018-08-30 12:49:26,3.871s,PASSED
tap,,Choose the desired Gmail login which is registered with NLP,2018-08-30 12:49:26,2018-08-30 12:49:32,5.602s,PASSED
tap,,"Choose ""Yes"" from the Push Notifications Popup",2018-08-30 12:49:32,2018-08-30 12:49:55,22.927s,PASSED
delay,,,2018-08-30 12:49:55,2018-08-30 12:50:25,30.063s,PASSED
"Statement - com.kms.katalon.core.configuration.RunConfiguration.getProjectDir() + 0 == ""Users\lakshmikanthk\Downloads\app-nlp-debug.apk""",,,2018-08-30 12:50:25,2018-08-30 12:50:25,0.004s,NOT_RUN
startApplication,,,2018-08-30 12:50:25,2018-08-30 12:50:25,0.002s,NOT_RUN
waitForElementPresent,,,2018-08-30 12:50:25,2018-08-30 12:50:25,0.002s,NOT_RUN
