<?xml version="1.0" encoding="UTF-8" standalone="no"?>
<!DOCTYPE log SYSTEM "logger.dtd">
<log>
<record>
  <date>2019-04-02T12:38:42</date>
  <millis>1554188922455</millis>
  <sequence>0</sequence>
  <level>START</level>
  <class>com.kms.katalon.core.logging.XmlKeywordLogger</class>
  <method>startSuite</method>
  <thread>1</thread>
  <message>Start Test Suite : Test Suites/NLP Prod Testcase Execution/Staff Login Flow Execution</message>
  <nestedLevel>0</nestedLevel>
  <property name="name">Staff Login Flow Execution</property>
  <property name="description"></property>
  <property name="id">Test Suites/NLP Prod Testcase Execution/Staff Login Flow Execution</property>
</record>
<record>
  <date>2019-04-02T12:38:42</date>
  <millis>1554188922500</millis>
  <sequence>1</sequence>
  <level>RUN_DATA</level>
  <class>com.kms.katalon.core.logging.XmlKeywordLogger</class>
  <method>logMessage</method>
  <thread>1</thread>
  <message>hostName = lakshmikanthk - Next-Hyd-2268.nexteducation.com</message>
  <nestedLevel>0</nestedLevel>
  <property name="hostName">lakshmikanthk - Next-Hyd-2268.nexteducation.com</property>
</record>
<record>
  <date>2019-04-02T12:38:42</date>
  <millis>1554188922501</millis>
  <sequence>2</sequence>
  <level>RUN_DATA</level>
  <class>com.kms.katalon.core.logging.XmlKeywordLogger</class>
  <method>logMessage</method>
  <thread>1</thread>
  <message>os = Windows 7 64bit</message>
  <nestedLevel>0</nestedLevel>
  <property name="os">Windows 7 64bit</property>
</record>
<record>
  <date>2019-04-02T12:38:42</date>
  <millis>1554188922502</millis>
  <sequence>3</sequence>
  <level>RUN_DATA</level>
  <class>com.kms.katalon.core.logging.XmlKeywordLogger</class>
  <method>logMessage</method>
  <thread>1</thread>
  <message>hostAddress = 192.168.56.1</message>
  <nestedLevel>0</nestedLevel>
  <property name="hostAddress">192.168.56.1</property>
</record>
<record>
  <date>2019-04-02T12:38:42</date>
  <millis>1554188922504</millis>
  <sequence>4</sequence>
  <level>RUN_DATA</level>
  <class>com.kms.katalon.core.logging.XmlKeywordLogger</class>
  <method>logMessage</method>
  <thread>1</thread>
  <message>katalonVersion = 6.1.0.1</message>
  <nestedLevel>0</nestedLevel>
  <property name="katalonVersion">6.1.0.1</property>
</record>
<record>
  <date>2019-04-02T12:38:42</date>
  <millis>1554188922870</millis>
  <sequence>5</sequence>
  <level>START</level>
  <class>com.kms.katalon.core.logging.XmlKeywordLogger</class>
  <method>startTest</method>
  <thread>1</thread>
  <message>Start Test Case : Test Cases/Staff Login/Login/Verify if able to successfully launch aplication</message>
  <nestedLevel>1</nestedLevel>
  <property name="name">Test Cases/Staff Login/Login/Verify if able to successfully launch aplication</property>
  <property name="description"></property>
  <property name="id">Test Cases/Staff Login/Login/Verify if able to successfully launch aplication</property>
  <property name="source">C:\\Users\\lakshmikanthk\\Katalon Studio\\Mobile App Google Login\\Test Cases\\Staff Login\\Login\\Verify if able to successfully launch aplication.tc</property>
  <property name="isOptional">false</property>
</record>
<record>
  <date>2019-04-02T12:38:43</date>
  <millis>1554188923390</millis>
  <sequence>7</sequence>
  <level>START</level>
  <class>com.kms.katalon.core.logging.XmlKeywordLogger</class>
  <method>startKeyword</method>
  <thread>1</thread>
  <message>Start action : startApplication(\&amp;quot;C:\\Users\\lakshmikanthk\\Downloads\\NLP_1_3_9_(39)-3.apk\&amp;quot;, true)</message>
  <nestedLevel>1</nestedLevel>
  <property name="startLine">17</property>
  <property name="stepIndex">1</property>
  <property name="description">Browse the applciation in computer</property>
</record>
<record>
  <date>2019-04-02T12:38:43</date>
  <millis>1554188923908</millis>
  <sequence>9</sequence>
  <level>INFO</level>
  <class>com.kms.katalon.core.logging.XmlKeywordLogger</class>
  <method>logMessage</method>
  <thread>1</thread>
  <message>User set preference: [&amp;apos;unicodeKeyboard&amp;apos;, &amp;apos;true&amp;apos;]</message>
  <nestedLevel>1</nestedLevel>
</record>
<record>
  <date>2019-04-02T12:38:43</date>
  <millis>1554188923909</millis>
  <sequence>10</sequence>
  <level>INFO</level>
  <class>com.kms.katalon.core.logging.XmlKeywordLogger</class>
  <method>logMessage</method>
  <thread>1</thread>
  <message>User set preference: [&amp;apos;appWaitActivity&amp;apos;, &amp;apos;*&amp;apos;]</message>
  <nestedLevel>1</nestedLevel>
</record>
<record>
  <date>2019-04-02T12:38:43</date>
  <millis>1554188923909</millis>
  <sequence>11</sequence>
  <level>INFO</level>
  <class>com.kms.katalon.core.logging.XmlKeywordLogger</class>
  <method>logMessage</method>
  <thread>1</thread>
  <message>User set preference: [&amp;apos;deviceId&amp;apos;, &amp;apos;4d002db30eec21d9&amp;apos;]</message>
  <nestedLevel>1</nestedLevel>
</record>
<record>
  <date>2019-04-02T12:38:57</date>
  <millis>1554188937505</millis>
  <sequence>12</sequence>
  <level>INFO</level>
  <class>com.kms.katalon.core.logging.XmlKeywordLogger</class>
  <method>logMessage</method>
  <thread>1</thread>
  <message>Appium server started on port 61,106</message>
  <nestedLevel>1</nestedLevel>
</record>
