<?xml version="1.0" encoding="UTF-8" standalone="no"?>
<!DOCTYPE log SYSTEM "logger.dtd">
<log>
<record>
  <date>2018-09-26T17:38:07</date>
  <millis>1537963687996</millis>
  <sequence>0</sequence>
  <level>START</level>
  <class>com.kms.katalon.core.logging.KeywordLogger</class>
  <method>startSuite</method>
  <thread>1</thread>
  <message>Start Test Suite : Test Suites/Admin Login Flow/Admin Login Flow Execution</message>
  <nestedLevel>0</nestedLevel>
  <property name="name">Admin Login Flow Execution</property>
  <property name="description"></property>
  <property name="id">Test Suites/Admin Login Flow/Admin Login Flow Execution</property>
</record>
<record>
  <date>2018-09-26T17:38:08</date>
  <millis>1537963688044</millis>
  <sequence>1</sequence>
  <level>RUN_DATA</level>
  <class>com.kms.katalon.core.logging.KeywordLogger</class>
  <method>logMessage</method>
  <thread>1</thread>
  <message>Logging run data &amp;apos;hostName&amp;apos; with value &amp;apos;lakshmikanthk - Next-Hyd-2268.nexteducation.com&amp;apos;</message>
  <nestedLevel>0</nestedLevel>
  <property name="hostName">lakshmikanthk - Next-Hyd-2268.nexteducation.com</property>
</record>
<record>
  <date>2018-09-26T17:38:08</date>
  <millis>1537963688050</millis>
  <sequence>2</sequence>
  <level>RUN_DATA</level>
  <class>com.kms.katalon.core.logging.KeywordLogger</class>
  <method>logMessage</method>
  <thread>1</thread>
  <message>Logging run data &amp;apos;os&amp;apos; with value &amp;apos;Windows 7 64bit&amp;apos;</message>
  <nestedLevel>0</nestedLevel>
  <property name="os">Windows 7 64bit</property>
</record>
<record>
  <date>2018-09-26T17:38:08</date>
  <millis>1537963688065</millis>
  <sequence>3</sequence>
  <level>RUN_DATA</level>
  <class>com.kms.katalon.core.logging.KeywordLogger</class>
  <method>logMessage</method>
  <thread>1</thread>
  <message>Logging run data &amp;apos;hostAddress&amp;apos; with value &amp;apos;192.168.33.174&amp;apos;</message>
  <nestedLevel>0</nestedLevel>
  <property name="hostAddress">192.168.33.174</property>
</record>
<record>
  <date>2018-09-26T17:38:08</date>
  <millis>1537963688081</millis>
  <sequence>4</sequence>
  <level>RUN_DATA</level>
  <class>com.kms.katalon.core.logging.KeywordLogger</class>
  <method>logMessage</method>
  <thread>1</thread>
  <message>Logging run data &amp;apos;katalonVersion&amp;apos; with value &amp;apos;5.7.0.1&amp;apos;</message>
  <nestedLevel>0</nestedLevel>
  <property name="katalonVersion">5.7.0.1</property>
</record>
<record>
  <date>2018-09-26T17:38:08</date>
  <millis>1537963688736</millis>
  <sequence>5</sequence>
  <level>START</level>
  <class>com.kms.katalon.core.logging.KeywordLogger</class>
  <method>startTest</method>
  <thread>1</thread>
  <message>Start Test Case : Test Cases/Staff Login/Login/Verify if able to successfully launch aplication</message>
  <nestedLevel>1</nestedLevel>
  <property name="name">Test Cases/Staff Login/Login/Verify if able to successfully launch aplication</property>
  <property name="description"></property>
  <property name="id">Test Cases/Staff Login/Login/Verify if able to successfully launch aplication</property>
  <property name="source">C:\\Users\\lakshmikanthk\\Katalon Studio\\Mobile App Google Login\\Test Cases\\Staff Login\\Login\\Verify if able to successfully launch aplication.tc</property>
  <property name="isOptional">false</property>
</record>
<record>
  <date>2018-09-26T17:38:08</date>
  <millis>1537963688796</millis>
  <sequence>6</sequence>
  <level>INFO</level>
  <class>com.kms.katalon.core.logging.KeywordLogger</class>
  <method>logMessage</method>
  <thread>1</thread>
  <message>Evaluating variables for test case</message>
  <nestedLevel>1</nestedLevel>
</record>
<record>
  <date>2018-09-26T17:38:09</date>
  <millis>1537963689470</millis>
  <sequence>7</sequence>
  <level>START</level>
  <class>com.kms.katalon.core.logging.KeywordLogger</class>
  <method>startKeyword</method>
  <thread>1</thread>
  <message>Start action : startApplication</message>
  <nestedLevel>1</nestedLevel>
  <property name="startLine">17</property>
  <property name="stepIndex">1</property>
  <property name="description">Browse the applciation in computer</property>
</record>
<record>
  <date>2018-09-26T17:38:09</date>
  <millis>1537963689669</millis>
  <sequence>8</sequence>
  <level>INFO</level>
  <class>com.kms.katalon.core.logging.KeywordLogger</class>
  <method>logMessage</method>
  <thread>1</thread>
  <message>Starting app at: &amp;apos;C:\\Users\\lakshmikanthk\\Downloads\\app-nlp-debug (2).apk&amp;apos;</message>
  <nestedLevel>1</nestedLevel>
</record>
<record>
  <date>2018-09-26T17:38:09</date>
  <millis>1537963689734</millis>
  <sequence>9</sequence>
  <level>INFO</level>
  <class>com.kms.katalon.core.logging.KeywordLogger</class>
  <method>logMessage</method>
  <thread>1</thread>
  <message>User set preference: [&amp;apos;unicodeKeyboard&amp;apos;, &amp;apos;true&amp;apos;]</message>
  <nestedLevel>1</nestedLevel>
</record>
<record>
  <date>2018-09-26T17:38:09</date>
  <millis>1537963689734</millis>
  <sequence>10</sequence>
  <level>INFO</level>
  <class>com.kms.katalon.core.logging.KeywordLogger</class>
  <method>logMessage</method>
  <thread>1</thread>
  <message>User set preference: [&amp;apos;appWaitActivity&amp;apos;, &amp;apos;*&amp;apos;]</message>
  <nestedLevel>1</nestedLevel>
</record>
<record>
  <date>2018-09-26T17:38:09</date>
  <millis>1537963689734</millis>
  <sequence>11</sequence>
  <level>INFO</level>
  <class>com.kms.katalon.core.logging.KeywordLogger</class>
  <method>logMessage</method>
  <thread>1</thread>
  <message>User set preference: [&amp;apos;deviceId&amp;apos;, &amp;apos;4d002db30eec21d9&amp;apos;]</message>
  <nestedLevel>1</nestedLevel>
</record>
<record>
  <date>2018-09-26T17:38:16</date>
  <millis>1537963696147</millis>
  <sequence>12</sequence>
  <level>INFO</level>
  <class>com.kms.katalon.core.logging.KeywordLogger</class>
  <method>logMessage</method>
  <thread>1</thread>
  <message>Appium server started on port 49,650</message>
  <nestedLevel>1</nestedLevel>
</record>
<record>
  <date>2018-09-26T17:39:47</date>
  <millis>1537963787078</millis>
  <sequence>14</sequence>
  <level>RUN_DATA</level>
  <class>com.kms.katalon.core.logging.KeywordLogger</class>
  <method>logMessage</method>
  <thread>1</thread>
  <message>Logging run data &amp;apos;appiumVersion&amp;apos; with value &amp;apos;1.7.2&amp;apos;</message>
  <nestedLevel>1</nestedLevel>
  <property name="appiumVersion">1.7.2</property>
</record>
<record>
  <date>2018-09-26T17:39:47</date>
  <millis>1537963787128</millis>
  <sequence>15</sequence>
  <level>RUN_DATA</level>
  <class>com.kms.katalon.core.logging.KeywordLogger</class>
  <method>logMessage</method>
  <thread>1</thread>
  <message>Logging run data &amp;apos;deviceId&amp;apos; with value &amp;apos;4d002db30eec21d9&amp;apos;</message>
  <nestedLevel>1</nestedLevel>
  <property name="deviceId">4d002db30eec21d9</property>
</record>
<record>
  <date>2018-09-26T17:39:47</date>
  <millis>1537963787128</millis>
  <sequence>16</sequence>
  <level>RUN_DATA</level>
  <class>com.kms.katalon.core.logging.KeywordLogger</class>
  <method>logMessage</method>
  <thread>1</thread>
  <message>Logging run data &amp;apos;deviceName&amp;apos; with value &amp;apos;samsung GT-I9500 (Android 5.0.1)&amp;apos;</message>
  <nestedLevel>1</nestedLevel>
  <property name="deviceName">samsung GT-I9500 (Android 5.0.1)</property>
</record>
<record>
  <date>2018-09-26T17:39:47</date>
  <millis>1537963787128</millis>
  <sequence>17</sequence>
  <level>RUN_DATA</level>
  <class>com.kms.katalon.core.logging.KeywordLogger</class>
  <method>logMessage</method>
  <thread>1</thread>
  <message>Logging run data &amp;apos;deviceModel&amp;apos; with value &amp;apos;GT-I9500&amp;apos;</message>
  <nestedLevel>1</nestedLevel>
  <property name="deviceModel">GT-I9500</property>
</record>
<record>
  <date>2018-09-26T17:39:47</date>
  <millis>1537963787130</millis>
  <sequence>18</sequence>
  <level>RUN_DATA</level>
  <class>com.kms.katalon.core.logging.KeywordLogger</class>
  <method>logMessage</method>
  <thread>1</thread>
  <message>Logging run data &amp;apos;deviceManufacturer&amp;apos; with value &amp;apos;samsung&amp;apos;</message>
  <nestedLevel>1</nestedLevel>
  <property name="deviceManufacturer">samsung</property>
</record>
<record>
  <date>2018-09-26T17:39:47</date>
  <millis>1537963787131</millis>
  <sequence>19</sequence>
  <level>RUN_DATA</level>
  <class>com.kms.katalon.core.logging.KeywordLogger</class>
  <method>logMessage</method>
  <thread>1</thread>
  <message>Logging run data &amp;apos;deviceOS&amp;apos; with value &amp;apos;Android&amp;apos;</message>
  <nestedLevel>1</nestedLevel>
  <property name="deviceOS">Android</property>
</record>
<record>
  <date>2018-09-26T17:39:47</date>
  <millis>1537963787134</millis>
  <sequence>20</sequence>
  <level>RUN_DATA</level>
  <class>com.kms.katalon.core.logging.KeywordLogger</class>
  <method>logMessage</method>
  <thread>1</thread>
  <message>Logging run data &amp;apos;deviceOSVersion&amp;apos; with value &amp;apos;5.0.1&amp;apos;</message>
  <nestedLevel>1</nestedLevel>
  <property name="deviceOSVersion">5.0.1</property>
</record>
<record>
  <date>2018-09-26T17:39:47</date>
  <millis>1537963787189</millis>
  <sequence>21</sequence>
  <level>PASSED</level>
  <class>com.kms.katalon.core.logging.KeywordLogger</class>
  <method>logMessage</method>
  <thread>1</thread>
  <message>Started app at: &amp;apos;C:\\Users\\lakshmikanthk\\Downloads\\app-nlp-debug (2).apk&amp;apos;</message>
  <nestedLevel>1</nestedLevel>
</record>
<record>
  <date>2018-09-26T17:39:47</date>
  <millis>1537963787189</millis>
  <sequence>22</sequence>
  <level>END</level>
  <class>com.kms.katalon.core.logging.KeywordLogger</class>
  <method>endKeyword</method>
  <thread>1</thread>
  <message>End action : startApplication</message>
  <nestedLevel>1</nestedLevel>
</record>
<record>
  <date>2018-09-26T17:39:47</date>
  <millis>1537963787189</millis>
  <sequence>23</sequence>
  <level>START</level>
  <class>com.kms.katalon.core.logging.KeywordLogger</class>
  <method>startKeyword</method>
  <thread>1</thread>
  <message>Start action : delay</message>
  <nestedLevel>1</nestedLevel>
  <property name="startLine">20</property>
  <property name="stepIndex">2</property>
</record>
<record>
  <date>2018-09-26T17:39:47</date>
  <millis>1537963787267</millis>
  <sequence>24</sequence>
  <level>INFO</level>
  <class>com.kms.katalon.core.logging.KeywordLogger</class>
  <method>logMessage</method>
  <thread>1</thread>
  <message>Delaying browser in 30 second(s)</message>
  <nestedLevel>1</nestedLevel>
</record>
<record>
  <date>2018-09-26T17:40:17</date>
  <millis>1537963817240</millis>
  <sequence>25</sequence>
  <level>PASSED</level>
  <class>com.kms.katalon.core.logging.KeywordLogger</class>
  <method>logMessage</method>
  <thread>1</thread>
  <message>Delayed 30 second(s)</message>
  <nestedLevel>1</nestedLevel>
</record>
<record>
  <date>2018-09-26T17:40:17</date>
  <millis>1537963817241</millis>
  <sequence>26</sequence>
  <level>END</level>
  <class>com.kms.katalon.core.logging.KeywordLogger</class>
  <method>endKeyword</method>
  <thread>1</thread>
  <message>End action : delay</message>
  <nestedLevel>1</nestedLevel>
</record>
<record>
  <date>2018-09-26T17:40:17</date>
  <millis>1537963817242</millis>
  <sequence>27</sequence>
  <level>PASSED</level>
  <class>com.kms.katalon.core.logging.KeywordLogger</class>
  <method>logMessage</method>
  <thread>1</thread>
  <message>Test Cases/Staff Login/Login/Verify if able to successfully launch aplication</message>
  <nestedLevel>1</nestedLevel>
</record>
<record>
  <date>2018-09-26T17:40:17</date>
  <millis>1537963817244</millis>
  <sequence>28</sequence>
  <level>END</level>
  <class>com.kms.katalon.core.logging.KeywordLogger</class>
  <method>endTest</method>
  <thread>1</thread>
  <message>End Test Case : Test Cases/Staff Login/Login/Verify if able to successfully launch aplication</message>
  <nestedLevel>0</nestedLevel>
</record>
<record>
  <date>2018-09-26T17:40:17</date>
  <millis>1537963817279</millis>
  <sequence>29</sequence>
  <level>START</level>
  <class>com.kms.katalon.core.logging.KeywordLogger</class>
  <method>startTest</method>
  <thread>1</thread>
  <message>Start Test Case : Test Cases/Staff Login/Login/Verify if able to enter school code</message>
  <nestedLevel>1</nestedLevel>
  <property name="name">Test Cases/Staff Login/Login/Verify if able to enter school code</property>
  <property name="description"></property>
  <property name="id">Test Cases/Staff Login/Login/Verify if able to enter school code</property>
  <property name="source">C:\\Users\\lakshmikanthk\\Katalon Studio\\Mobile App Google Login\\Test Cases\\Staff Login\\Login\\Verify if able to enter school code.tc</property>
  <property name="isOptional">false</property>
</record>
<record>
  <date>2018-09-26T17:40:17</date>
  <millis>1537963817311</millis>
  <sequence>30</sequence>
  <level>INFO</level>
  <class>com.kms.katalon.core.logging.KeywordLogger</class>
  <method>logMessage</method>
  <thread>1</thread>
  <message>Evaluating variables for test case</message>
  <nestedLevel>1</nestedLevel>
</record>
<record>
  <date>2018-09-26T17:40:18</date>
  <millis>1537963818044</millis>
  <sequence>31</sequence>
  <level>START</level>
  <class>com.kms.katalon.core.logging.KeywordLogger</class>
  <method>startKeyword</method>
  <thread>1</thread>
  <message>Start action : setText</message>
  <nestedLevel>1</nestedLevel>
  <property name="startLine">17</property>
  <property name="stepIndex">1</property>
  <property name="description">Enter School Code</property>
</record>
<record>
  <date>2018-09-26T17:40:18</date>
  <millis>1537963818059</millis>
  <sequence>32</sequence>
  <level>INFO</level>
  <class>com.kms.katalon.core.logging.KeywordLogger</class>
  <method>logMessage</method>
  <thread>1</thread>
  <message>Finding Test Object with id &amp;apos;Object Repository/Google Sign in/android.widget.EditText0&amp;apos;</message>
  <nestedLevel>1</nestedLevel>
</record>
<record>
  <date>2018-09-26T17:40:18</date>
  <millis>1537963818156</millis>
  <sequence>33</sequence>
  <level>INFO</level>
  <class>com.kms.katalon.core.logging.KeywordLogger</class>
  <method>logMessage</method>
  <thread>1</thread>
  <message>Checking object</message>
  <nestedLevel>1</nestedLevel>
</record>
<record>
  <date>2018-09-26T17:40:18</date>
  <millis>1537963818156</millis>
  <sequence>34</sequence>
  <level>INFO</level>
  <class>com.kms.katalon.core.logging.KeywordLogger</class>
  <method>logMessage</method>
  <thread>1</thread>
  <message>Checking timeout</message>
  <nestedLevel>1</nestedLevel>
</record>
<record>
  <date>2018-09-26T17:40:36</date>
  <millis>1537963836912</millis>
  <sequence>35</sequence>
  <level>PASSED</level>
  <class>com.kms.katalon.core.logging.KeywordLogger</class>
  <method>logMessage</method>
  <thread>1</thread>
  <message>Text &amp;apos;DS&amp;apos; has been set to element &amp;apos;Object Repository/Google Sign in/android.widget.EditText0&amp;apos;</message>
  <nestedLevel>1</nestedLevel>
</record>
<record>
  <date>2018-09-26T17:40:36</date>
  <millis>1537963836914</millis>
  <sequence>36</sequence>
  <level>END</level>
  <class>com.kms.katalon.core.logging.KeywordLogger</class>
  <method>endKeyword</method>
  <thread>1</thread>
  <message>End action : setText</message>
  <nestedLevel>1</nestedLevel>
</record>
<record>
  <date>2018-09-26T17:40:36</date>
  <millis>1537963836915</millis>
  <sequence>37</sequence>
  <level>PASSED</level>
  <class>com.kms.katalon.core.logging.KeywordLogger</class>
  <method>logMessage</method>
  <thread>1</thread>
  <message>Test Cases/Staff Login/Login/Verify if able to enter school code</message>
  <nestedLevel>1</nestedLevel>
</record>
<record>
  <date>2018-09-26T17:40:36</date>
  <millis>1537963836916</millis>
  <sequence>38</sequence>
  <level>END</level>
  <class>com.kms.katalon.core.logging.KeywordLogger</class>
  <method>endTest</method>
  <thread>1</thread>
  <message>End Test Case : Test Cases/Staff Login/Login/Verify if able to enter school code</message>
  <nestedLevel>0</nestedLevel>
</record>
<record>
  <date>2018-09-26T17:40:36</date>
  <millis>1537963836924</millis>
  <sequence>39</sequence>
  <level>START</level>
  <class>com.kms.katalon.core.logging.KeywordLogger</class>
  <method>startTest</method>
  <thread>1</thread>
  <message>Start Test Case : Test Cases/Staff Login/Login/Verify if able to click on proceed after entering school code</message>
  <nestedLevel>1</nestedLevel>
  <property name="name">Test Cases/Staff Login/Login/Verify if able to click on proceed after entering school code</property>
  <property name="description"></property>
  <property name="id">Test Cases/Staff Login/Login/Verify if able to click on proceed after entering school code</property>
  <property name="source">C:\\Users\\lakshmikanthk\\Katalon Studio\\Mobile App Google Login\\Test Cases\\Staff Login\\Login\\Verify if able to click on proceed after entering school code.tc</property>
  <property name="isOptional">false</property>
</record>
<record>
  <date>2018-09-26T17:40:36</date>
  <millis>1537963836976</millis>
  <sequence>40</sequence>
  <level>INFO</level>
  <class>com.kms.katalon.core.logging.KeywordLogger</class>
  <method>logMessage</method>
  <thread>1</thread>
  <message>Evaluating variables for test case</message>
  <nestedLevel>1</nestedLevel>
</record>
<record>
  <date>2018-09-26T17:40:37</date>
  <millis>1537963837435</millis>
  <sequence>41</sequence>
  <level>START</level>
  <class>com.kms.katalon.core.logging.KeywordLogger</class>
  <method>startKeyword</method>
  <thread>1</thread>
  <message>Start action : tap</message>
  <nestedLevel>1</nestedLevel>
  <property name="startLine">17</property>
  <property name="stepIndex">1</property>
  <property name="description">Click on Proceed</property>
</record>
<record>
  <date>2018-09-26T17:40:37</date>
  <millis>1537963837437</millis>
  <sequence>42</sequence>
  <level>INFO</level>
  <class>com.kms.katalon.core.logging.KeywordLogger</class>
  <method>logMessage</method>
  <thread>1</thread>
  <message>Finding Test Object with id &amp;apos;Object Repository/Google Sign in/android.widget.Button0 - proceed&amp;apos;</message>
  <nestedLevel>1</nestedLevel>
</record>
<record>
  <date>2018-09-26T17:40:37</date>
  <millis>1537963837531</millis>
  <sequence>43</sequence>
  <level>INFO</level>
  <class>com.kms.katalon.core.logging.KeywordLogger</class>
  <method>logMessage</method>
  <thread>1</thread>
  <message>Checking object</message>
  <nestedLevel>1</nestedLevel>
</record>
<record>
  <date>2018-09-26T17:40:37</date>
  <millis>1537963837531</millis>
  <sequence>44</sequence>
  <level>INFO</level>
  <class>com.kms.katalon.core.logging.KeywordLogger</class>
  <method>logMessage</method>
  <thread>1</thread>
  <message>Checking timeout</message>
  <nestedLevel>1</nestedLevel>
</record>
<record>
  <date>2018-09-26T17:40:37</date>
  <millis>1537963837532</millis>
  <sequence>45</sequence>
  <level>WARNING</level>
  <class>com.kms.katalon.core.logging.KeywordLogger</class>
  <method>logMessage</method>
  <thread>1</thread>
  <message>Timeout &amp;apos;0&amp;apos; is invalid. Using default page load timeout: &amp;apos;30&amp;apos;</message>
  <nestedLevel>1</nestedLevel>
</record>
<record>
  <date>2018-09-26T17:40:38</date>
  <millis>1537963838303</millis>
  <sequence>46</sequence>
  <level>PASSED</level>
  <class>com.kms.katalon.core.logging.KeywordLogger</class>
  <method>logMessage</method>
  <thread>1</thread>
  <message>Tapped on element &amp;apos;Object Repository/Google Sign in/android.widget.Button0 - proceed&amp;apos;</message>
  <nestedLevel>1</nestedLevel>
</record>
<record>
  <date>2018-09-26T17:40:38</date>
  <millis>1537963838304</millis>
  <sequence>47</sequence>
  <level>END</level>
  <class>com.kms.katalon.core.logging.KeywordLogger</class>
  <method>endKeyword</method>
  <thread>1</thread>
  <message>End action : tap</message>
  <nestedLevel>1</nestedLevel>
</record>
<record>
  <date>2018-09-26T17:40:38</date>
  <millis>1537963838305</millis>
  <sequence>48</sequence>
  <level>PASSED</level>
  <class>com.kms.katalon.core.logging.KeywordLogger</class>
  <method>logMessage</method>
  <thread>1</thread>
  <message>Test Cases/Staff Login/Login/Verify if able to click on proceed after entering school code</message>
  <nestedLevel>1</nestedLevel>
</record>
<record>
  <date>2018-09-26T17:40:38</date>
  <millis>1537963838308</millis>
  <sequence>49</sequence>
  <level>END</level>
  <class>com.kms.katalon.core.logging.KeywordLogger</class>
  <method>endTest</method>
  <thread>1</thread>
  <message>End Test Case : Test Cases/Staff Login/Login/Verify if able to click on proceed after entering school code</message>
  <nestedLevel>0</nestedLevel>
</record>
<record>
  <date>2018-09-26T17:40:38</date>
  <millis>1537963838315</millis>
  <sequence>50</sequence>
  <level>START</level>
  <class>com.kms.katalon.core.logging.KeywordLogger</class>
  <method>startTest</method>
  <thread>1</thread>
  <message>Start Test Case : Test Cases/Staff Login/Login/Verify if able to click on Login with Google button</message>
  <nestedLevel>1</nestedLevel>
  <property name="name">Test Cases/Staff Login/Login/Verify if able to click on Login with Google button</property>
  <property name="description"></property>
  <property name="id">Test Cases/Staff Login/Login/Verify if able to click on Login with Google button</property>
  <property name="source">C:\\Users\\lakshmikanthk\\Katalon Studio\\Mobile App Google Login\\Test Cases\\Staff Login\\Login\\Verify if able to click on Login with Google button.tc</property>
  <property name="isOptional">false</property>
</record>
<record>
  <date>2018-09-26T17:40:38</date>
  <millis>1537963838356</millis>
  <sequence>51</sequence>
  <level>INFO</level>
  <class>com.kms.katalon.core.logging.KeywordLogger</class>
  <method>logMessage</method>
  <thread>1</thread>
  <message>Evaluating variables for test case</message>
  <nestedLevel>1</nestedLevel>
</record>
<record>
  <date>2018-09-26T17:40:38</date>
  <millis>1537963838729</millis>
  <sequence>52</sequence>
  <level>START</level>
  <class>com.kms.katalon.core.logging.KeywordLogger</class>
  <method>startKeyword</method>
  <thread>1</thread>
  <message>Start action : tap</message>
  <nestedLevel>1</nestedLevel>
  <property name="startLine">17</property>
  <property name="stepIndex">1</property>
  <property name="description">Click on Login with Google</property>
</record>
<record>
  <date>2018-09-26T17:40:38</date>
  <millis>1537963838729</millis>
  <sequence>53</sequence>
  <level>INFO</level>
  <class>com.kms.katalon.core.logging.KeywordLogger</class>
  <method>logMessage</method>
  <thread>1</thread>
  <message>Finding Test Object with id &amp;apos;Object Repository/Google Sign in/android.widget.FrameLayout7&amp;apos;</message>
  <nestedLevel>1</nestedLevel>
</record>
<record>
  <date>2018-09-26T17:40:38</date>
  <millis>1537963838761</millis>
  <sequence>54</sequence>
  <level>INFO</level>
  <class>com.kms.katalon.core.logging.KeywordLogger</class>
  <method>logMessage</method>
  <thread>1</thread>
  <message>Checking object</message>
  <nestedLevel>1</nestedLevel>
</record>
<record>
  <date>2018-09-26T17:40:38</date>
  <millis>1537963838761</millis>
  <sequence>55</sequence>
  <level>INFO</level>
  <class>com.kms.katalon.core.logging.KeywordLogger</class>
  <method>logMessage</method>
  <thread>1</thread>
  <message>Checking timeout</message>
  <nestedLevel>1</nestedLevel>
</record>
<record>
  <date>2018-09-26T17:40:38</date>
  <millis>1537963838761</millis>
  <sequence>56</sequence>
  <level>WARNING</level>
  <class>com.kms.katalon.core.logging.KeywordLogger</class>
  <method>logMessage</method>
  <thread>1</thread>
  <message>Timeout &amp;apos;0&amp;apos; is invalid. Using default page load timeout: &amp;apos;30&amp;apos;</message>
  <nestedLevel>1</nestedLevel>
</record>
<record>
  <date>2018-09-26T17:40:42</date>
  <millis>1537963842242</millis>
  <sequence>57</sequence>
  <level>PASSED</level>
  <class>com.kms.katalon.core.logging.KeywordLogger</class>
  <method>logMessage</method>
  <thread>1</thread>
  <message>Tapped on element &amp;apos;Object Repository/Google Sign in/android.widget.FrameLayout7&amp;apos;</message>
  <nestedLevel>1</nestedLevel>
</record>
<record>
  <date>2018-09-26T17:40:42</date>
  <millis>1537963842243</millis>
  <sequence>58</sequence>
  <level>END</level>
  <class>com.kms.katalon.core.logging.KeywordLogger</class>
  <method>endKeyword</method>
  <thread>1</thread>
  <message>End action : tap</message>
  <nestedLevel>1</nestedLevel>
</record>
<record>
  <date>2018-09-26T17:40:42</date>
  <millis>1537963842243</millis>
  <sequence>59</sequence>
  <level>PASSED</level>
  <class>com.kms.katalon.core.logging.KeywordLogger</class>
  <method>logMessage</method>
  <thread>1</thread>
  <message>Test Cases/Staff Login/Login/Verify if able to click on Login with Google button</message>
  <nestedLevel>1</nestedLevel>
</record>
<record>
  <date>2018-09-26T17:40:42</date>
  <millis>1537963842244</millis>
  <sequence>60</sequence>
  <level>END</level>
  <class>com.kms.katalon.core.logging.KeywordLogger</class>
  <method>endTest</method>
  <thread>1</thread>
  <message>End Test Case : Test Cases/Staff Login/Login/Verify if able to click on Login with Google button</message>
  <nestedLevel>0</nestedLevel>
</record>
<record>
  <date>2018-09-26T17:40:42</date>
  <millis>1537963842277</millis>
  <sequence>61</sequence>
  <level>START</level>
  <class>com.kms.katalon.core.logging.KeywordLogger</class>
  <method>startTest</method>
  <thread>1</thread>
  <message>Start Test Case : Test Cases/Admin Login/Login/Verify if able to select the available login</message>
  <nestedLevel>1</nestedLevel>
  <property name="name">Test Cases/Admin Login/Login/Verify if able to select the available login</property>
  <property name="description"></property>
  <property name="id">Test Cases/Admin Login/Login/Verify if able to select the available login</property>
  <property name="source">C:\\Users\\lakshmikanthk\\Katalon Studio\\Mobile App Google Login\\Test Cases\\Admin Login\\Login\\Verify if able to select the available login.tc</property>
  <property name="isOptional">false</property>
</record>
<record>
  <date>2018-09-26T17:40:42</date>
  <millis>1537963842325</millis>
  <sequence>62</sequence>
  <level>INFO</level>
  <class>com.kms.katalon.core.logging.KeywordLogger</class>
  <method>logMessage</method>
  <thread>1</thread>
  <message>Evaluating variables for test case</message>
  <nestedLevel>1</nestedLevel>
</record>
<record>
  <date>2018-09-26T17:40:42</date>
  <millis>1537963842788</millis>
  <sequence>63</sequence>
  <level>START</level>
  <class>com.kms.katalon.core.logging.KeywordLogger</class>
  <method>startKeyword</method>
  <thread>1</thread>
  <message>Start action : tap</message>
  <nestedLevel>1</nestedLevel>
  <property name="startLine">17</property>
  <property name="stepIndex">1</property>
  <property name="description">Select the account to login</property>
</record>
<record>
  <date>2018-09-26T17:40:42</date>
  <millis>1537963842788</millis>
  <sequence>64</sequence>
  <level>INFO</level>
  <class>com.kms.katalon.core.logging.KeywordLogger</class>
  <method>logMessage</method>
  <thread>1</thread>
  <message>Finding Test Object with id &amp;apos;Object Repository/Admin Login/Tap on - demo.nexteducationgmail.com to login&amp;apos;</message>
  <nestedLevel>1</nestedLevel>
</record>
<record>
  <date>2018-09-26T17:40:42</date>
  <millis>1537963842804</millis>
  <sequence>65</sequence>
  <level>INFO</level>
  <class>com.kms.katalon.core.logging.KeywordLogger</class>
  <method>logMessage</method>
  <thread>1</thread>
  <message>Checking object</message>
  <nestedLevel>1</nestedLevel>
</record>
<record>
  <date>2018-09-26T17:40:42</date>
  <millis>1537963842804</millis>
  <sequence>66</sequence>
  <level>INFO</level>
  <class>com.kms.katalon.core.logging.KeywordLogger</class>
  <method>logMessage</method>
  <thread>1</thread>
  <message>Checking timeout</message>
  <nestedLevel>1</nestedLevel>
</record>
<record>
  <date>2018-09-26T17:40:42</date>
  <millis>1537963842804</millis>
  <sequence>67</sequence>
  <level>WARNING</level>
  <class>com.kms.katalon.core.logging.KeywordLogger</class>
  <method>logMessage</method>
  <thread>1</thread>
  <message>Timeout &amp;apos;0&amp;apos; is invalid. Using default page load timeout: &amp;apos;30&amp;apos;</message>
  <nestedLevel>1</nestedLevel>
</record>
<record>
  <date>2018-09-26T17:40:46</date>
  <millis>1537963846342</millis>
  <sequence>68</sequence>
  <level>PASSED</level>
  <class>com.kms.katalon.core.logging.KeywordLogger</class>
  <method>logMessage</method>
  <thread>1</thread>
  <message>Tapped on element &amp;apos;Object Repository/Admin Login/Tap on - demo.nexteducationgmail.com to login&amp;apos;</message>
  <nestedLevel>1</nestedLevel>
</record>
<record>
  <date>2018-09-26T17:40:46</date>
  <millis>1537963846343</millis>
  <sequence>69</sequence>
  <level>END</level>
  <class>com.kms.katalon.core.logging.KeywordLogger</class>
  <method>endKeyword</method>
  <thread>1</thread>
  <message>End action : tap</message>
  <nestedLevel>1</nestedLevel>
</record>
<record>
  <date>2018-09-26T17:40:46</date>
  <millis>1537963846344</millis>
  <sequence>70</sequence>
  <level>PASSED</level>
  <class>com.kms.katalon.core.logging.KeywordLogger</class>
  <method>logMessage</method>
  <thread>1</thread>
  <message>Test Cases/Admin Login/Login/Verify if able to select the available login</message>
  <nestedLevel>1</nestedLevel>
</record>
<record>
  <date>2018-09-26T17:40:46</date>
  <millis>1537963846360</millis>
  <sequence>71</sequence>
  <level>END</level>
  <class>com.kms.katalon.core.logging.KeywordLogger</class>
  <method>endTest</method>
  <thread>1</thread>
  <message>End Test Case : Test Cases/Admin Login/Login/Verify if able to select the available login</message>
  <nestedLevel>0</nestedLevel>
</record>
<record>
  <date>2018-09-26T17:40:46</date>
  <millis>1537963846375</millis>
  <sequence>72</sequence>
  <level>START</level>
  <class>com.kms.katalon.core.logging.KeywordLogger</class>
  <method>startTest</method>
  <thread>1</thread>
  <message>Start Test Case : Test Cases/Staff Login/Login/Verify if able to select Yes in Push Notifcations popup</message>
  <nestedLevel>1</nestedLevel>
  <property name="name">Test Cases/Staff Login/Login/Verify if able to select Yes in Push Notifcations popup</property>
  <property name="description"></property>
  <property name="id">Test Cases/Staff Login/Login/Verify if able to select Yes in Push Notifcations popup</property>
  <property name="source">C:\\Users\\lakshmikanthk\\Katalon Studio\\Mobile App Google Login\\Test Cases\\Staff Login\\Login\\Verify if able to select Yes in Push Notifcations popup.tc</property>
  <property name="isOptional">false</property>
</record>
<record>
  <date>2018-09-26T17:40:46</date>
  <millis>1537963846375</millis>
  <sequence>73</sequence>
  <level>INFO</level>
  <class>com.kms.katalon.core.logging.KeywordLogger</class>
  <method>logMessage</method>
  <thread>1</thread>
  <message>Evaluating variables for test case</message>
  <nestedLevel>1</nestedLevel>
</record>
<record>
  <date>2018-09-26T17:40:46</date>
  <millis>1537963846763</millis>
  <sequence>74</sequence>
  <level>START</level>
  <class>com.kms.katalon.core.logging.KeywordLogger</class>
  <method>startKeyword</method>
  <thread>1</thread>
  <message>Start action : tap</message>
  <nestedLevel>1</nestedLevel>
  <property name="startLine">17</property>
  <property name="stepIndex">1</property>
  <property name="description">Click on Yes in push notification</property>
</record>
<record>
  <date>2018-09-26T17:40:46</date>
  <millis>1537963846763</millis>
  <sequence>75</sequence>
  <level>INFO</level>
  <class>com.kms.katalon.core.logging.KeywordLogger</class>
  <method>logMessage</method>
  <thread>1</thread>
  <message>Finding Test Object with id &amp;apos;Object Repository/Google Sign in/android.widget.Button1 - Yes&amp;apos;</message>
  <nestedLevel>1</nestedLevel>
</record>
<record>
  <date>2018-09-26T17:40:46</date>
  <millis>1537963846779</millis>
  <sequence>76</sequence>
  <level>INFO</level>
  <class>com.kms.katalon.core.logging.KeywordLogger</class>
  <method>logMessage</method>
  <thread>1</thread>
  <message>Checking object</message>
  <nestedLevel>1</nestedLevel>
</record>
<record>
  <date>2018-09-26T17:40:46</date>
  <millis>1537963846779</millis>
  <sequence>77</sequence>
  <level>INFO</level>
  <class>com.kms.katalon.core.logging.KeywordLogger</class>
  <method>logMessage</method>
  <thread>1</thread>
  <message>Checking timeout</message>
  <nestedLevel>1</nestedLevel>
</record>
<record>
  <date>2018-09-26T17:40:46</date>
  <millis>1537963846779</millis>
  <sequence>78</sequence>
  <level>WARNING</level>
  <class>com.kms.katalon.core.logging.KeywordLogger</class>
  <method>logMessage</method>
  <thread>1</thread>
  <message>Timeout &amp;apos;0&amp;apos; is invalid. Using default page load timeout: &amp;apos;30&amp;apos;</message>
  <nestedLevel>1</nestedLevel>
</record>
<record>
  <date>2018-09-26T17:40:51</date>
  <millis>1537963851469</millis>
  <sequence>79</sequence>
  <level>PASSED</level>
  <class>com.kms.katalon.core.logging.KeywordLogger</class>
  <method>logMessage</method>
  <thread>1</thread>
  <message>Tapped on element &amp;apos;Object Repository/Google Sign in/android.widget.Button1 - Yes&amp;apos;</message>
  <nestedLevel>1</nestedLevel>
</record>
<record>
  <date>2018-09-26T17:40:51</date>
  <millis>1537963851470</millis>
  <sequence>80</sequence>
  <level>END</level>
  <class>com.kms.katalon.core.logging.KeywordLogger</class>
  <method>endKeyword</method>
  <thread>1</thread>
  <message>End action : tap</message>
  <nestedLevel>1</nestedLevel>
</record>
<record>
  <date>2018-09-26T17:40:51</date>
  <millis>1537963851471</millis>
  <sequence>81</sequence>
  <level>PASSED</level>
  <class>com.kms.katalon.core.logging.KeywordLogger</class>
  <method>logMessage</method>
  <thread>1</thread>
  <message>Test Cases/Staff Login/Login/Verify if able to select Yes in Push Notifcations popup</message>
  <nestedLevel>1</nestedLevel>
</record>
<record>
  <date>2018-09-26T17:40:51</date>
  <millis>1537963851472</millis>
  <sequence>82</sequence>
  <level>END</level>
  <class>com.kms.katalon.core.logging.KeywordLogger</class>
  <method>endTest</method>
  <thread>1</thread>
  <message>End Test Case : Test Cases/Staff Login/Login/Verify if able to select Yes in Push Notifcations popup</message>
  <nestedLevel>0</nestedLevel>
</record>
<record>
  <date>2018-09-26T17:40:51</date>
  <millis>1537963851483</millis>
  <sequence>83</sequence>
  <level>START</level>
  <class>com.kms.katalon.core.logging.KeywordLogger</class>
  <method>startTest</method>
  <thread>1</thread>
  <message>Start Test Case : Test Cases/Admin Login/Student List/Verify if able to click on student List</message>
  <nestedLevel>1</nestedLevel>
  <property name="name">Test Cases/Admin Login/Student List/Verify if able to click on student List</property>
  <property name="description"></property>
  <property name="id">Test Cases/Admin Login/Student List/Verify if able to click on student List</property>
  <property name="source">C:\\Users\\lakshmikanthk\\Katalon Studio\\Mobile App Google Login\\Test Cases\\Admin Login\\Student List\\Verify if able to click on student List.tc</property>
  <property name="isOptional">false</property>
</record>
<record>
  <date>2018-09-26T17:40:51</date>
  <millis>1537963851525</millis>
  <sequence>84</sequence>
  <level>INFO</level>
  <class>com.kms.katalon.core.logging.KeywordLogger</class>
  <method>logMessage</method>
  <thread>1</thread>
  <message>Evaluating variables for test case</message>
  <nestedLevel>1</nestedLevel>
</record>
<record>
  <date>2018-09-26T17:40:52</date>
  <millis>1537963852044</millis>
  <sequence>85</sequence>
  <level>START</level>
  <class>com.kms.katalon.core.logging.KeywordLogger</class>
  <method>startKeyword</method>
  <thread>1</thread>
  <message>Start action : tap</message>
  <nestedLevel>1</nestedLevel>
  <property name="startLine">16</property>
  <property name="stepIndex">1</property>
</record>
<record>
  <date>2018-09-26T17:40:52</date>
  <millis>1537963852044</millis>
  <sequence>86</sequence>
  <level>INFO</level>
  <class>com.kms.katalon.core.logging.KeywordLogger</class>
  <method>logMessage</method>
  <thread>1</thread>
  <message>Finding Test Object with id &amp;apos;Object Repository/Admin Login/Student List/Tap on Student List&amp;apos;</message>
  <nestedLevel>1</nestedLevel>
</record>
<record>
  <date>2018-09-26T17:40:52</date>
  <millis>1537963852060</millis>
  <sequence>87</sequence>
  <level>INFO</level>
  <class>com.kms.katalon.core.logging.KeywordLogger</class>
  <method>logMessage</method>
  <thread>1</thread>
  <message>Checking object</message>
  <nestedLevel>1</nestedLevel>
</record>
<record>
  <date>2018-09-26T17:40:52</date>
  <millis>1537963852060</millis>
  <sequence>88</sequence>
  <level>INFO</level>
  <class>com.kms.katalon.core.logging.KeywordLogger</class>
  <method>logMessage</method>
  <thread>1</thread>
  <message>Checking timeout</message>
  <nestedLevel>1</nestedLevel>
</record>
<record>
  <date>2018-09-26T17:40:52</date>
  <millis>1537963852060</millis>
  <sequence>89</sequence>
  <level>WARNING</level>
  <class>com.kms.katalon.core.logging.KeywordLogger</class>
  <method>logMessage</method>
  <thread>1</thread>
  <message>Timeout &amp;apos;0&amp;apos; is invalid. Using default page load timeout: &amp;apos;30&amp;apos;</message>
  <nestedLevel>1</nestedLevel>
</record>
<record>
  <date>2018-09-26T17:40:53</date>
  <millis>1537963853564</millis>
  <sequence>90</sequence>
  <level>PASSED</level>
  <class>com.kms.katalon.core.logging.KeywordLogger</class>
  <method>logMessage</method>
  <thread>1</thread>
  <message>Tapped on element &amp;apos;Object Repository/Admin Login/Student List/Tap on Student List&amp;apos;</message>
  <nestedLevel>1</nestedLevel>
</record>
<record>
  <date>2018-09-26T17:40:53</date>
  <millis>1537963853566</millis>
  <sequence>91</sequence>
  <level>END</level>
  <class>com.kms.katalon.core.logging.KeywordLogger</class>
  <method>endKeyword</method>
  <thread>1</thread>
  <message>End action : tap</message>
  <nestedLevel>1</nestedLevel>
</record>
<record>
  <date>2018-09-26T17:40:53</date>
  <millis>1537963853567</millis>
  <sequence>92</sequence>
  <level>PASSED</level>
  <class>com.kms.katalon.core.logging.KeywordLogger</class>
  <method>logMessage</method>
  <thread>1</thread>
  <message>Test Cases/Admin Login/Student List/Verify if able to click on student List</message>
  <nestedLevel>1</nestedLevel>
</record>
<record>
  <date>2018-09-26T17:40:53</date>
  <millis>1537963853568</millis>
  <sequence>93</sequence>
  <level>END</level>
  <class>com.kms.katalon.core.logging.KeywordLogger</class>
  <method>endTest</method>
  <thread>1</thread>
  <message>End Test Case : Test Cases/Admin Login/Student List/Verify if able to click on student List</message>
  <nestedLevel>0</nestedLevel>
</record>
<record>
  <date>2018-09-26T17:40:53</date>
  <millis>1537963853599</millis>
  <sequence>94</sequence>
  <level>START</level>
  <class>com.kms.katalon.core.logging.KeywordLogger</class>
  <method>startTest</method>
  <thread>1</thread>
  <message>Start Test Case : Test Cases/Admin Login/Student List/Filter/Verify if able to click on Filter to see Gender and Clas section details</message>
  <nestedLevel>1</nestedLevel>
  <property name="name">Test Cases/Admin Login/Student List/Filter/Verify if able to click on Filter to see Gender and Clas section details</property>
  <property name="description"></property>
  <property name="id">Test Cases/Admin Login/Student List/Filter/Verify if able to click on Filter to see Gender and Clas section details</property>
  <property name="source">C:\\Users\\lakshmikanthk\\Katalon Studio\\Mobile App Google Login\\Test Cases\\Admin Login\\Student List\\Filter\\Verify if able to click on Filter to see Gender and Clas section details.tc</property>
  <property name="isOptional">false</property>
</record>
<record>
  <date>2018-09-26T17:40:53</date>
  <millis>1537963853600</millis>
  <sequence>95</sequence>
  <level>INFO</level>
  <class>com.kms.katalon.core.logging.KeywordLogger</class>
  <method>logMessage</method>
  <thread>1</thread>
  <message>Evaluating variables for test case</message>
  <nestedLevel>1</nestedLevel>
</record>
<record>
  <date>2018-09-26T17:40:54</date>
  <millis>1537963854003</millis>
  <sequence>96</sequence>
  <level>START</level>
  <class>com.kms.katalon.core.logging.KeywordLogger</class>
  <method>startKeyword</method>
  <thread>1</thread>
  <message>Start action : tap</message>
  <nestedLevel>1</nestedLevel>
  <property name="startLine">16</property>
  <property name="stepIndex">1</property>
</record>
<record>
  <date>2018-09-26T17:40:54</date>
  <millis>1537963854003</millis>
  <sequence>97</sequence>
  <level>INFO</level>
  <class>com.kms.katalon.core.logging.KeywordLogger</class>
  <method>logMessage</method>
  <thread>1</thread>
  <message>Finding Test Object with id &amp;apos;Object Repository/Admin Login/Student List/Tap on Filter in Student List&amp;apos;</message>
  <nestedLevel>1</nestedLevel>
</record>
<record>
  <date>2018-09-26T17:40:54</date>
  <millis>1537963854019</millis>
  <sequence>98</sequence>
  <level>INFO</level>
  <class>com.kms.katalon.core.logging.KeywordLogger</class>
  <method>logMessage</method>
  <thread>1</thread>
  <message>Checking object</message>
  <nestedLevel>1</nestedLevel>
</record>
<record>
  <date>2018-09-26T17:40:54</date>
  <millis>1537963854019</millis>
  <sequence>99</sequence>
  <level>INFO</level>
  <class>com.kms.katalon.core.logging.KeywordLogger</class>
  <method>logMessage</method>
  <thread>1</thread>
  <message>Checking timeout</message>
  <nestedLevel>1</nestedLevel>
</record>
<record>
  <date>2018-09-26T17:40:54</date>
  <millis>1537963854019</millis>
  <sequence>100</sequence>
  <level>WARNING</level>
  <class>com.kms.katalon.core.logging.KeywordLogger</class>
  <method>logMessage</method>
  <thread>1</thread>
  <message>Timeout &amp;apos;0&amp;apos; is invalid. Using default page load timeout: &amp;apos;30&amp;apos;</message>
  <nestedLevel>1</nestedLevel>
</record>
<record>
  <date>2018-09-26T17:40:55</date>
  <millis>1537963855046</millis>
  <sequence>101</sequence>
  <level>PASSED</level>
  <class>com.kms.katalon.core.logging.KeywordLogger</class>
  <method>logMessage</method>
  <thread>1</thread>
  <message>Tapped on element &amp;apos;Object Repository/Admin Login/Student List/Tap on Filter in Student List&amp;apos;</message>
  <nestedLevel>1</nestedLevel>
</record>
<record>
  <date>2018-09-26T17:40:55</date>
  <millis>1537963855047</millis>
  <sequence>102</sequence>
  <level>END</level>
  <class>com.kms.katalon.core.logging.KeywordLogger</class>
  <method>endKeyword</method>
  <thread>1</thread>
  <message>End action : tap</message>
  <nestedLevel>1</nestedLevel>
</record>
<record>
  <date>2018-09-26T17:40:55</date>
  <millis>1537963855047</millis>
  <sequence>103</sequence>
  <level>PASSED</level>
  <class>com.kms.katalon.core.logging.KeywordLogger</class>
  <method>logMessage</method>
  <thread>1</thread>
  <message>Test Cases/Admin Login/Student List/Filter/Verify if able to click on Filter to see Gender and Clas section details</message>
  <nestedLevel>1</nestedLevel>
</record>
<record>
  <date>2018-09-26T17:40:55</date>
  <millis>1537963855048</millis>
  <sequence>104</sequence>
  <level>END</level>
  <class>com.kms.katalon.core.logging.KeywordLogger</class>
  <method>endTest</method>
  <thread>1</thread>
  <message>End Test Case : Test Cases/Admin Login/Student List/Filter/Verify if able to click on Filter to see Gender and Clas section details</message>
  <nestedLevel>0</nestedLevel>
</record>
<record>
  <date>2018-09-26T17:40:55</date>
  <millis>1537963855209</millis>
  <sequence>105</sequence>
  <level>START</level>
  <class>com.kms.katalon.core.logging.KeywordLogger</class>
  <method>startTest</method>
  <thread>1</thread>
  <message>Start Test Case : Test Cases/Admin Login/Student List/Filter/Verify if able to select Male in Gender</message>
  <nestedLevel>1</nestedLevel>
  <property name="name">Test Cases/Admin Login/Student List/Filter/Verify if able to select Male in Gender</property>
  <property name="description"></property>
  <property name="id">Test Cases/Admin Login/Student List/Filter/Verify if able to select Male in Gender</property>
  <property name="source">C:\\Users\\lakshmikanthk\\Katalon Studio\\Mobile App Google Login\\Test Cases\\Admin Login\\Student List\\Filter\\Verify if able to select Male in Gender.tc</property>
  <property name="isOptional">false</property>
</record>
<record>
  <date>2018-09-26T17:40:55</date>
  <millis>1537963855273</millis>
  <sequence>106</sequence>
  <level>INFO</level>
  <class>com.kms.katalon.core.logging.KeywordLogger</class>
  <method>logMessage</method>
  <thread>1</thread>
  <message>Evaluating variables for test case</message>
  <nestedLevel>1</nestedLevel>
</record>
<record>
  <date>2018-09-26T17:40:55</date>
  <millis>1537963855576</millis>
  <sequence>107</sequence>
  <level>START</level>
  <class>com.kms.katalon.core.logging.KeywordLogger</class>
  <method>startKeyword</method>
  <thread>1</thread>
  <message>Start action : tap</message>
  <nestedLevel>1</nestedLevel>
  <property name="startLine">16</property>
  <property name="stepIndex">1</property>
</record>
<record>
  <date>2018-09-26T17:40:55</date>
  <millis>1537963855576</millis>
  <sequence>108</sequence>
  <level>INFO</level>
  <class>com.kms.katalon.core.logging.KeywordLogger</class>
  <method>logMessage</method>
  <thread>1</thread>
  <message>Finding Test Object with id &amp;apos;Object Repository/Admin Login/Student List/Tap on Male in Gender&amp;apos;</message>
  <nestedLevel>1</nestedLevel>
</record>
<record>
  <date>2018-09-26T17:40:55</date>
  <millis>1537963855592</millis>
  <sequence>109</sequence>
  <level>INFO</level>
  <class>com.kms.katalon.core.logging.KeywordLogger</class>
  <method>logMessage</method>
  <thread>1</thread>
  <message>Checking object</message>
  <nestedLevel>1</nestedLevel>
</record>
<record>
  <date>2018-09-26T17:40:55</date>
  <millis>1537963855592</millis>
  <sequence>110</sequence>
  <level>INFO</level>
  <class>com.kms.katalon.core.logging.KeywordLogger</class>
  <method>logMessage</method>
  <thread>1</thread>
  <message>Checking timeout</message>
  <nestedLevel>1</nestedLevel>
</record>
<record>
  <date>2018-09-26T17:40:55</date>
  <millis>1537963855592</millis>
  <sequence>111</sequence>
  <level>WARNING</level>
  <class>com.kms.katalon.core.logging.KeywordLogger</class>
  <method>logMessage</method>
  <thread>1</thread>
  <message>Timeout &amp;apos;0&amp;apos; is invalid. Using default page load timeout: &amp;apos;30&amp;apos;</message>
  <nestedLevel>1</nestedLevel>
</record>
<record>
  <date>2018-09-26T17:40:57</date>
  <millis>1537963857534</millis>
  <sequence>112</sequence>
  <level>PASSED</level>
  <class>com.kms.katalon.core.logging.KeywordLogger</class>
  <method>logMessage</method>
  <thread>1</thread>
  <message>Tapped on element &amp;apos;Object Repository/Admin Login/Student List/Tap on Male in Gender&amp;apos;</message>
  <nestedLevel>1</nestedLevel>
</record>
<record>
  <date>2018-09-26T17:40:57</date>
  <millis>1537963857535</millis>
  <sequence>113</sequence>
  <level>END</level>
  <class>com.kms.katalon.core.logging.KeywordLogger</class>
  <method>endKeyword</method>
  <thread>1</thread>
  <message>End action : tap</message>
  <nestedLevel>1</nestedLevel>
</record>
<record>
  <date>2018-09-26T17:40:57</date>
  <millis>1537963857536</millis>
  <sequence>114</sequence>
  <level>PASSED</level>
  <class>com.kms.katalon.core.logging.KeywordLogger</class>
  <method>logMessage</method>
  <thread>1</thread>
  <message>Test Cases/Admin Login/Student List/Filter/Verify if able to select Male in Gender</message>
  <nestedLevel>1</nestedLevel>
</record>
<record>
  <date>2018-09-26T17:40:57</date>
  <millis>1537963857567</millis>
  <sequence>115</sequence>
  <level>END</level>
  <class>com.kms.katalon.core.logging.KeywordLogger</class>
  <method>endTest</method>
  <thread>1</thread>
  <message>End Test Case : Test Cases/Admin Login/Student List/Filter/Verify if able to select Male in Gender</message>
  <nestedLevel>0</nestedLevel>
</record>
<record>
  <date>2018-09-26T17:40:57</date>
  <millis>1537963857567</millis>
  <sequence>116</sequence>
  <level>START</level>
  <class>com.kms.katalon.core.logging.KeywordLogger</class>
  <method>startTest</method>
  <thread>1</thread>
  <message>Start Test Case : Test Cases/Admin Login/Student List/Filter/Verify if able to select Class from the list</message>
  <nestedLevel>1</nestedLevel>
  <property name="name">Test Cases/Admin Login/Student List/Filter/Verify if able to select Class from the list</property>
  <property name="description"></property>
  <property name="id">Test Cases/Admin Login/Student List/Filter/Verify if able to select Class from the list</property>
  <property name="source">C:\\Users\\lakshmikanthk\\Katalon Studio\\Mobile App Google Login\\Test Cases\\Admin Login\\Student List\\Filter\\Verify if able to select Class from the list.tc</property>
  <property name="isOptional">false</property>
</record>
<record>
  <date>2018-09-26T17:40:57</date>
  <millis>1537963857568</millis>
  <sequence>117</sequence>
  <level>INFO</level>
  <class>com.kms.katalon.core.logging.KeywordLogger</class>
  <method>logMessage</method>
  <thread>1</thread>
  <message>Evaluating variables for test case</message>
  <nestedLevel>1</nestedLevel>
</record>
<record>
  <date>2018-09-26T17:40:57</date>
  <millis>1537963857958</millis>
  <sequence>118</sequence>
  <level>START</level>
  <class>com.kms.katalon.core.logging.KeywordLogger</class>
  <method>startKeyword</method>
  <thread>1</thread>
  <message>Start action : tap</message>
  <nestedLevel>1</nestedLevel>
  <property name="startLine">16</property>
  <property name="stepIndex">1</property>
</record>
<record>
  <date>2018-09-26T17:40:57</date>
  <millis>1537963857958</millis>
  <sequence>119</sequence>
  <level>INFO</level>
  <class>com.kms.katalon.core.logging.KeywordLogger</class>
  <method>logMessage</method>
  <thread>1</thread>
  <message>Finding Test Object with id &amp;apos;Object Repository/Admin Login/Student List/Tap on Class I in Select Class filter&amp;apos;</message>
  <nestedLevel>1</nestedLevel>
</record>
<record>
  <date>2018-09-26T17:40:57</date>
  <millis>1537963857973</millis>
  <sequence>120</sequence>
  <level>INFO</level>
  <class>com.kms.katalon.core.logging.KeywordLogger</class>
  <method>logMessage</method>
  <thread>1</thread>
  <message>Checking object</message>
  <nestedLevel>1</nestedLevel>
</record>
<record>
  <date>2018-09-26T17:40:57</date>
  <millis>1537963857973</millis>
  <sequence>121</sequence>
  <level>INFO</level>
  <class>com.kms.katalon.core.logging.KeywordLogger</class>
  <method>logMessage</method>
  <thread>1</thread>
  <message>Checking timeout</message>
  <nestedLevel>1</nestedLevel>
</record>
<record>
  <date>2018-09-26T17:40:57</date>
  <millis>1537963857973</millis>
  <sequence>122</sequence>
  <level>WARNING</level>
  <class>com.kms.katalon.core.logging.KeywordLogger</class>
  <method>logMessage</method>
  <thread>1</thread>
  <message>Timeout &amp;apos;0&amp;apos; is invalid. Using default page load timeout: &amp;apos;30&amp;apos;</message>
  <nestedLevel>1</nestedLevel>
</record>
