Suite/Test/Step Name,Browser,Description,Start time,End time,Duration,Status
Login,,,2018-08-30 14:08:52,2018-08-30 14:12:39,3m - 47.304s,FAILED
,,,,,,
Test Cases/GLogin,,,2018-08-30 14:08:53,2018-08-30 14:12:30,3m - 37.551s,FAILED
startApplication,,Launch Application,2018-08-30 14:08:54,2018-08-30 14:10:04,1m - 10.557s,PASSED
setText,,Enter SchoolCode,2018-08-30 14:10:04,2018-08-30 14:10:22,17.948s,PASSED
tap,,"Click on ""Proceed"" button
",2018-08-30 14:10:22,2018-08-30 14:10:23,1.195s,PASSED
tap,,"Click on ""Login with Google"" Button",2018-08-30 14:10:23,2018-08-30 14:10:28,4.585s,PASSED
waitForElementPresent,,,2018-08-30 14:10:28,2018-08-30 14:10:55,27.382s,PASSED
setText,,Enter Gmail ,2018-08-30 14:10:55,2018-08-30 14:11:04,9.011s,PASSED
tap,,Click on Next,2018-08-30 14:11:04,2018-08-30 14:11:06,1.178s,PASSED
setText,,Enter Password for gmail account,2018-08-30 14:11:06,2018-08-30 14:11:19,13.462s,PASSED
tap,,Click on Next,2018-08-30 14:11:19,2018-08-30 14:11:20,1.073s,PASSED
tap,,Accept Terms and Services,2018-08-30 14:11:20,2018-08-30 14:11:23,2.465s,PASSED
tap,,Scroll to text for Accept button to be enabled,2018-08-30 14:11:23,2018-08-30 14:11:36,12.861s,PASSED
tap,,Click on Accept,2018-08-30 14:11:36,2018-08-30 14:11:40,4.693s,PASSED
tap,,Choose the desired Gmail login which is registered with NLP,2018-08-30 14:11:40,2018-08-30 14:11:47,6.564s,PASSED
tap,,"Choose ""Yes"" from the Push Notifications Popup",2018-08-30 14:11:47,2018-08-30 14:12:30,43.535s,FAILED
